0.000000,0.029178,4.541114,13.143236,10.915119,2.628647,0.058355,0.000000,0.000000,1.164456,12.938992,13.068966,12.244032,10.689655,0.737401,0.000000,0.000000,3.864721,14.334218,4.679045,2.989390,12.697613,3.318302,0.000000,0.000000,5.214854,12.721485,1.660477,0.328912,9.190981,6.612732,0.000000,0.000000,5.411141,11.877984,0.941645,0.180371,8.647215,7.368700,0.000000,0.000000,3.307692,13.493369,1.790451,1.450928,11.355438,6.437666,0.000000,0.000000,0.761273,13.084881,10.543767,10.610080,13.450928,2.687003,0.000000,0.000000,0.018568,4.554377,13.517241,13.289125,5.546419,0.201592,0.000000,0
0.000000,0.015385,2.338462,8.994872,11.046154,5.758974,0.517949,0.000000,0.000000,0.217949,4.766667,12.574359,14.792308,9.220513,0.907692,0.000000,0.033333,1.412821,8.051282,14.638462,14.879487,8.148718,0.546154,0.000000,0.010256,2.441026,10.082051,14.641026,14.638462,7.482051,0.456410,0.000000,0.000000,1.625641,7.441026,12.043590,14.456410,7.248718,0.402564,0.000000,0.000000,0.382051,4.694872,10.515385,14.179487,7.705128,0.556410,0.000000,0.000000,0.135897,4.461538,10.910256,14.430769,9.510256,1.633333,0.189744,0.000000,0.038462,2.323077,8.615385,12.535897,8.964103,2.325641,0.497436,1
0.000000,0.939633,10.314961,13.913386,7.590551,1.380577,0.094488,0.000000,0.000000,4.942257,14.585302,12.593176,12.104987,4.249344,0.275591,0.000000,0.000000,4.414698,8.076115,4.251969,11.097113,5.446194,0.330709,0.000000,0.000000,1.118110,2.341207,4.593176,11.385827,4.433071,0.136483,0.000000,0.000000,0.073491,1.217848,8.128609,10.162730,2.249344,0.057743,0.000000,0.000000,0.251969,4.637795,11.385827,7.091864,1.417323,0.330709,0.000000,0.013123,1.540682,11.834646,14.595801,12.020997,10.624672,6.811024,0.362205,0.002625,0.963255,10.532808,14.007874,13.167979,12.152231,8.874016,1.204724,2
0.000000,0.817949,8.748718,13.897436,13.125641,5.607692,0.679487,0.041026,0.000000,4.248718,12.982051,9.294872,11.897436,10.748718,1.666667,0.043590,0.000000,1.707692,3.323077,3.276923,11.602564,9.023077,0.741026,0.000000,0.000000,0.146154,2.156410,10.523077,14.189744,6.025641,0.220513,0.000000,0.000000,0.056410,1.664103,7.646154,12.410256,11.912821,2.530769,0.000000,0.000000,0.046154,0.487179,0.658974,3.838462,12.779487,6.692308,0.007692,0.000000,0.894872,7.307692,6.443590,8.289744,13.738462,5.838462,0.030769,0.000000,0.700000,9.676923,14.474359,13.015385,7.610256,1.228205,0.005128,3
0.000000,0.018041,0.932990,6.255155,11.038660,2.677835,0.644330,0.219072,0.000000,0.167526,3.152062,11.780928,8.904639,2.641753,2.587629,0.451031,0.000000,0.832474,8.582474,11.752577,4.059278,6.144330,4.708763,0.286082,0.000000,3.680412,13.407216,8.909794,5.587629,11.845361,6.226804,0.025773,0.012887,6.525773,14.244845,10.319588,11.832474,14.298969,4.817010,0.000000,0.270619,5.878866,9.860825,11.056701,14.520619,11.095361,1.695876,0.002577,0.162371,1.909794,3.543814,7.644330,13.554124,5.590206,0.378866,0.010309,0.000000,0.069588,1.041237,6.976804,11.268041,2.592784,0.097938,0.018041,4
0.000000,0.490716,7.962865,12.962865,13.978780,11.238727,3.307692,0.108753,0.007958,3.000000,14.098143,12.774536,9.440318,7.779841,2.204244,0.031830,0.013263,4.421751,13.954907,6.676393,2.604775,0.785146,0.079576,0.000000,0.000000,4.442971,13.578249,12.135279,8.949602,4.445623,0.411141,0.000000,0.000000,1.305040,6.294430,7.557029,8.726790,8.050398,1.909814,0.000000,0.000000,0.100796,0.816976,2.458886,6.557029,9.488064,2.607427,0.005305,0.000000,0.660477,6.257294,8.010610,11.023873,9.114058,1.718833,0.021220,0.000000,0.379310,8.774536,14.307692,10.530504,3.525199,0.435013,0.005305,5
0.000000,0.007937,2.095238,10.769841,7.970899,1.121693,0.000000,0.000000,0.000000,0.174603,8.044974,13.563492,5.600529,0.830688,0.000000,0.000000,0.000000,0.989418,12.576720,8.727513,0.629630,0.021164,0.002646,0.000000,0.000000,2.208995,13.791005,6.883598,2.703704,1.052910,0.055556,0.000000,0.000000,3.296296,14.481481,11.907407,11.505291,9.304233,2.039683,0.000000,0.000000,2.097884,14.777778,11.679894,7.571429,11.052910,9.089947,0.177249,0.000000,0.433862,10.648148,12.825397,6.293651,11.039683,11.309524,0.809524,0.000000,0.018519,2.121693,10.526455,14.600529,12.793651,5.457672,0.246032,6
0.000000,0.391753,6.969072,13.317010,14.378866,12.301546,6.224227,0.976804,0.000000,0.914948,8.837629,10.414948,10.984536,13.317010,7.404639,0.791237,0.000000,0.399485,1.489691,0.855670,6.564433,12.293814,4.275773,0.123711,0.000000,0.451031,3.376289,6.868557,12.621134,12.306701,4.146907,0.005155,0.000000,1.510309,8.613402,13.932990,15.260309,12.554124,4.829897,0.000000,0.000000,0.809278,4.067010,12.221649,10.639175,3.796392,0.726804,0.000000,0.000000,0.146907,4.734536,13.422680,5.023196,0.244845,0.002577,0.000000,0.000000,0.394330,8.244845,11.172680,1.592784,0.113402,0.000000,0.000000,7
0.000000,0.144357,5.543307,12.635171,12.314961,5.950131,0.469816,0.000000,0.013123,2.448819,13.440945,10.162730,9.236220,11.892388,2.377953,0.000000,0.002625,3.758530,12.412073,6.196850,8.110236,11.456693,2.188976,0.000000,0.000000,1.414698,10.070866,13.593176,13.461942,6.824147,0.640420,0.000000,0.000000,0.377953,7.879265,14.433071,11.910761,4.435696,0.469816,0.000000,0.000000,1.083990,11.509186,8.973753,8.711286,7.653543,1.824147,0.000000,0.000000,1.251969,12.459318,8.375328,8.094488,9.968504,2.690289,0.000000,0.000000,0.118110,5.829396,13.359580,12.653543,6.779528,0.937008,0.018373,8
0.000000,0.146214,5.271540,11.968668,11.770235,6.154047,1.796345,0.060052,0.000000,2.300261,12.926893,10.723238,10.626632,11.245431,3.681462,0.182768,0.000000,4.221932,13.206266,6.026110,8.770235,14.065274,4.156658,0.075718,0.000000,2.287206,10.911227,11.096606,12.234987,14.650131,4.420366,0.000000,0.000000,0.224543,2.796345,5.031332,6.402089,12.848564,4.642298,0.000000,0.000000,0.065274,0.328982,0.817232,4.159269,10.195822,5.185379,0.007833,0.000000,0.446475,4.459530,5.890339,7.997389,9.485640,4.425587,0.065274,0.000000,0.117493,5.334204,12.310705,11.812010,6.874674,1.527415,0.023499,9
*****************************
0 => 0.00
1 => 0.00
2 => 0.00
3 => 0.00
4 => 0.00
5 => 0.00
6 => 0.00
7 => 0.00
8 => 0.00
9 => 0.00
*****************************