run:
****************************************************************************************************
Testing
Algorithm Name: NearestNeighbors
Test Path: D:\Dropbox\STC\3rd Year\AI\CSD3939_CW2\Data Set\Data Folder\PreProcessed\optdigits.tes
Training Path: D:\Dropbox\STC\3rd Year\AI\CSD3939_CW2\Data Set\Data Folder\PreProcessed\optdigits.tra
****************************************************************************************************
Duration: 4.5090497430 S
Digit: 0 -> 100.000000% (100.00%)
Digit: 1 -> 99.450549% (99.45%)
Digit: 2 -> 98.870056% (98.87%)
Digit: 3 -> 97.814208% (97.81%)
Digit: 4 -> 98.342541% (98.34%)
Digit: 5 -> 98.351648% (98.35%)
Digit: 6 -> 100.000000% (100.00%)
Digit: 7 -> 98.882682% (98.88%)
Digit: 8 -> 94.252874% (94.25%)
Digit: 9 -> 93.888889% (93.89%)
Global: 97.996661% (98.00%)
****************************************************************************************************
****************************************************************************************************
Testing
Algorithm Name: NearestNeighbors
Test Path: D:\Dropbox\STC\3rd Year\AI\CSD3939_CW2\Data Set\Data Folder\PreProcessed\optdigits.tes
Training Path: D:\Dropbox\STC\3rd Year\AI\CSD3939_CW2\Data Set\Data Folder\PreProcessed\optdigits.tra
****************************************************************************************************
Duration: 4.4269097370 S
Digit: 0 -> 100.000000% (100.00%)
Digit: 1 -> 99.450549% (99.45%)
Digit: 2 -> 98.870056% (98.87%)
Digit: 3 -> 97.814208% (97.81%)
Digit: 4 -> 98.342541% (98.34%)
Digit: 5 -> 98.351648% (98.35%)
Digit: 6 -> 100.000000% (100.00%)
Digit: 7 -> 98.882682% (98.88%)
Digit: 8 -> 94.252874% (94.25%)
Digit: 9 -> 93.888889% (93.89%)
Global: 97.996661% (98.00%)
****************************************************************************************************
****************************************************************************************************
Testing
Algorithm Name: NearestNeighbors
Test Path: D:\Dropbox\STC\3rd Year\AI\CSD3939_CW2\Data Set\Data Folder\PreProcessed\optdigits.tes
Training Path: D:\Dropbox\STC\3rd Year\AI\CSD3939_CW2\Data Set\Data Folder\PreProcessed\optdigits.tra
****************************************************************************************************
Duration: 4.4864094340 S
Digit: 0 -> 100.000000% (100.00%)
Digit: 1 -> 99.450549% (99.45%)
Digit: 2 -> 98.870056% (98.87%)
Digit: 3 -> 97.814208% (97.81%)
Digit: 4 -> 98.342541% (98.34%)
Digit: 5 -> 98.351648% (98.35%)
Digit: 6 -> 100.000000% (100.00%)
Digit: 7 -> 98.882682% (98.88%)
Digit: 8 -> 94.252874% (94.25%)
Digit: 9 -> 93.888889% (93.89%)
Global: 97.996661% (98.00%)
****************************************************************************************************
****************************************************************************************************
Testing
Algorithm Name: K_NearestNeighbors
Test Path: D:\Dropbox\STC\3rd Year\AI\CSD3939_CW2\Data Set\Data Folder\PreProcessed\optdigits.tes
Training Path: D:\Dropbox\STC\3rd Year\AI\CSD3939_CW2\Data Set\Data Folder\PreProcessed\optdigits.tra
K-Value: 1
****************************************************************************************************
Duration: 6.2592272300 S
Digit: 0 -> 100.000000% (100.00%)
Digit: 1 -> 99.450549% (99.45%)
Digit: 2 -> 98.870056% (98.87%)
Digit: 3 -> 97.814208% (97.81%)
Digit: 4 -> 98.342541% (98.34%)
Digit: 5 -> 98.351648% (98.35%)
Digit: 6 -> 100.000000% (100.00%)
Digit: 7 -> 98.882682% (98.88%)
Digit: 8 -> 94.252874% (94.25%)
Digit: 9 -> 93.888889% (93.89%)
Global: 97.996661% (98.00%)
****************************************************************************************************
****************************************************************************************************
Testing
Algorithm Name: K_NearestNeighbors
Test Path: D:\Dropbox\STC\3rd Year\AI\CSD3939_CW2\Data Set\Data Folder\PreProcessed\optdigits.tes
Training Path: D:\Dropbox\STC\3rd Year\AI\CSD3939_CW2\Data Set\Data Folder\PreProcessed\optdigits.tra
K-Value: 2
****************************************************************************************************
Duration: 5.5034897320 S
Digit: 0 -> 100.000000% (100.00%)
Digit: 1 -> 100.000000% (100.00%)
Digit: 2 -> 97.740113% (97.74%)
Digit: 3 -> 98.907104% (98.91%)
Digit: 4 -> 98.342541% (98.34%)
Digit: 5 -> 98.351648% (98.35%)
Digit: 6 -> 98.895028% (98.90%)
Digit: 7 -> 98.324022% (98.32%)
Digit: 8 -> 91.379310% (91.38%)
Digit: 9 -> 91.666667% (91.67%)
Global: 97.384530% (97.38%)
****************************************************************************************************
****************************************************************************************************
Testing
Algorithm Name: K_NearestNeighbors
Test Path: D:\Dropbox\STC\3rd Year\AI\CSD3939_CW2\Data Set\Data Folder\PreProcessed\optdigits.tes
Training Path: D:\Dropbox\STC\3rd Year\AI\CSD3939_CW2\Data Set\Data Folder\PreProcessed\optdigits.tra
K-Value: 3
****************************************************************************************************
Duration: 6.1027464040 S
Digit: 0 -> 100.000000% (100.00%)
Digit: 1 -> 98.901099% (98.90%)
Digit: 2 -> 97.740113% (97.74%)
Digit: 3 -> 98.907104% (98.91%)
Digit: 4 -> 98.342541% (98.34%)
Digit: 5 -> 98.351648% (98.35%)
Digit: 6 -> 100.000000% (100.00%)
Digit: 7 -> 96.089385% (96.09%)
Digit: 8 -> 93.103448% (93.10%)
Digit: 9 -> 96.666667% (96.67%)
Global: 97.829716% (97.83%)
****************************************************************************************************
****************************************************************************************************
Testing
Algorithm Name: K_NearestNeighbors
Test Path: D:\Dropbox\STC\3rd Year\AI\CSD3939_CW2\Data Set\Data Folder\PreProcessed\optdigits.tes
Training Path: D:\Dropbox\STC\3rd Year\AI\CSD3939_CW2\Data Set\Data Folder\PreProcessed\optdigits.tra
K-Value: 4
****************************************************************************************************
Duration: 6.0173185850 S
Digit: 0 -> 100.000000% (100.00%)
Digit: 1 -> 99.450549% (99.45%)
Digit: 2 -> 97.740113% (97.74%)
Digit: 3 -> 97.814208% (97.81%)
Digit: 4 -> 98.342541% (98.34%)
Digit: 5 -> 98.351648% (98.35%)
Digit: 6 -> 98.895028% (98.90%)
Digit: 7 -> 97.765363% (97.77%)
Digit: 8 -> 91.954023% (91.95%)
Digit: 9 -> 95.555556% (95.56%)
Global: 97.607123% (97.61%)
****************************************************************************************************
****************************************************************************************************
Testing
Algorithm Name: K_NearestNeighbors
Test Path: D:\Dropbox\STC\3rd Year\AI\CSD3939_CW2\Data Set\Data Folder\PreProcessed\optdigits.tes
Training Path: D:\Dropbox\STC\3rd Year\AI\CSD3939_CW2\Data Set\Data Folder\PreProcessed\optdigits.tra
K-Value: 5
****************************************************************************************************
Duration: 5.7213386150 S
Digit: 0 -> 100.000000% (100.00%)
Digit: 1 -> 99.450549% (99.45%)
Digit: 2 -> 98.305085% (98.31%)
Digit: 3 -> 97.267760% (97.27%)
Digit: 4 -> 98.895028% (98.90%)
Digit: 5 -> 98.901099% (98.90%)
Digit: 6 -> 99.447514% (99.45%)
Digit: 7 -> 96.648045% (96.65%)
Digit: 8 -> 93.103448% (93.10%)
Digit: 9 -> 96.666667% (96.67%)
Global: 97.885364% (97.89%)
****************************************************************************************************
****************************************************************************************************
Testing
Algorithm Name: K_NearestNeighbors
Test Path: D:\Dropbox\STC\3rd Year\AI\CSD3939_CW2\Data Set\Data Folder\PreProcessed\optdigits.tes
Training Path: D:\Dropbox\STC\3rd Year\AI\CSD3939_CW2\Data Set\Data Folder\PreProcessed\optdigits.tra
K-Value: 6
****************************************************************************************************
Duration: 5.8645187000 S
Digit: 0 -> 100.000000% (100.00%)
Digit: 1 -> 99.450549% (99.45%)
Digit: 2 -> 98.305085% (98.31%)
Digit: 3 -> 97.814208% (97.81%)
Digit: 4 -> 98.895028% (98.90%)
Digit: 5 -> 98.351648% (98.35%)
Digit: 6 -> 99.447514% (99.45%)
Digit: 7 -> 97.765363% (97.77%)
Digit: 8 -> 92.528736% (92.53%)
Digit: 9 -> 95.000000% (95.00%)
Global: 97.774068% (97.77%)
****************************************************************************************************
****************************************************************************************************
Testing
Algorithm Name: K_NearestNeighbors
Test Path: D:\Dropbox\STC\3rd Year\AI\CSD3939_CW2\Data Set\Data Folder\PreProcessed\optdigits.tes
Training Path: D:\Dropbox\STC\3rd Year\AI\CSD3939_CW2\Data Set\Data Folder\PreProcessed\optdigits.tra
K-Value: 7
****************************************************************************************************
Duration: 6.0374443940 S
Digit: 0 -> 100.000000% (100.00%)
Digit: 1 -> 98.901099% (98.90%)
Digit: 2 -> 98.305085% (98.31%)
Digit: 3 -> 97.267760% (97.27%)
Digit: 4 -> 98.342541% (98.34%)
Digit: 5 -> 98.351648% (98.35%)
Digit: 6 -> 99.447514% (99.45%)
Digit: 7 -> 97.765363% (97.77%)
Digit: 8 -> 91.954023% (91.95%)
Digit: 9 -> 96.111111% (96.11%)
Global: 97.662771% (97.66%)
****************************************************************************************************
****************************************************************************************************
Testing
Algorithm Name: K_NearestNeighbors
Test Path: D:\Dropbox\STC\3rd Year\AI\CSD3939_CW2\Data Set\Data Folder\PreProcessed\optdigits.tes
Training Path: D:\Dropbox\STC\3rd Year\AI\CSD3939_CW2\Data Set\Data Folder\PreProcessed\optdigits.tra
K-Value: 8
****************************************************************************************************
Duration: 6.0611163840 S
Digit: 0 -> 100.000000% (100.00%)
Digit: 1 -> 99.450549% (99.45%)
Digit: 2 -> 97.175141% (97.18%)
Digit: 3 -> 97.814208% (97.81%)
Digit: 4 -> 98.895028% (98.90%)
Digit: 5 -> 98.351648% (98.35%)
Digit: 6 -> 100.000000% (100.00%)
Digit: 7 -> 97.765363% (97.77%)
Digit: 8 -> 91.379310% (91.38%)
Digit: 9 -> 95.555556% (95.56%)
Global: 97.662771% (97.66%)
****************************************************************************************************
****************************************************************************************************
Testing
Algorithm Name: K_NearestNeighbors
Test Path: D:\Dropbox\STC\3rd Year\AI\CSD3939_CW2\Data Set\Data Folder\PreProcessed\optdigits.tes
Training Path: D:\Dropbox\STC\3rd Year\AI\CSD3939_CW2\Data Set\Data Folder\PreProcessed\optdigits.tra
K-Value: 9
****************************************************************************************************
Duration: 6.2269648910 S
Digit: 0 -> 100.000000% (100.00%)
Digit: 1 -> 98.901099% (98.90%)
Digit: 2 -> 97.175141% (97.18%)
Digit: 3 -> 97.814208% (97.81%)
Digit: 4 -> 98.895028% (98.90%)
Digit: 5 -> 98.351648% (98.35%)
Digit: 6 -> 100.000000% (100.00%)
Digit: 7 -> 97.765363% (97.77%)
Digit: 8 -> 91.379310% (91.38%)
Digit: 9 -> 96.666667% (96.67%)
Global: 97.718420% (97.72%)
****************************************************************************************************
****************************************************************************************************
Testing
Algorithm Name: K_NearestNeighbors
Test Path: D:\Dropbox\STC\3rd Year\AI\CSD3939_CW2\Data Set\Data Folder\PreProcessed\optdigits.tes
Training Path: D:\Dropbox\STC\3rd Year\AI\CSD3939_CW2\Data Set\Data Folder\PreProcessed\optdigits.tra
K-Value: 10
****************************************************************************************************
Duration: 6.1894910450 S
Digit: 0 -> 100.000000% (100.00%)
Digit: 1 -> 99.450549% (99.45%)
Digit: 2 -> 97.175141% (97.18%)
Digit: 3 -> 97.814208% (97.81%)
Digit: 4 -> 98.895028% (98.90%)
Digit: 5 -> 98.351648% (98.35%)
Digit: 6 -> 100.000000% (100.00%)
Digit: 7 -> 97.765363% (97.77%)
Digit: 8 -> 90.804598% (90.80%)
Digit: 9 -> 95.000000% (95.00%)
Global: 97.551475% (97.55%)
****************************************************************************************************
****************************************************************************************************
Testing
Algorithm Name: K_NearestNeighbors
Test Path: D:\Dropbox\STC\3rd Year\AI\CSD3939_CW2\Data Set\Data Folder\PreProcessed\optdigits.tes
Training Path: D:\Dropbox\STC\3rd Year\AI\CSD3939_CW2\Data Set\Data Folder\PreProcessed\optdigits.tra
K-Value: 15
****************************************************************************************************
Duration: 5.2004682730 S
Digit: 0 -> 100.000000% (100.00%)
Digit: 1 -> 99.450549% (99.45%)
Digit: 2 -> 97.175141% (97.18%)
Digit: 3 -> 96.174863% (96.17%)
Digit: 4 -> 98.895028% (98.90%)
Digit: 5 -> 97.802198% (97.80%)
Digit: 6 -> 99.447514% (99.45%)
Digit: 7 -> 97.206704% (97.21%)
Digit: 8 -> 91.379310% (91.38%)
Digit: 9 -> 95.000000% (95.00%)
Global: 97.273233% (97.27%)
****************************************************************************************************
****************************************************************************************************
Testing
Algorithm Name: K_NearestNeighbors
Test Path: D:\Dropbox\STC\3rd Year\AI\CSD3939_CW2\Data Set\Data Folder\PreProcessed\optdigits.tes
Training Path: D:\Dropbox\STC\3rd Year\AI\CSD3939_CW2\Data Set\Data Folder\PreProcessed\optdigits.tra
K-Value: 20
****************************************************************************************************
Duration: 5.1034478760 S
Digit: 0 -> 100.000000% (100.00%)
Digit: 1 -> 98.901099% (98.90%)
Digit: 2 -> 97.175141% (97.18%)
Digit: 3 -> 96.174863% (96.17%)
Digit: 4 -> 98.342541% (98.34%)
Digit: 5 -> 97.802198% (97.80%)
Digit: 6 -> 100.000000% (100.00%)
Digit: 7 -> 97.206704% (97.21%)
Digit: 8 -> 90.229885% (90.23%)
Digit: 9 -> 95.000000% (95.00%)
Global: 97.106288% (97.11%)
****************************************************************************************************
****************************************************************************************************
Testing
Algorithm Name: K_NearestNeighbors
Test Path: D:\Dropbox\STC\3rd Year\AI\CSD3939_CW2\Data Set\Data Folder\PreProcessed\optdigits.tes
Training Path: D:\Dropbox\STC\3rd Year\AI\CSD3939_CW2\Data Set\Data Folder\PreProcessed\optdigits.tra
K-Value: 30
****************************************************************************************************
Duration: 5.3622681450 S
Digit: 0 -> 100.000000% (100.00%)
Digit: 1 -> 98.901099% (98.90%)
Digit: 2 -> 96.610169% (96.61%)
Digit: 3 -> 96.174863% (96.17%)
Digit: 4 -> 97.237569% (97.24%)
Digit: 5 -> 97.802198% (97.80%)
Digit: 6 -> 99.447514% (99.45%)
Digit: 7 -> 97.206704% (97.21%)
Digit: 8 -> 89.080460% (89.08%)
Digit: 9 -> 94.444444% (94.44%)
Global: 96.716750% (96.72%)
****************************************************************************************************
****************************************************************************************************
Testing
Algorithm Name: K_NearestNeighbors
Test Path: D:\Dropbox\STC\3rd Year\AI\CSD3939_CW2\Data Set\Data Folder\PreProcessed\optdigits.tes
Training Path: D:\Dropbox\STC\3rd Year\AI\CSD3939_CW2\Data Set\Data Folder\PreProcessed\optdigits.tra
K-Value: 40
****************************************************************************************************
Duration: 5.4487312160 S
Digit: 0 -> 99.438202% (99.44%)
Digit: 1 -> 98.351648% (98.35%)
Digit: 2 -> 97.175141% (97.18%)
Digit: 3 -> 95.628415% (95.63%)
Digit: 4 -> 97.237569% (97.24%)
Digit: 5 -> 98.351648% (98.35%)
Digit: 6 -> 99.447514% (99.45%)
Digit: 7 -> 97.206704% (97.21%)
Digit: 8 -> 89.080460% (89.08%)
Digit: 9 -> 94.444444% (94.44%)
Global: 96.661102% (96.66%)
****************************************************************************************************
****************************************************************************************************
Testing
Algorithm Name: K_NearestNeighbors
Test Path: D:\Dropbox\STC\3rd Year\AI\CSD3939_CW2\Data Set\Data Folder\PreProcessed\optdigits.tes
Training Path: D:\Dropbox\STC\3rd Year\AI\CSD3939_CW2\Data Set\Data Folder\PreProcessed\optdigits.tra
K-Value: 40
****************************************************************************************************
Duration: 5.5501674920 S
Digit: 0 -> 99.438202% (99.44%)
Digit: 1 -> 98.351648% (98.35%)
Digit: 2 -> 97.175141% (97.18%)
Digit: 3 -> 95.628415% (95.63%)
Digit: 4 -> 97.237569% (97.24%)
Digit: 5 -> 98.351648% (98.35%)
Digit: 6 -> 99.447514% (99.45%)
Digit: 7 -> 97.206704% (97.21%)
Digit: 8 -> 89.080460% (89.08%)
Digit: 9 -> 94.444444% (94.44%)
Global: 96.661102% (96.66%)
****************************************************************************************************
****************************************************************************************************
Testing
Algorithm Name: K_NearestNeighbors
Test Path: D:\Dropbox\STC\3rd Year\AI\CSD3939_CW2\Data Set\Data Folder\PreProcessed\optdigits.tes
Training Path: D:\Dropbox\STC\3rd Year\AI\CSD3939_CW2\Data Set\Data Folder\PreProcessed\optdigits.tra
K-Value: 50
****************************************************************************************************
Duration: 5.6061727720 S
Digit: 0 -> 99.438202% (99.44%)
Digit: 1 -> 95.604396% (95.60%)
Digit: 2 -> 97.175141% (97.18%)
Digit: 3 -> 95.628415% (95.63%)
Digit: 4 -> 95.580110% (95.58%)
Digit: 5 -> 98.351648% (98.35%)
Digit: 6 -> 98.895028% (98.90%)
Digit: 7 -> 97.206704% (97.21%)
Digit: 8 -> 86.781609% (86.78%)
Digit: 9 -> 93.888889% (93.89%)
Global: 95.882026% (95.88%)
****************************************************************************************************
****************************************************************************************************
Testing
Algorithm Name: K_NearestNeighbors
Test Path: D:\Dropbox\STC\3rd Year\AI\CSD3939_CW2\Data Set\Data Folder\PreProcessed\optdigits.tes
Training Path: D:\Dropbox\STC\3rd Year\AI\CSD3939_CW2\Data Set\Data Folder\PreProcessed\optdigits.tra
K-Value: 100
****************************************************************************************************
Duration: 5.9701704990 S
Digit: 0 -> 99.438202% (99.44%)
Digit: 1 -> 89.010989% (89.01%)
Digit: 2 -> 94.915254% (94.92%)
Digit: 3 -> 94.535519% (94.54%)
Digit: 4 -> 94.475138% (94.48%)
Digit: 5 -> 97.802198% (97.80%)
Digit: 6 -> 97.790055% (97.79%)
Digit: 7 -> 97.765363% (97.77%)
Digit: 8 -> 85.632184% (85.63%)
Digit: 9 -> 90.555556% (90.56%)
Global: 94.212577% (94.21%)
****************************************************************************************************
****************************************************************************************************
Training
Algorithm Name: K_NNOptimized
Training Path: D:\Dropbox\STC\3rd Year\AI\CSD3939_CW2\Data Set\Data Folder\PreProcessed\optdigits.tra
K-Value: 1
****************************************************************************************************
100.00%...
Duration: 4.2290117420 S
File saved: ./Data Set/Data Folder/PreProcessed/KNNMap/2016-02-04_00-37-05_K_NNOptimized_k1.txt
****************************************************************************************************
****************************************************************************************************
Training
Algorithm Name: K_NNOptimized
Training Path: D:\Dropbox\STC\3rd Year\AI\CSD3939_CW2\Data Set\Data Folder\PreProcessed\optdigits.tra
K-Value: 2
****************************************************************************************************
50.00%...
100.00%...
Duration: 5.9970624760 S
File saved: ./Data Set/Data Folder/PreProcessed/KNNMap/2016-02-04_00-37-17_K_NNOptimized_k2.txt
****************************************************************************************************
****************************************************************************************************
Training
Algorithm Name: K_NNOptimized
Training Path: D:\Dropbox\STC\3rd Year\AI\CSD3939_CW2\Data Set\Data Folder\PreProcessed\optdigits.tra
K-Value: 3
****************************************************************************************************
33.33%...
66.67%...
100.00%...
Duration: 7.2850067580 S
File saved: ./Data Set/Data Folder/PreProcessed/KNNMap/2016-02-04_00-37-26_K_NNOptimized_k3.txt
****************************************************************************************************
****************************************************************************************************
Training
Algorithm Name: K_NNOptimized
Training Path: D:\Dropbox\STC\3rd Year\AI\CSD3939_CW2\Data Set\Data Folder\PreProcessed\optdigits.tra
K-Value: 4
****************************************************************************************************
25.00%...
50.00%...
75.00%...
100.00%...
Duration: 10.8291970160 S
File saved: ./Data Set/Data Folder/PreProcessed/KNNMap/2016-02-04_00-37-40_K_NNOptimized_k4.txt
****************************************************************************************************
****************************************************************************************************
Training
Algorithm Name: K_NNOptimized
Training Path: D:\Dropbox\STC\3rd Year\AI\CSD3939_CW2\Data Set\Data Folder\PreProcessed\optdigits.tra
K-Value: 5
****************************************************************************************************
20.00%...
40.00%...
60.00%...
80.00%...
100.00%...
Duration: 12.7497718660 S
File saved: ./Data Set/Data Folder/PreProcessed/KNNMap/2016-02-04_00-37-55_K_NNOptimized_k5.txt
****************************************************************************************************
****************************************************************************************************
Training
Algorithm Name: K_NNOptimized
Training Path: D:\Dropbox\STC\3rd Year\AI\CSD3939_CW2\Data Set\Data Folder\PreProcessed\optdigits.tra
K-Value: 10
****************************************************************************************************
10.00%...
20.00%...
30.00%...
40.00%...
50.00%...
60.00%...
70.00%...
80.00%...
90.00%...
100.00%...
Duration: 25.0871623100 S
File saved: ./Data Set/Data Folder/PreProcessed/KNNMap/2016-02-04_00-38-23_K_NNOptimized_k10.txt
****************************************************************************************************
****************************************************************************************************
Training
Algorithm Name: K_NNOptimized
Training Path: D:\Dropbox\STC\3rd Year\AI\CSD3939_CW2\Data Set\Data Folder\PreProcessed\optdigits.tra
K-Value: 50
****************************************************************************************************
2.00%...
4.00%...
6.00%...
8.00%...
10.00%...
12.00%...
14.00%...
16.00%...
18.00%...
20.00%...
22.00%...
24.00%...
26.00%...
28.00%...
30.00%...
32.00%...
34.00%...
36.00%...
38.00%...
40.00%...
42.00%...
44.00%...
46.00%...
48.00%...
50.00%...
52.00%...
54.00%...
56.00%...
58.00%...
60.00%...
62.00%...
64.00%...
66.00%...
68.00%...
70.00%...
72.00%...
74.00%...
76.00%...
78.00%...
80.00%...
82.00%...
84.00%...
86.00%...
88.00%...
90.00%...
92.00%...
94.00%...
96.00%...
98.00%...
100.00%...
Duration: 116.8570711420 S
File saved: ./Data Set/Data Folder/PreProcessed/KNNMap/2016-02-04_00-40-25_K_NNOptimized_k50.txt
****************************************************************************************************
****************************************************************************************************
Testing
Algorithm Name: K_NNOptimized
Testing Path: D:\Dropbox\STC\3rd Year\AI\CSD3939_CW2\Data Set\Data Folder\PreProcessed\optdigits.tes
Training Path: D:\Dropbox\STC\3rd Year\AI\CSD3939_CW2\Data Set\Data Folder\PreProcessed\optdigits.tes
Trained Path: D:\Dropbox\STC\3rd Year\AI\CSD3939_CW2\Data Set\Data Folder\PreProcessed\KNNMap\2016-02-04_00-37-05_K_NNOptimized_k1.txt
K-Value: 1
****************************************************************************************************
Duration: 5.7734429620 S
Digit: 0 -> 100.000000% (100.00%)
Digit: 1 -> 99.450549% (99.45%)
Digit: 2 -> 98.870056% (98.87%)
Digit: 3 -> 97.814208% (97.81%)
Digit: 4 -> 98.342541% (98.34%)
Digit: 5 -> 98.351648% (98.35%)
Digit: 6 -> 100.000000% (100.00%)
Digit: 7 -> 98.882682% (98.88%)
Digit: 8 -> 94.252874% (94.25%)
Digit: 9 -> 93.888889% (93.89%)
Global: 97.996661% (98.00%)
****************************************************************************************************
****************************************************************************************************
Testing
Algorithm Name: K_NNOptimized
Testing Path: D:\Dropbox\STC\3rd Year\AI\CSD3939_CW2\Data Set\Data Folder\PreProcessed\optdigits.tes
Training Path: D:\Dropbox\STC\3rd Year\AI\CSD3939_CW2\Data Set\Data Folder\PreProcessed\optdigits.tes
Trained Path: D:\Dropbox\STC\3rd Year\AI\CSD3939_CW2\Data Set\Data Folder\PreProcessed\KNNMap\2016-02-04_00-37-05_K_NNOptimized_k1.txt
K-Value: 5
****************************************************************************************************
Duration: 11.0471239890 S
Digit: 0 -> 100.000000% (100.00%)
Digit: 1 -> 99.450549% (99.45%)
Digit: 2 -> 98.870056% (98.87%)
Digit: 3 -> 97.814208% (97.81%)
Digit: 4 -> 98.342541% (98.34%)
Digit: 5 -> 98.351648% (98.35%)
Digit: 6 -> 100.000000% (100.00%)
Digit: 7 -> 98.882682% (98.88%)
Digit: 8 -> 94.252874% (94.25%)
Digit: 9 -> 93.888889% (93.89%)
Global: 97.996661% (98.00%)
****************************************************************************************************
****************************************************************************************************
Testing
Algorithm Name: K_NNOptimized
Testing Path: D:\Dropbox\STC\3rd Year\AI\CSD3939_CW2\Data Set\Data Folder\PreProcessed\optdigits.tes
Training Path: D:\Dropbox\STC\3rd Year\AI\CSD3939_CW2\Data Set\Data Folder\PreProcessed\optdigits.tes
Trained Path: D:\Dropbox\STC\3rd Year\AI\CSD3939_CW2\Data Set\Data Folder\PreProcessed\KNNMap\2016-02-04_00-37-05_K_NNOptimized_k1.txt
K-Value: 10
****************************************************************************************************
Duration: 11.7252011710 S
Digit: 0 -> 100.000000% (100.00%)
Digit: 1 -> 99.450549% (99.45%)
Digit: 2 -> 98.870056% (98.87%)
Digit: 3 -> 97.814208% (97.81%)
Digit: 4 -> 98.342541% (98.34%)
Digit: 5 -> 98.351648% (98.35%)
Digit: 6 -> 100.000000% (100.00%)
Digit: 7 -> 98.882682% (98.88%)
Digit: 8 -> 94.252874% (94.25%)
Digit: 9 -> 93.888889% (93.89%)
Global: 97.996661% (98.00%)
****************************************************************************************************
****************************************************************************************************
Testing
Algorithm Name: K_NNOptimized
Testing Path: D:\Dropbox\STC\3rd Year\AI\CSD3939_CW2\Data Set\Data Folder\PreProcessed\optdigits.tes
Training Path: D:\Dropbox\STC\3rd Year\AI\CSD3939_CW2\Data Set\Data Folder\PreProcessed\optdigits.tes
Trained Path: D:\Dropbox\STC\3rd Year\AI\CSD3939_CW2\Data Set\Data Folder\PreProcessed\KNNMap\2016-02-04_00-37-05_K_NNOptimized_k1.txt
K-Value: 100
****************************************************************************************************
Duration: 12.3776808870 S
Digit: 0 -> 100.000000% (100.00%)
Digit: 1 -> 99.450549% (99.45%)
Digit: 2 -> 98.870056% (98.87%)
Digit: 3 -> 97.814208% (97.81%)
Digit: 4 -> 98.342541% (98.34%)
Digit: 5 -> 98.351648% (98.35%)
Digit: 6 -> 100.000000% (100.00%)
Digit: 7 -> 98.882682% (98.88%)
Digit: 8 -> 94.252874% (94.25%)
Digit: 9 -> 93.888889% (93.89%)
Global: 97.996661% (98.00%)
****************************************************************************************************
****************************************************************************************************
Testing
Algorithm Name: K_NNOptimized
Testing Path: D:\Dropbox\STC\3rd Year\AI\CSD3939_CW2\Data Set\Data Folder\PreProcessed\optdigits.tes
Training Path: D:\Dropbox\STC\3rd Year\AI\CSD3939_CW2\Data Set\Data Folder\PreProcessed\optdigits.tes
Trained Path: D:\Dropbox\STC\3rd Year\AI\CSD3939_CW2\Data Set\Data Folder\PreProcessed\KNNMap\2016-02-04_00-37-17_K_NNOptimized_k2.txt
K-Value: 1
****************************************************************************************************
Duration: 5.4448771370 S
Digit: 0 -> 100.000000% (100.00%)
Digit: 1 -> 99.450549% (99.45%)
Digit: 2 -> 98.870056% (98.87%)
Digit: 3 -> 97.814208% (97.81%)
Digit: 4 -> 98.342541% (98.34%)
Digit: 5 -> 98.351648% (98.35%)
Digit: 6 -> 100.000000% (100.00%)
Digit: 7 -> 98.882682% (98.88%)
Digit: 8 -> 94.252874% (94.25%)
Digit: 9 -> 93.888889% (93.89%)
Global: 97.996661% (98.00%)
****************************************************************************************************
****************************************************************************************************
Testing
Algorithm Name: K_NNOptimized
Testing Path: D:\Dropbox\STC\3rd Year\AI\CSD3939_CW2\Data Set\Data Folder\PreProcessed\optdigits.tes
Training Path: D:\Dropbox\STC\3rd Year\AI\CSD3939_CW2\Data Set\Data Folder\PreProcessed\optdigits.tes
Trained Path: D:\Dropbox\STC\3rd Year\AI\CSD3939_CW2\Data Set\Data Folder\PreProcessed\KNNMap\2016-02-04_00-37-17_K_NNOptimized_k2.txt
K-Value: 5
****************************************************************************************************
Duration: 11.1091029330 S
Digit: 0 -> 100.000000% (100.00%)
Digit: 1 -> 99.450549% (99.45%)
Digit: 2 -> 98.870056% (98.87%)
Digit: 3 -> 97.814208% (97.81%)
Digit: 4 -> 98.342541% (98.34%)
Digit: 5 -> 98.351648% (98.35%)
Digit: 6 -> 100.000000% (100.00%)
Digit: 7 -> 98.882682% (98.88%)
Digit: 8 -> 94.252874% (94.25%)
Digit: 9 -> 93.888889% (93.89%)
Global: 97.996661% (98.00%)
****************************************************************************************************
****************************************************************************************************
Testing
Algorithm Name: K_NNOptimized
Testing Path: D:\Dropbox\STC\3rd Year\AI\CSD3939_CW2\Data Set\Data Folder\PreProcessed\optdigits.tes
Training Path: D:\Dropbox\STC\3rd Year\AI\CSD3939_CW2\Data Set\Data Folder\PreProcessed\optdigits.tes
Trained Path: D:\Dropbox\STC\3rd Year\AI\CSD3939_CW2\Data Set\Data Folder\PreProcessed\KNNMap\2016-02-04_00-37-17_K_NNOptimized_k2.txt
K-Value: 10
****************************************************************************************************
Duration: 11.0972564510 S
Digit: 0 -> 100.000000% (100.00%)
Digit: 1 -> 99.450549% (99.45%)
Digit: 2 -> 98.870056% (98.87%)
Digit: 3 -> 97.814208% (97.81%)
Digit: 4 -> 98.342541% (98.34%)
Digit: 5 -> 98.351648% (98.35%)
Digit: 6 -> 100.000000% (100.00%)
Digit: 7 -> 98.882682% (98.88%)
Digit: 8 -> 94.252874% (94.25%)
Digit: 9 -> 93.888889% (93.89%)
Global: 97.996661% (98.00%)
****************************************************************************************************
****************************************************************************************************
Testing
Algorithm Name: K_NNOptimized
Testing Path: D:\Dropbox\STC\3rd Year\AI\CSD3939_CW2\Data Set\Data Folder\PreProcessed\optdigits.tes
Training Path: D:\Dropbox\STC\3rd Year\AI\CSD3939_CW2\Data Set\Data Folder\PreProcessed\optdigits.tes
Trained Path: D:\Dropbox\STC\3rd Year\AI\CSD3939_CW2\Data Set\Data Folder\PreProcessed\KNNMap\2016-02-04_00-37-17_K_NNOptimized_k2.txt
K-Value: 100
****************************************************************************************************
Duration: 12.5905181740 S
Digit: 0 -> 100.000000% (100.00%)
Digit: 1 -> 99.450549% (99.45%)
Digit: 2 -> 98.870056% (98.87%)
Digit: 3 -> 97.814208% (97.81%)
Digit: 4 -> 98.342541% (98.34%)
Digit: 5 -> 98.351648% (98.35%)
Digit: 6 -> 100.000000% (100.00%)
Digit: 7 -> 98.882682% (98.88%)
Digit: 8 -> 94.252874% (94.25%)
Digit: 9 -> 93.888889% (93.89%)
Global: 97.996661% (98.00%)
****************************************************************************************************
****************************************************************************************************
Testing
Algorithm Name: K_NNOptimized
Testing Path: D:\Dropbox\STC\3rd Year\AI\CSD3939_CW2\Data Set\Data Folder\PreProcessed\optdigits.tes
Training Path: D:\Dropbox\STC\3rd Year\AI\CSD3939_CW2\Data Set\Data Folder\PreProcessed\optdigits.tes
Trained Path: D:\Dropbox\STC\3rd Year\AI\CSD3939_CW2\Data Set\Data Folder\PreProcessed\KNNMap\2016-02-04_00-37-55_K_NNOptimized_k5.txt
K-Value: 1
****************************************************************************************************
Duration: 6.1567333910 S
Digit: 0 -> 100.000000% (100.00%)
Digit: 1 -> 99.450549% (99.45%)
Digit: 2 -> 98.870056% (98.87%)
Digit: 3 -> 97.814208% (97.81%)
Digit: 4 -> 98.342541% (98.34%)
Digit: 5 -> 98.351648% (98.35%)
Digit: 6 -> 100.000000% (100.00%)
Digit: 7 -> 98.882682% (98.88%)
Digit: 8 -> 94.252874% (94.25%)
Digit: 9 -> 93.888889% (93.89%)
Global: 97.996661% (98.00%)
****************************************************************************************************
****************************************************************************************************
Testing
Algorithm Name: K_NNOptimized
Testing Path: D:\Dropbox\STC\3rd Year\AI\CSD3939_CW2\Data Set\Data Folder\PreProcessed\optdigits.tes
Training Path: D:\Dropbox\STC\3rd Year\AI\CSD3939_CW2\Data Set\Data Folder\PreProcessed\optdigits.tes
Trained Path: D:\Dropbox\STC\3rd Year\AI\CSD3939_CW2\Data Set\Data Folder\PreProcessed\KNNMap\2016-02-04_00-37-55_K_NNOptimized_k5.txt
K-Value: 5
****************************************************************************************************
Duration: 11.5771023060 S
Digit: 0 -> 100.000000% (100.00%)
Digit: 1 -> 99.450549% (99.45%)
Digit: 2 -> 98.870056% (98.87%)
Digit: 3 -> 98.907104% (98.91%)
Digit: 4 -> 98.342541% (98.34%)
Digit: 5 -> 98.351648% (98.35%)
Digit: 6 -> 100.000000% (100.00%)
Digit: 7 -> 98.882682% (98.88%)
Digit: 8 -> 94.252874% (94.25%)
Digit: 9 -> 94.444444% (94.44%)
Global: 98.163606% (98.16%)
****************************************************************************************************
****************************************************************************************************
Testing
Algorithm Name: K_NNOptimized
Testing Path: D:\Dropbox\STC\3rd Year\AI\CSD3939_CW2\Data Set\Data Folder\PreProcessed\optdigits.tes
Training Path: D:\Dropbox\STC\3rd Year\AI\CSD3939_CW2\Data Set\Data Folder\PreProcessed\optdigits.tes
Trained Path: D:\Dropbox\STC\3rd Year\AI\CSD3939_CW2\Data Set\Data Folder\PreProcessed\KNNMap\2016-02-04_00-37-55_K_NNOptimized_k5.txt
K-Value: 10
****************************************************************************************************
Duration: 11.9935533330 S
Digit: 0 -> 100.000000% (100.00%)
Digit: 1 -> 99.450549% (99.45%)
Digit: 2 -> 98.870056% (98.87%)
Digit: 3 -> 98.907104% (98.91%)
Digit: 4 -> 98.342541% (98.34%)
Digit: 5 -> 98.351648% (98.35%)
Digit: 6 -> 100.000000% (100.00%)
Digit: 7 -> 98.882682% (98.88%)
Digit: 8 -> 94.252874% (94.25%)
Digit: 9 -> 94.444444% (94.44%)
Global: 98.163606% (98.16%)
****************************************************************************************************
****************************************************************************************************
Testing
Algorithm Name: K_NNOptimized
Testing Path: D:\Dropbox\STC\3rd Year\AI\CSD3939_CW2\Data Set\Data Folder\PreProcessed\optdigits.tes
Training Path: D:\Dropbox\STC\3rd Year\AI\CSD3939_CW2\Data Set\Data Folder\PreProcessed\optdigits.tes
Trained Path: D:\Dropbox\STC\3rd Year\AI\CSD3939_CW2\Data Set\Data Folder\PreProcessed\KNNMap\2016-02-04_00-37-55_K_NNOptimized_k5.txt
K-Value: 100
****************************************************************************************************
Duration: 16.1704308300 S
Digit: 0 -> 100.000000% (100.00%)
Digit: 1 -> 99.450549% (99.45%)
Digit: 2 -> 98.870056% (98.87%)
Digit: 3 -> 98.907104% (98.91%)
Digit: 4 -> 98.342541% (98.34%)
Digit: 5 -> 98.351648% (98.35%)
Digit: 6 -> 100.000000% (100.00%)
Digit: 7 -> 98.882682% (98.88%)
Digit: 8 -> 94.252874% (94.25%)
Digit: 9 -> 94.444444% (94.44%)
Global: 98.163606% (98.16%)
****************************************************************************************************
****************************************************************************************************
Testing
Algorithm Name: K_NNOptimized
Testing Path: D:\Dropbox\STC\3rd Year\AI\CSD3939_CW2\Data Set\Data Folder\PreProcessed\optdigits.tes
Training Path: D:\Dropbox\STC\3rd Year\AI\CSD3939_CW2\Data Set\Data Folder\PreProcessed\optdigits.tes
Trained Path: D:\Dropbox\STC\3rd Year\AI\CSD3939_CW2\Data Set\Data Folder\PreProcessed\KNNMap\2016-02-04_00-38-23_K_NNOptimized_k10.txt
K-Value: 100
****************************************************************************************************
Duration: 16.4066098970 S
Digit: 0 -> 100.000000% (100.00%)
Digit: 1 -> 99.450549% (99.45%)
Digit: 2 -> 98.870056% (98.87%)
Digit: 3 -> 98.907104% (98.91%)
Digit: 4 -> 98.342541% (98.34%)
Digit: 5 -> 98.351648% (98.35%)
Digit: 6 -> 100.000000% (100.00%)
Digit: 7 -> 98.882682% (98.88%)
Digit: 8 -> 94.252874% (94.25%)
Digit: 9 -> 94.444444% (94.44%)
Global: 98.163606% (98.16%)
****************************************************************************************************
****************************************************************************************************
Testing
Algorithm Name: K_NNOptimized
Testing Path: D:\Dropbox\STC\3rd Year\AI\CSD3939_CW2\Data Set\Data Folder\PreProcessed\optdigits.tes
Training Path: D:\Dropbox\STC\3rd Year\AI\CSD3939_CW2\Data Set\Data Folder\PreProcessed\optdigits.tes
Trained Path: D:\Dropbox\STC\3rd Year\AI\CSD3939_CW2\Data Set\Data Folder\PreProcessed\KNNMap\2016-02-04_00-38-23_K_NNOptimized_k10.txt
K-Value: 10
****************************************************************************************************
Duration: 11.9111870890 S
Digit: 0 -> 100.000000% (100.00%)
Digit: 1 -> 99.450549% (99.45%)
Digit: 2 -> 98.870056% (98.87%)
Digit: 3 -> 98.907104% (98.91%)
Digit: 4 -> 98.342541% (98.34%)
Digit: 5 -> 98.351648% (98.35%)
Digit: 6 -> 100.000000% (100.00%)
Digit: 7 -> 98.882682% (98.88%)
Digit: 8 -> 94.252874% (94.25%)
Digit: 9 -> 94.444444% (94.44%)
Global: 98.163606% (98.16%)
****************************************************************************************************
****************************************************************************************************
Testing
Algorithm Name: K_NNOptimized
Testing Path: D:\Dropbox\STC\3rd Year\AI\CSD3939_CW2\Data Set\Data Folder\PreProcessed\optdigits.tes
Training Path: D:\Dropbox\STC\3rd Year\AI\CSD3939_CW2\Data Set\Data Folder\PreProcessed\optdigits.tes
Trained Path: D:\Dropbox\STC\3rd Year\AI\CSD3939_CW2\Data Set\Data Folder\PreProcessed\KNNMap\2016-02-04_00-38-23_K_NNOptimized_k10.txt
K-Value: 5
****************************************************************************************************
Duration: 11.8234246000 S
Digit: 0 -> 100.000000% (100.00%)
Digit: 1 -> 99.450549% (99.45%)
Digit: 2 -> 98.870056% (98.87%)
Digit: 3 -> 98.907104% (98.91%)
Digit: 4 -> 98.342541% (98.34%)
Digit: 5 -> 98.351648% (98.35%)
Digit: 6 -> 100.000000% (100.00%)
Digit: 7 -> 98.882682% (98.88%)
Digit: 8 -> 94.252874% (94.25%)
Digit: 9 -> 94.444444% (94.44%)
Global: 98.163606% (98.16%)
****************************************************************************************************
****************************************************************************************************
Testing
Algorithm Name: K_NNOptimized
Testing Path: D:\Dropbox\STC\3rd Year\AI\CSD3939_CW2\Data Set\Data Folder\PreProcessed\optdigits.tes
Training Path: D:\Dropbox\STC\3rd Year\AI\CSD3939_CW2\Data Set\Data Folder\PreProcessed\optdigits.tes
Trained Path: D:\Dropbox\STC\3rd Year\AI\CSD3939_CW2\Data Set\Data Folder\PreProcessed\KNNMap\2016-02-04_00-38-23_K_NNOptimized_k10.txt
K-Value: 1
****************************************************************************************************
Duration: 5.4561966230 S
Digit: 0 -> 100.000000% (100.00%)
Digit: 1 -> 99.450549% (99.45%)
Digit: 2 -> 98.870056% (98.87%)
Digit: 3 -> 97.814208% (97.81%)
Digit: 4 -> 98.342541% (98.34%)
Digit: 5 -> 98.351648% (98.35%)
Digit: 6 -> 100.000000% (100.00%)
Digit: 7 -> 98.882682% (98.88%)
Digit: 8 -> 94.252874% (94.25%)
Digit: 9 -> 93.888889% (93.89%)
Global: 97.996661% (98.00%)
****************************************************************************************************
****************************************************************************************************
Testing
Algorithm Name: K_NNOptimized
Testing Path: D:\Dropbox\STC\3rd Year\AI\CSD3939_CW2\Data Set\Data Folder\PreProcessed\optdigits.tes
Training Path: D:\Dropbox\STC\3rd Year\AI\CSD3939_CW2\Data Set\Data Folder\PreProcessed\optdigits.tes
Trained Path: D:\Dropbox\STC\3rd Year\AI\CSD3939_CW2\Data Set\Data Folder\PreProcessed\KNNMap\2016-02-04_00-40-25_K_NNOptimized_k50.txt
K-Value: 1
****************************************************************************************************
Duration: 5.4927128610 S
Digit: 0 -> 100.000000% (100.00%)
Digit: 1 -> 99.450549% (99.45%)
Digit: 2 -> 98.870056% (98.87%)
Digit: 3 -> 97.814208% (97.81%)
Digit: 4 -> 98.342541% (98.34%)
Digit: 5 -> 98.351648% (98.35%)
Digit: 6 -> 100.000000% (100.00%)
Digit: 7 -> 98.882682% (98.88%)
Digit: 8 -> 94.252874% (94.25%)
Digit: 9 -> 93.888889% (93.89%)
Global: 97.996661% (98.00%)
****************************************************************************************************
****************************************************************************************************
Testing
Algorithm Name: K_NNOptimized
Testing Path: D:\Dropbox\STC\3rd Year\AI\CSD3939_CW2\Data Set\Data Folder\PreProcessed\optdigits.tes
Training Path: D:\Dropbox\STC\3rd Year\AI\CSD3939_CW2\Data Set\Data Folder\PreProcessed\optdigits.tes
Trained Path: D:\Dropbox\STC\3rd Year\AI\CSD3939_CW2\Data Set\Data Folder\PreProcessed\KNNMap\2016-02-04_00-40-25_K_NNOptimized_k50.txt
K-Value: 5
****************************************************************************************************
Duration: 11.0480146620 S
Digit: 0 -> 100.000000% (100.00%)
Digit: 1 -> 99.450549% (99.45%)
Digit: 2 -> 98.870056% (98.87%)
Digit: 3 -> 98.907104% (98.91%)
Digit: 4 -> 98.342541% (98.34%)
Digit: 5 -> 98.351648% (98.35%)
Digit: 6 -> 100.000000% (100.00%)
Digit: 7 -> 98.882682% (98.88%)
Digit: 8 -> 94.252874% (94.25%)
Digit: 9 -> 94.444444% (94.44%)
Global: 98.163606% (98.16%)
****************************************************************************************************
****************************************************************************************************
Testing
Algorithm Name: K_NNOptimized
Testing Path: D:\Dropbox\STC\3rd Year\AI\CSD3939_CW2\Data Set\Data Folder\PreProcessed\optdigits.tes
Training Path: D:\Dropbox\STC\3rd Year\AI\CSD3939_CW2\Data Set\Data Folder\PreProcessed\optdigits.tes
Trained Path: D:\Dropbox\STC\3rd Year\AI\CSD3939_CW2\Data Set\Data Folder\PreProcessed\KNNMap\2016-02-04_00-40-25_K_NNOptimized_k50.txt
K-Value: 10
****************************************************************************************************
Duration: 11.3614801050 S
Digit: 0 -> 100.000000% (100.00%)
Digit: 1 -> 99.450549% (99.45%)
Digit: 2 -> 98.870056% (98.87%)
Digit: 3 -> 98.907104% (98.91%)
Digit: 4 -> 98.342541% (98.34%)
Digit: 5 -> 98.351648% (98.35%)
Digit: 6 -> 100.000000% (100.00%)
Digit: 7 -> 98.882682% (98.88%)
Digit: 8 -> 94.252874% (94.25%)
Digit: 9 -> 94.444444% (94.44%)
Global: 98.163606% (98.16%)
****************************************************************************************************
****************************************************************************************************
Testing
Algorithm Name: K_NNOptimized
Testing Path: D:\Dropbox\STC\3rd Year\AI\CSD3939_CW2\Data Set\Data Folder\PreProcessed\optdigits.tes
Training Path: D:\Dropbox\STC\3rd Year\AI\CSD3939_CW2\Data Set\Data Folder\PreProcessed\optdigits.tes
Trained Path: D:\Dropbox\STC\3rd Year\AI\CSD3939_CW2\Data Set\Data Folder\PreProcessed\KNNMap\2016-02-04_00-40-25_K_NNOptimized_k50.txt
K-Value: 100
****************************************************************************************************
Duration: 16.2580447240 S
Digit: 0 -> 100.000000% (100.00%)
Digit: 1 -> 99.450549% (99.45%)
Digit: 2 -> 98.870056% (98.87%)
Digit: 3 -> 98.907104% (98.91%)
Digit: 4 -> 98.342541% (98.34%)
Digit: 5 -> 98.351648% (98.35%)
Digit: 6 -> 100.000000% (100.00%)
Digit: 7 -> 98.882682% (98.88%)
Digit: 8 -> 94.252874% (94.25%)
Digit: 9 -> 94.444444% (94.44%)
Global: 98.163606% (98.16%)
****************************************************************************************************
