run:
****************************************************************************************************
Training
Algorithm Name: K_Means
Training Path: D:\Dropbox\STC\3rd Year\AI\CSD3939_CW2\Data Set\Data Folder\PreProcessed\optdigits.tra
Centroid: Random
K-Value: 50
Minimum Accuracy Threshold: 99
A value of -1 means that not all of the digits(0..9) where formed into clusters
****************************************************************************************************
Minimum accuracy: 50.877192982456144
Minimum accuracy: 46.875
Minimum accuracy: 59.375
Minimum accuracy: 64.1025641025641
Minimum accuracy: 36.507936507936506
Minimum accuracy: 50.0
Minimum accuracy: 46.875
Minimum accuracy: 51.724137931034484
Minimum accuracy: 46.75324675324675
Minimum accuracy: 44.73684210526316
Minimum accuracy: 40.35087719298245
Minimum accuracy: 31.914893617021278
Minimum accuracy: 37.5
Minimum accuracy: 46.15384615384615
Minimum accuracy: 54.54545454545454
Minimum accuracy: 42.5
Minimum accuracy: 43.333333333333336
Minimum accuracy: 51.5625
Minimum accuracy: 62.903225806451616
Minimum accuracy: 30.434782608695656
Minimum accuracy: 37.2093023255814
Minimum accuracy: 57.14285714285714
Minimum accuracy: 46.26865671641791
Minimum accuracy: 45.28301886792453
Minimum accuracy: 65.71428571428571
Minimum accuracy: 62.22222222222222
Minimum accuracy: 50.0
Minimum accuracy: 43.58974358974359
Minimum accuracy: 52.63157894736842
Minimum accuracy: 31.70731707317073
Minimum accuracy: 56.41025641025641
Minimum accuracy: 63.888888888888886
Minimum accuracy: 49.01960784313725
Minimum accuracy: 48.97959183673469
Minimum accuracy: 65.38461538461539
Minimum accuracy: 47.16981132075472
Minimum accuracy: 61.016949152542374
Minimum accuracy: 53.70370370370371
Minimum accuracy: 58.44155844155844
Minimum accuracy: 43.47826086956522
Minimum accuracy: 51.02040816326531
Minimum accuracy: 46.34146341463415
Minimum accuracy: 57.14285714285714
Minimum accuracy: 40.476190476190474
Minimum accuracy: 61.53846153846154
Minimum accuracy: 38.46153846153847
Minimum accuracy: 45.83333333333333
Minimum accuracy: 64.28571428571429
Minimum accuracy: 46.98795180722892
Minimum accuracy: 52.94117647058824
Minimum accuracy: 36.84210526315789
Minimum accuracy: 50.0
Minimum accuracy: 56.25
Minimum accuracy: 36.0
Minimum accuracy: 50.847457627118644
Minimum accuracy: 57.89473684210527
Minimum accuracy: 55.072463768115945
Minimum accuracy: 39.02439024390244
Minimum accuracy: 65.21739130434783
Minimum accuracy: 54.054054054054056
Minimum accuracy: 61.111111111111114
Minimum accuracy: 46.808510638297875
Minimum accuracy: 47.22222222222222
Minimum accuracy: 41.05263157894737
Minimum accuracy: 61.904761904761905
Minimum accuracy: 37.254901960784316
Minimum accuracy: 48.97959183673469
Minimum accuracy: 54.385964912280706
Minimum accuracy: 42.22222222222222
Minimum accuracy: 48.888888888888886
Minimum accuracy: 45.28301886792453
Minimum accuracy: 27.586206896551722
Minimum accuracy: 47.88732394366197
Minimum accuracy: 33.33333333333333
Minimum accuracy: 50.74626865671642
Minimum accuracy: 46.808510638297875
Minimum accuracy: 52.083333333333336
Minimum accuracy: 34.090909090909086
Minimum accuracy: 42.3728813559322
Minimum accuracy: 53.84615384615385
Minimum accuracy: 53.65853658536586
Minimum accuracy: 51.42857142857142
Minimum accuracy: 52.94117647058824
Minimum accuracy: 55.00000000000001
Minimum accuracy: 50.0
Minimum accuracy: 58.57142857142858
Minimum accuracy: 55.714285714285715
Minimum accuracy: 47.368421052631575
Minimum accuracy: 34.285714285714285
Minimum accuracy: 50.0
Minimum accuracy: 61.76470588235294
Minimum accuracy: 44.89795918367347
Minimum accuracy: 51.515151515151516
Minimum accuracy: 53.333333333333336
Minimum accuracy: 38.46153846153847
Minimum accuracy: 41.66666666666667
Minimum accuracy: 46.808510638297875
Minimum accuracy: 52.72727272727272
Minimum accuracy: 44.89795918367347
Minimum accuracy: 60.65573770491803
Minimum accuracy: 38.297872340425535
Minimum accuracy: 45.45454545454545
Minimum accuracy: 50.0
Minimum accuracy: 50.0
Minimum accuracy: 45.588235294117645
Minimum accuracy: 37.142857142857146
Minimum accuracy: 36.507936507936506
Minimum accuracy: 42.10526315789473
Minimum accuracy: 46.875
Minimum accuracy: 38.297872340425535
Minimum accuracy: 50.90909090909091
Minimum accuracy: 63.888888888888886
Minimum accuracy: 62.857142857142854
Minimum accuracy: 52.083333333333336
Minimum accuracy: 50.0
Minimum accuracy: 51.11111111111111
Minimum accuracy: 39.6551724137931
Minimum accuracy: 35.0
Minimum accuracy: 43.13725490196079
Minimum accuracy: 52.63157894736842
Minimum accuracy: 52.63157894736842
Minimum accuracy: 52.27272727272727
Minimum accuracy: 47.88732394366197
Minimum accuracy: 48.57142857142857
Minimum accuracy: 44.285714285714285
Minimum accuracy: 61.53846153846154
Minimum accuracy: 37.77777777777778
Minimum accuracy: 59.25925925925925
Minimum accuracy: 46.875
Minimum accuracy: 53.84615384615385
Minimum accuracy: 56.41025641025641
Minimum accuracy: 44.89795918367347
Minimum accuracy: 53.06122448979592
Minimum accuracy: 48.275862068965516
Minimum accuracy: 56.32183908045977
Minimum accuracy: 40.0
Minimum accuracy: 31.70731707317073
Minimum accuracy: 54.0
Minimum accuracy: 43.39622641509434
Minimum accuracy: 46.875
Minimum accuracy: 52.63157894736842
Minimum accuracy: 48.275862068965516
Minimum accuracy: 43.39622641509434
Minimum accuracy: 56.70103092783505
Minimum accuracy: 40.0
Minimum accuracy: 51.388888888888886
Minimum accuracy: 53.333333333333336
Minimum accuracy: 48.57142857142857
Minimum accuracy: 49.01960784313725
Minimum accuracy: 50.0
Minimum accuracy: 50.0
Minimum accuracy: 60.0
Minimum accuracy: 47.72727272727273
Minimum accuracy: 52.83018867924528
Minimum accuracy: 58.333333333333336
Minimum accuracy: 50.877192982456144
Minimum accuracy: 51.02040816326531
Minimum accuracy: 51.78571428571429
Minimum accuracy: 48.888888888888886
Minimum accuracy: 50.943396226415096
Minimum accuracy: 52.5
Minimum accuracy: 34.883720930232556
Minimum accuracy: 48.484848484848484
Minimum accuracy: 52.38095238095239
Minimum accuracy: 39.50617283950617
Minimum accuracy: 37.5
Minimum accuracy: 50.90909090909091
Minimum accuracy: 48.0
Minimum accuracy: 69.6969696969697
Minimum accuracy: 49.122807017543856
Minimum accuracy: 47.22222222222222
Minimum accuracy: 38.23529411764706
Minimum accuracy: 38.18181818181819
Minimum accuracy: 41.37931034482759
Minimum accuracy: 52.63157894736842
Minimum accuracy: 45.09803921568628
Minimum accuracy: 50.74626865671642
Minimum accuracy: 31.818181818181817
Minimum accuracy: 50.0
Minimum accuracy: 39.285714285714285
Minimum accuracy: 49.056603773584904
Minimum accuracy: 57.14285714285714
Minimum accuracy: 52.17391304347826
Minimum accuracy: 50.0
Minimum accuracy: 37.5
Minimum accuracy: 42.857142857142854
Minimum accuracy: 54.11764705882353
Minimum accuracy: 48.64864864864865
Minimum accuracy: 38.297872340425535
Minimum accuracy: 54.054054054054056
Minimum accuracy: 40.0
Minimum accuracy: 39.62264150943396
Minimum accuracy: 39.53488372093023
Minimum accuracy: 50.0
Minimum accuracy: 41.17647058823529
Minimum accuracy: 32.6530612244898
Minimum accuracy: 32.075471698113205
Minimum accuracy: 41.86046511627907
Minimum accuracy: 54.761904761904766
Minimum accuracy: 40.54054054054054
Minimum accuracy: 44.44444444444444
Minimum accuracy: 46.55172413793103
Minimum accuracy: 60.49382716049383
Minimum accuracy: 28.57142857142857
Minimum accuracy: 59.01639344262295
Minimum accuracy: 58.333333333333336
Minimum accuracy: 33.33333333333333
Minimum accuracy: 66.19718309859155
Minimum accuracy: 53.333333333333336
Minimum accuracy: 54.54545454545454
Minimum accuracy: 59.45945945945946
Minimum accuracy: 60.3448275862069
Minimum accuracy: 48.93617021276596
Minimum accuracy: 48.837209302325576
Minimum accuracy: 48.93617021276596
Minimum accuracy: 37.77777777777778
Minimum accuracy: 55.35714285714286
Minimum accuracy: 43.58974358974359
Minimum accuracy: 48.148148148148145
Minimum accuracy: 52.23880597014925
Minimum accuracy: 52.702702702702695
Minimum accuracy: 42.857142857142854
Minimum accuracy: 28.07017543859649
Minimum accuracy: 38.70967741935484
Minimum accuracy: 49.09090909090909
Minimum accuracy: 44.0
Minimum accuracy: 46.34146341463415
Minimum accuracy: 46.666666666666664
Minimum accuracy: 45.23809523809524
Minimum accuracy: 57.14285714285714
Minimum accuracy: 60.97560975609756
Minimum accuracy: 36.36363636363637
Minimum accuracy: 47.91666666666667
Minimum accuracy: 35.41666666666667
Minimum accuracy: 48.4375
Minimum accuracy: 43.13725490196079
Minimum accuracy: 58.97435897435898
Minimum accuracy: 52.54237288135594
Minimum accuracy: 60.71428571428571
Minimum accuracy: 28.846153846153843
Minimum accuracy: 41.02564102564102
Minimum accuracy: 39.130434782608695
Minimum accuracy: 52.38095238095239
Minimum accuracy: 47.72727272727273
Minimum accuracy: 50.0
Minimum accuracy: 48.57142857142857
Minimum accuracy: 40.0
Minimum accuracy: 42.857142857142854
Minimum accuracy: 56.060606060606055
Minimum accuracy: 47.61904761904761
Minimum accuracy: 32.075471698113205
Minimum accuracy: 47.14285714285714
Minimum accuracy: 52.63157894736842
Minimum accuracy: 53.48837209302325
Minimum accuracy: 36.11111111111111
Minimum accuracy: 50.0
Minimum accuracy: 34.146341463414636
Minimum accuracy: 31.03448275862069
Minimum accuracy: 42.22222222222222
Minimum accuracy: 52.17391304347826
Minimum accuracy: 48.0
Minimum accuracy: 50.0
Minimum accuracy: 66.07142857142857
Minimum accuracy: 33.33333333333333
Minimum accuracy: 45.65217391304348
Minimum accuracy: 48.75
Minimum accuracy: 53.65853658536586
Minimum accuracy: 45.0
Minimum accuracy: 51.06382978723404
Minimum accuracy: 43.24324324324324
Minimum accuracy: 52.27272727272727
Minimum accuracy: 38.297872340425535
Minimum accuracy: 52.54237288135594
Minimum accuracy: 45.45454545454545
Minimum accuracy: 46.2962962962963
Minimum accuracy: 43.28358208955223
Minimum accuracy: 47.82608695652174
Minimum accuracy: 43.47826086956522
Minimum accuracy: 46.666666666666664
Minimum accuracy: 41.02564102564102
Minimum accuracy: 50.0
Minimum accuracy: 44.0
Minimum accuracy: 44.11764705882353
Minimum accuracy: 31.372549019607842
Minimum accuracy: 51.162790697674424
Minimum accuracy: 24.444444444444443
Minimum accuracy: 56.60377358490566
Minimum accuracy: 40.0
Minimum accuracy: 40.54054054054054
Minimum accuracy: 59.09090909090909
Minimum accuracy: 46.15384615384615
Minimum accuracy: 59.523809523809526
Minimum accuracy: 61.29032258064516
Minimum accuracy: 50.0
Minimum accuracy: 51.515151515151516
Minimum accuracy: 51.78571428571429
Minimum accuracy: 51.02040816326531
Minimum accuracy: 34.04255319148936
Minimum accuracy: 45.0
Minimum accuracy: 43.58974358974359
Minimum accuracy: 50.0
Minimum accuracy: 44.06779661016949
Minimum accuracy: 51.02040816326531
Minimum accuracy: 48.78048780487805
Minimum accuracy: 43.333333333333336
Minimum accuracy: 39.53488372093023
Minimum accuracy: 50.0
Minimum accuracy: 38.0
Minimum accuracy: 50.847457627118644
Minimum accuracy: 50.0
Minimum accuracy: 51.36612021857923
Minimum accuracy: 55.55555555555556
Minimum accuracy: 54.71698113207547
Minimum accuracy: 41.02564102564102
Minimum accuracy: 43.58974358974359
Minimum accuracy: 43.75
Minimum accuracy: 50.0
Minimum accuracy: 54.929577464788736
Minimum accuracy: 45.28301886792453
Minimum accuracy: 49.09090909090909
Minimum accuracy: 46.0
Minimum accuracy: 57.73195876288659
Minimum accuracy: 43.58974358974359
Minimum accuracy: 48.07692307692308
Minimum accuracy: 36.734693877551024
Minimum accuracy: 44.73684210526316
Minimum accuracy: 46.93877551020408
Minimum accuracy: 46.0
Minimum accuracy: 53.84615384615385
Minimum accuracy: 41.935483870967744
Minimum accuracy: 46.93877551020408
Minimum accuracy: 40.42553191489361
Minimum accuracy: 41.66666666666667
Minimum accuracy: 46.51162790697674
Minimum accuracy: 30.0
Minimum accuracy: 45.94594594594595
Minimum accuracy: 52.5
Minimum accuracy: 54.761904761904766
Minimum accuracy: 61.53846153846154
Minimum accuracy: 50.0
Minimum accuracy: 45.94594594594595
Minimum accuracy: 41.53846153846154
Minimum accuracy: 26.31578947368421
Minimum accuracy: 55.172413793103445
Minimum accuracy: 30.612244897959183
Minimum accuracy: 40.74074074074074
Minimum accuracy: 41.86046511627907
Minimum accuracy: 50.0
Minimum accuracy: 36.11111111111111
Minimum accuracy: 60.0
Minimum accuracy: 41.81818181818181
Minimum accuracy: 46.15384615384615
Minimum accuracy: 56.60377358490566
Minimum accuracy: 46.0
Minimum accuracy: 42.5
Minimum accuracy: 51.470588235294116
Minimum accuracy: 53.278688524590166
Minimum accuracy: 67.3076923076923
Minimum accuracy: 56.25
Minimum accuracy: 50.0
Minimum accuracy: 57.57575757575758
Minimum accuracy: 50.0
Minimum accuracy: 52.77777777777778
Minimum accuracy: 42.592592592592595
Minimum accuracy: 47.72727272727273
Minimum accuracy: 44.44444444444444
Minimum accuracy: 51.35135135135135
Minimum accuracy: 32.72727272727273
Minimum accuracy: 50.0
Minimum accuracy: 52.63157894736842
Minimum accuracy: 46.93877551020408
Minimum accuracy: 41.46341463414634
Minimum accuracy: 54.761904761904766
Minimum accuracy: 45.56962025316456
Minimum accuracy: 58.333333333333336
Minimum accuracy: 56.71641791044776
Minimum accuracy: 44.642857142857146
Minimum accuracy: 47.88732394366197
Minimum accuracy: 48.717948717948715
Minimum accuracy: 46.0
Minimum accuracy: 46.666666666666664
Minimum accuracy: 53.52112676056338
Minimum accuracy: 43.90243902439025
Minimum accuracy: 53.84615384615385
Minimum accuracy: 52.27272727272727
Minimum accuracy: 55.81395348837209
Minimum accuracy: 51.470588235294116
Minimum accuracy: 50.0
Minimum accuracy: 35.483870967741936
Minimum accuracy: 47.16981132075472
Minimum accuracy: 50.0
Minimum accuracy: 50.0
Minimum accuracy: 28.57142857142857
Minimum accuracy: 58.06451612903226
Minimum accuracy: 40.0
Minimum accuracy: 64.1025641025641
Minimum accuracy: 44.827586206896555
Minimum accuracy: 44.18604651162791
Minimum accuracy: 50.0
Minimum accuracy: 51.94805194805194
Minimum accuracy: 56.60377358490566
Minimum accuracy: 52.38095238095239
Minimum accuracy: 57.89473684210527
Minimum accuracy: 55.769230769230774
Minimum accuracy: 56.71641791044776
Minimum accuracy: 37.2093023255814
Minimum accuracy: 56.36363636363636
Minimum accuracy: 47.05882352941176
Minimum accuracy: 53.333333333333336
Minimum accuracy: 47.45762711864407
Minimum accuracy: 50.0
Minimum accuracy: 35.44303797468354
Minimum accuracy: 49.275362318840585
Minimum accuracy: 44.44444444444444
Minimum accuracy: 47.5
Minimum accuracy: 54.23728813559322
Minimum accuracy: 43.373493975903614
Minimum accuracy: 38.63636363636363
Minimum accuracy: 38.095238095238095
Minimum accuracy: 42.857142857142854
Minimum accuracy: 42.5531914893617
Minimum accuracy: 60.71428571428571
Minimum accuracy: 38.70967741935484
Minimum accuracy: 43.39622641509434
Minimum accuracy: 50.0
Minimum accuracy: 49.09090909090909
Minimum accuracy: 62.857142857142854
Minimum accuracy: 35.714285714285715
Minimum accuracy: 48.57142857142857
Minimum accuracy: 54.6875
Minimum accuracy: 42.857142857142854
Minimum accuracy: 33.33333333333333
Minimum accuracy: 50.0
Minimum accuracy: 36.11111111111111
Minimum accuracy: 34.04255319148936
Minimum accuracy: 52.54237288135594
Minimum accuracy: 55.00000000000001
Minimum accuracy: 46.93877551020408
Minimum accuracy: 45.16129032258064
Minimum accuracy: 52.54237288135594
Minimum accuracy: 51.162790697674424
Minimum accuracy: 42.5
Minimum accuracy: 29.310344827586203
Minimum accuracy: 50.0
Minimum accuracy: 35.714285714285715
Minimum accuracy: 35.0
Minimum accuracy: 53.07692307692308
Minimum accuracy: 30.0
Minimum accuracy: 46.808510638297875
Minimum accuracy: 51.886792452830186
Minimum accuracy: 53.62318840579711
Minimum accuracy: 51.35135135135135
Minimum accuracy: 53.65853658536586
Minimum accuracy: 52.5
Minimum accuracy: 36.0
Minimum accuracy: 48.57142857142857
Minimum accuracy: 53.48837209302325
Minimum accuracy: 47.91666666666667
Minimum accuracy: 48.93617021276596
Minimum accuracy: 54.0
Minimum accuracy: 44.44444444444444
Minimum accuracy: 47.91666666666667
Minimum accuracy: 42.42424242424242
Minimum accuracy: 57.647058823529406
Minimum accuracy: 48.484848484848484
Minimum accuracy: 54.71698113207547
Minimum accuracy: 39.682539682539684
Minimum accuracy: 54.71698113207547
Minimum accuracy: 42.3728813559322
Minimum accuracy: 51.61290322580645
Minimum accuracy: 35.95505617977528
Minimum accuracy: 51.78571428571429
Minimum accuracy: 50.0
Minimum accuracy: 52.459016393442624
Minimum accuracy: 50.0
Minimum accuracy: 56.41025641025641
Minimum accuracy: 41.86046511627907
Minimum accuracy: 46.34146341463415
Minimum accuracy: 46.2962962962963
Minimum accuracy: 50.0
Minimum accuracy: 46.15384615384615
Minimum accuracy: 45.94594594594595
Minimum accuracy: 41.935483870967744
Minimum accuracy: 34.883720930232556
Minimum accuracy: 48.57142857142857
Minimum accuracy: 62.295081967213115
Minimum accuracy: 52.63157894736842
Minimum accuracy: 47.72727272727273
Minimum accuracy: 50.0
Minimum accuracy: 42.30769230769231
Minimum accuracy: 46.666666666666664
Minimum accuracy: 53.191489361702125
Minimum accuracy: 47.91666666666667
Minimum accuracy: 32.35294117647059
Minimum accuracy: 48.148148148148145
Minimum accuracy: 51.66666666666667
Minimum accuracy: 41.935483870967744
Minimum accuracy: 43.58974358974359
Minimum accuracy: 61.53846153846154
Minimum accuracy: 41.81818181818181
Minimum accuracy: 46.0
Minimum accuracy: 50.0
Minimum accuracy: 42.22222222222222
Minimum accuracy: 30.76923076923077
Minimum accuracy: 47.368421052631575
Minimum accuracy: 46.34146341463415
Minimum accuracy: 37.5
Minimum accuracy: 40.0
Minimum accuracy: 47.22222222222222
Minimum accuracy: 46.15384615384615
Minimum accuracy: 52.0
Minimum accuracy: 44.44444444444444
Minimum accuracy: 53.48837209302325
Minimum accuracy: 47.05882352941176
Minimum accuracy: 41.509433962264154
Minimum accuracy: 40.909090909090914
Minimum accuracy: 43.13725490196079
Minimum accuracy: 37.28813559322034
BUILD STOPPED (total time: 12 minutes 4 seconds)
