0.000000,0.035714,6.964286,11.357143,11.035714,5.785714,0.250000,0.000000,0.000000,0.928571,14.214286,13.285714,11.750000,13.285714,2.571429,0.000000,0.000000,3.392857,14.928571,4.285714,1.607143,10.500000,6.000000,0.000000,0.000000,5.607143,11.571429,0.464286,0.000000,8.178571,7.178571,0.000000,0.000000,6.214286,9.678571,0.000000,0.214286,10.500000,5.571429,0.000000,0.000000,5.357143,11.000000,0.285714,4.357143,14.000000,2.214286,0.000000,0.000000,1.857143,14.678571,10.107143,14.821429,8.107143,0.071429,0.000000,0.000000,0.000000,7.250000,13.964286,8.392857,0.321429,0.000000,0.000000,0
0.000000,0.000000,4.574074,13.796296,10.648148,1.611111,0.000000,0.000000,0.000000,0.629630,12.648148,14.444444,14.259259,10.444444,0.129630,0.000000,0.000000,2.500000,14.481481,6.907407,3.537037,14.425926,2.166667,0.000000,0.000000,3.574074,14.351852,4.111111,0.351852,12.055556,5.111111,0.000000,0.000000,3.444444,14.611111,3.111111,0.259259,12.296296,5.870370,0.000000,0.000000,2.351852,15.222222,3.537037,2.962963,14.851852,4.111111,0.000000,0.000000,0.388889,12.925926,12.129630,13.629630,13.000000,0.833333,0.000000,0.000000,0.000000,4.425926,13.851852,12.629630,3.240741,0.000000,0.000000,0
0.000000,0.010989,4.725275,13.791209,12.307692,3.252747,0.043956,0.000000,0.000000,1.417582,14.043956,10.945055,9.967033,11.989011,0.945055,0.000000,0.000000,5.296703,14.219780,2.351648,1.142857,11.890110,4.131868,0.000000,0.000000,6.307692,11.714286,0.604396,0.032967,7.021978,7.934066,0.000000,0.000000,6.681319,10.659341,0.241758,0.043956,5.846154,8.824176,0.000000,0.000000,4.131868,13.076923,0.439560,0.000000,7.659341,8.604396,0.000000,0.000000,0.901099,13.923077,7.428571,5.637363,13.989011,4.230769,0.000000,0.000000,0.000000,4.890110,14.230769,15.043956,8.373626,0.274725,0.000000,0
0.000000,0.048193,3.566265,12.783133,13.048193,4.301205,0.132530,0.000000,0.000000,1.012048,12.566265,13.204819,11.325301,13.096386,1.289157,0.000000,0.000000,3.481928,14.433735,3.301205,1.072289,11.795181,4.626506,0.000000,0.000000,5.325301,12.457831,0.674699,0.012048,7.903614,7.012048,0.000000,0.000000,5.409639,11.542169,0.506024,0.024096,9.048193,6.843373,0.000000,0.000000,2.819277,13.385542,2.156627,2.000000,13.662651,4.530120,0.000000,0.000000,0.397590,12.746988,12.265060,13.132530,13.024096,0.698795,0.000000,0.000000,0.000000,3.674699,13.000000,12.457831,2.987952,0.000000,0.000000,0
0.000000,0.031250,3.625000,11.687500,11.906250,4.375000,0.078125,0.000000,0.000000,0.031250,4.921875,14.968750,16.000000,11.250000,0.531250,0.000000,0.000000,0.125000,4.250000,14.750000,16.000000,12.375000,0.625000,0.000000,0.000000,0.156250,5.015625,15.109375,16.000000,12.031250,0.765625,0.000000,0.000000,0.453125,5.640625,15.390625,16.000000,11.437500,0.703125,0.000000,0.000000,0.265625,5.312500,15.359375,15.968750,10.812500,0.562500,0.000000,0.000000,0.109375,5.640625,15.390625,15.968750,11.015625,1.234375,0.078125,0.000000,0.046875,3.890625,11.531250,12.687500,7.625000,1.500000,0.093750,1
0.000000,1.153225,11.637096,14.056451,4.629029,0.024193,0.000000,0.000000,0.000000,5.338705,15.056452,13.104841,12.685482,0.879029,0.000000,0.000000,0.000000,4.951611,9.653226,3.475808,13.991936,2.322577,0.000000,0.000000,0.000000,1.387097,2.604840,2.580644,14.403225,2.298387,0.000000,0.000000,0.000000,0.137097,0.250000,6.669352,12.959677,0.758065,0.000000,0.000000,0.000000,0.016129,1.919354,12.806450,9.274196,0.806452,0.387097,0.000000,0.000000,0.975806,11.822580,15.862903,13.258065,11.709679,8.137099,0.354839,0.000000,1.193548,11.516128,13.564515,12.443547,12.354837,10.572578,1.241934,2
0.000000,0.375000,8.568182,14.750000,9.954545,1.420454,0.011364,0.000000,0.000000,3.625000,14.295455,11.761364,13.681818,7.534091,0.136364,0.000000,0.000000,3.829545,9.738636,2.818182,7.897727,11.409091,0.556818,0.000000,0.000000,1.227273,3.465909,0.852273,8.056818,11.431818,0.397727,0.000000,0.000000,0.068182,0.170455,0.897727,12.250000,8.045455,0.147727,0.000000,0.000000,0.000000,0.329545,6.670454,13.943182,4.147727,0.363636,0.000000,0.000000,0.215909,7.954545,15.227273,14.159091,10.511364,7.988636,0.863636,0.000000,0.306818,9.034091,14.034091,12.534091,11.954546,11.863637,2.886364,2
0.000000,1.628128,12.512237,13.197286,4.103828,0.023257,0.000000,0.000000,0.000000,6.826237,14.732384,14.442057,9.347916,0.372133,0.000000,0.000000,0.000000,6.012176,6.395133,9.291427,10.569286,0.279102,0.000000,0.000000,0.000000,1.407170,2.023536,11.349291,8.488151,0.034889,0.000000,0.000000,0.000000,0.058148,3.419067,14.232722,3.813644,0.000000,0.000000,0.000000,0.000000,0.593104,9.465574,12.174032,0.883840,0.430292,0.313997,0.000000,0.000000,3.058549,14.639888,14.034752,12.232595,12.419210,6.686694,0.081407,0.000000,1.639756,12.616902,14.662741,13.779574,12.012158,6.686821,0.255849,2
0.000000,1.318182,10.045455,14.022727,14.795455,10.954545,3.090909,0.227273,0.000000,3.250000,10.318182,6.772727,7.340909,14.386364,7.250000,0.159091,0.000000,0.659091,1.136364,1.045455,9.522727,13.431818,2.750000,0.000000,0.000000,0.000000,1.000000,10.227273,14.045455,4.727273,0.136364,0.000000,0.000000,0.045455,1.636364,9.136364,13.772727,5.795455,0.500000,0.000000,0.000000,0.000000,0.295455,1.613636,9.909091,12.500000,1.500000,0.000000,0.000000,0.636364,4.613636,5.522727,11.409091,12.840909,1.113636,0.000000,0.000000,1.363636,11.954545,14.386364,10.795455,3.204545,0.068182,0.000000,3
0.000000,0.000000,0.000000,5.028147,14.112681,2.000011,0.197182,0.042253,0.000000,0.000000,1.492950,13.774641,10.014111,0.859150,2.267612,0.591549,0.000000,0.154929,9.577461,13.450707,1.450705,4.915488,8.084517,0.619715,0.000000,4.323936,15.169008,5.309861,1.154934,12.464783,8.943668,0.098591,0.056338,10.464783,15.225346,10.126749,11.830984,15.830984,5.887319,0.000000,0.295773,6.915483,12.098591,12.718306,15.323939,12.732396,1.253517,0.000000,0.042253,0.380282,0.929591,3.915488,15.239435,5.112689,0.014084,0.000000,0.000000,0.000000,0.000000,6.112651,13.605631,1.873243,0.000000,0.000000,4
0.000000,0.000000,0.000000,0.999999,12.766579,7.866784,0.000000,0.000000,0.000000,0.000000,0.033335,7.266524,14.833329,3.766812,0.866446,0.066633,0.000000,0.000000,3.866512,14.299970,7.466875,3.599938,4.866249,0.366681,0.000000,2.399979,13.433277,11.700133,4.066672,11.299971,8.133221,0.000000,0.000000,9.399982,15.866662,15.066633,14.499946,15.966665,8.033376,0.000000,0.000000,4.666751,8.700016,9.066695,13.500013,15.233304,3.033403,0.000000,0.000000,0.100000,0.133333,0.400013,12.633282,11.966739,0.500018,0.000000,0.000000,0.000000,0.000000,1.266641,14.200003,8.000185,0.166673,0.000000,4
0.000000,0.000000,0.000000,5.227273,13.545455,1.045455,0.000000,0.000000,0.000000,0.000000,0.500000,11.909091,11.727273,0.363636,0.000000,0.000000,0.000000,0.000000,3.318182,15.000000,5.681818,0.000000,0.000000,0.000000,0.000000,0.500000,10.409091,12.090909,2.363636,2.318182,0.863636,0.000000,0.000000,4.090909,15.045455,5.818182,9.272727,10.409091,2.045455,0.000000,0.727273,12.090909,15.590909,11.545455,15.090909,13.454545,2.227273,0.000000,0.454545,8.818182,12.772727,14.000000,15.909091,12.500000,1.727273,0.000000,0.000000,0.454545,0.909091,6.954545,14.500000,4.136364,0.136364,0.000000,4
0.000000,0.194441,7.111010,12.111109,2.250232,0.500089,2.666614,1.138866,0.000000,1.777782,13.000039,9.833258,0.555703,5.500168,8.361064,1.694411,0.000000,4.472233,15.416540,5.138787,3.722248,12.000079,7.138827,0.388881,0.000000,5.777762,14.583223,10.749867,12.944485,14.666614,6.027659,0.000000,0.000000,2.083292,9.777861,13.416658,15.583342,9.722129,1.527748,0.000000,0.000000,0.055554,1.833297,11.610961,11.888891,1.166644,0.000000,0.000000,0.000000,0.027777,4.361025,13.861055,5.027777,0.000000,0.000000,0.000000,0.000000,0.249995,7.694332,11.527846,1.722267,0.000000,0.000000,0.000000,4
0.000000,0.000000,0.000000,1.203704,12.814815,6.574074,0.055556,0.000000,0.000000,0.000000,0.000000,5.296296,15.148148,3.185185,0.018519,0.037037,0.000000,0.000000,0.703704,12.259259,9.962963,2.351852,2.222222,0.185185,0.000000,0.092593,7.481481,13.296296,2.796296,9.481481,5.814815,0.018519,0.000000,4.203704,14.611111,7.222222,4.629630,15.111111,4.925926,0.000000,0.870370,11.759259,15.425926,13.222222,14.462963,15.444444,2.796296,0.000000,0.777778,6.240741,8.685185,9.296296,14.796296,11.925926,0.777778,0.000000,0.000000,0.074074,0.203704,1.518519,13.629630,6.611111,0.000000,0.000000,4
0.000000,0.287456,6.449169,12.386679,14.187014,11.300259,3.063710,0.025758,0.012498,3.399482,13.973937,13.412894,10.313367,8.513184,1.952141,0.000610,0.012498,5.061728,14.199970,3.963115,0.274958,0.099985,0.012498,0.000000,0.000000,5.287304,14.987654,9.587410,3.825636,0.150739,0.000000,0.000000,0.000000,2.475842,10.825789,13.612864,13.975309,4.789209,0.175278,0.000000,0.000000,0.125286,0.787990,2.100290,11.037647,10.800640,0.874867,0.000000,0.000000,0.324950,4.749276,7.424935,12.787990,10.399177,0.899863,0.000000,0.000000,0.087487,6.961439,14.462125,11.886450,3.661942,0.062490,0.000000,5
0.000000,0.000000,0.373134,9.619403,11.201486,1.626863,0.000000,0.000000,0.000000,0.007463,5.164177,15.261196,9.089554,1.238806,0.000000,0.000000,0.000000,0.156716,10.768656,12.485081,1.320897,0.000000,0.000000,0.000000,0.000000,1.029850,13.067162,8.246275,0.320898,0.000000,0.000000,0.000000,0.000000,1.910447,14.126866,10.313437,8.708959,5.201498,0.641793,0.000000,0.000000,1.179104,14.186566,14.328359,12.470150,13.611941,7.343289,0.208955,0.000000,0.052239,8.649254,14.582090,7.783586,11.231346,12.246272,1.231343,0.000000,0.000000,0.529852,8.529850,14.358209,14.149254,7.641790,0.432836,6
0.000000,0.008197,1.024591,10.950820,9.106558,1.188525,0.000000,0.000000,0.000000,0.139344,7.418034,14.540979,5.983605,0.852459,0.000000,0.000000,0.000000,0.729509,12.754099,8.696717,0.270490,0.000000,0.000000,0.000000,0.000000,1.860657,14.426233,8.549176,5.614754,2.139345,0.098361,0.000000,0.000000,2.475410,15.286885,14.098359,13.131146,13.032785,3.770491,0.000000,0.000000,1.106557,14.540986,8.221310,1.754094,7.008192,11.877049,0.270492,0.000000,0.139344,9.467218,11.868849,3.672123,8.696712,13.090167,0.950822,0.000000,0.008197,1.147541,9.942626,14.909837,13.622952,6.286892,0.262296,6
0.000000,0.562162,9.145946,14.486487,14.540541,10.318921,2.643246,0.081081,0.000000,0.983783,9.632432,10.037838,12.562161,13.151352,2.956759,0.016216,0.000000,0.367567,1.070270,1.086487,10.605404,11.335136,0.962162,0.000000,0.000000,0.637838,4.605406,8.762164,14.940541,10.810812,3.508111,0.000000,0.000000,2.227026,11.475673,15.427027,15.410811,13.254053,5.832432,0.000000,0.000000,0.827027,5.108107,14.372973,8.837838,3.805404,1.037838,0.000000,0.000000,0.167568,6.740540,13.945946,2.713513,0.086486,0.005405,0.000000,0.000000,0.616216,10.589189,9.924324,0.535135,0.000000,0.000000,0.000000,7
0.000000,0.074068,4.629750,12.370089,12.685302,5.630004,0.342648,0.000000,0.000000,2.750101,13.685378,8.852364,8.842260,11.639008,2.009430,0.000000,0.000000,5.055715,12.962964,4.777707,7.407280,11.352164,1.740765,0.000000,0.000000,1.833180,11.416461,14.111269,14.398286,7.333480,0.305530,0.000000,0.000000,0.462925,8.037284,13.398111,12.389107,9.796329,1.296189,0.000000,0.000000,0.824006,11.583619,6.509049,2.203929,11.935441,5.536577,0.000000,0.000000,0.620403,12.037369,7.426057,4.046799,12.342728,6.619809,0.000000,0.000000,0.018517,4.694643,13.148142,13.731504,9.601461,1.981312,0.046292,8
0.000000,0.242857,7.985714,14.242857,10.242857,2.471429,0.014286,0.000000,0.000000,3.457143,15.300000,10.800000,14.057143,10.171429,0.728571,0.000000,0.000000,6.214286,14.257143,2.028571,9.485714,14.342857,1.857143,0.000000,0.000000,3.200000,14.485714,11.957143,14.228571,15.442857,3.714286,0.000000,0.000000,0.214286,4.642857,8.900000,9.157143,15.171429,5.200000,0.000000,0.000000,0.085714,0.428571,0.257143,1.085714,13.771429,6.771429,0.000000,0.000000,0.657143,7.814286,7.271429,8.228571,14.685714,5.514286,0.000000,0.000000,0.185714,8.128571,14.014286,13.500000,8.985714,1.428571,0.000000,9
*****************************
0 => 100.00
0 => 100.00
0 => 100.00
0 => 100.00
1 => 100.00
2 => 100.00
2 => 100.00
2 => 100.00
3 => 100.00
4 => 100.00
4 => 100.00
4 => 100.00
4 => 100.00
4 => 100.00
5 => 100.00
6 => 99.25
6 => 99.18
7 => 99.46
8 => 99.07
9 => 100.00
*****************************