0.000000,0.024652,4.980319,12.931089,10.620418,2.851970,0.088662,0.000000,0.000000,0.950862,12.985104,13.901463,13.246330,10.827389,0.852183,0.000000,0.000000,3.320214,14.537087,5.310672,3.689755,13.078882,3.379204,0.000000,0.000000,4.847258,13.246450,1.990124,0.443307,10.295537,6.167496,0.000000,0.000000,5.118286,12.541892,1.275835,0.221654,10.645020,6.453302,0.000000,0.000000,3.428625,13.655254,2.344652,2.595811,13.955406,4.739228,0.000000,0.000000,0.871932,13.399071,12.014610,13.580821,12.763784,1.241571,0.000000,0.000000,0.029577,5.049397,13.610874,12.079025,3.261417,0.024628,0.000000,0
0.000000,0.035264,4.099838,13.529416,11.335803,2.394421,0.023533,0.000000,0.000000,1.446946,13.035475,12.111531,11.087892,10.641445,0.617664,0.000000,0.000000,4.570742,14.217394,3.834597,2.099624,12.340976,3.270732,0.000000,0.000000,5.717821,12.158455,1.152857,0.094131,7.858520,7.211901,0.000000,0.000000,5.870607,11.170364,0.435215,0.058832,6.276296,8.511908,0.000000,0.000000,3.235188,13.417493,0.994187,0.023533,8.334882,8.517720,0.000000,0.000000,0.647009,12.917494,8.788027,7.082113,14.358697,4.382513,0.000000,0.000000,0.005848,4.046713,13.552879,14.811846,8.270805,0.376524,0.000000,0
0.000000,0.000000,0.018188,2.708958,13.017091,10.873420,1.091306,0.000000,0.000000,0.163692,1.291332,9.782269,15.654389,13.910391,1.709705,0.000000,0.000000,2.891860,10.729155,15.218223,15.872679,12.109490,1.091294,0.000000,0.000000,5.527493,12.580685,11.944075,15.527000,11.236168,0.964004,0.000000,0.000000,0.870671,2.687758,5.000510,15.308741,11.109179,0.836678,0.000000,0.000000,0.000000,0.000000,4.001188,15.072612,11.673638,0.909416,0.000000,0.000000,0.000000,0.000000,4.163899,15.217790,13.201409,2.146200,0.000000,0.000000,0.000000,0.000000,2.417635,13.180782,12.875735,2.691865,0.000000,1
0.000000,1.262097,11.392473,15.098118,7.968011,0.147581,0.000000,0.000000,0.000000,5.475269,14.704570,13.066398,14.230645,1.344624,0.000000,0.000000,0.000000,4.393817,6.538710,5.672043,14.672849,1.213441,0.000000,0.000000,0.000000,1.082258,1.721505,9.295699,12.048925,0.180376,0.000000,0.000000,0.000000,0.098387,2.394086,14.393817,6.147312,0.000000,0.000000,0.000000,0.000000,0.180376,8.985215,13.425806,1.458602,0.573925,0.393548,0.000000,0.000000,2.246505,14.196774,13.704570,10.787097,11.295968,5.721774,0.065591,0.000000,1.311022,11.670968,15.081720,14.163441,11.687366,5.603763,0.310753,2
0.000000,1.486861,12.474340,14.602502,5.510072,0.051265,0.000000,0.000000,0.000000,6.177014,14.778291,11.783580,13.931739,1.524030,0.000000,0.000000,0.000000,4.460121,8.772325,2.724919,14.013425,4.304222,0.000000,0.000000,0.000000,0.730535,2.004304,1.558759,14.167881,4.534923,0.000000,0.000000,0.000000,0.000000,0.000160,4.901121,14.230529,1.870561,0.000000,0.000000,0.000000,0.000000,0.987342,11.126223,11.038758,0.527562,0.000000,0.000000,0.000000,0.845888,10.909951,15.818986,12.027229,8.783895,6.373941,0.309045,0.000000,1.538597,12.934464,15.039390,14.347479,14.398900,13.004267,1.876446,2
0.000000,0.342987,8.129144,14.771081,10.770681,1.771072,0.014283,0.000000,0.000000,3.543346,14.200163,11.914504,13.400324,8.799035,0.171394,0.000000,0.000000,3.942461,9.841299,2.770879,6.857585,12.599276,0.699859,0.000000,0.000000,1.214042,3.456448,0.871253,7.085920,12.570509,0.499899,0.000000,0.000000,0.028566,0.099980,0.942676,11.757401,8.999193,0.185677,0.000000,0.000000,0.000000,0.414202,6.843101,13.842495,4.799037,0.399920,0.000000,0.000000,0.199960,7.957146,15.157312,14.399132,11.013897,8.270390,0.971236,0.000000,0.285657,8.500500,13.743113,12.286244,11.472320,11.384849,3.013696,2
0.000000,0.752190,8.393596,13.641873,14.157627,7.281392,0.406150,0.000000,0.000000,3.610225,12.890437,8.295890,10.095685,14.030988,1.546010,0.000000,0.000000,0.843569,2.001450,1.266252,9.938976,11.732075,0.702951,0.000000,0.000000,0.093727,1.857942,10.903586,15.032919,5.750332,0.093730,0.000000,0.000000,0.031242,2.093240,9.496781,13.624160,13.361909,2.094721,0.000000,0.000000,0.031242,0.577989,0.484286,2.655632,14.312433,6.190796,0.000000,0.000000,0.844005,6.515913,5.736858,8.815684,14.469104,3.877142,0.000000,0.000000,0.595022,9.955262,14.719039,11.921147,5.124694,0.124733,0.000000,3
0.000000,1.148173,9.750849,14.621460,12.168050,3.300793,0.037809,0.000000,0.000000,4.567110,13.774295,10.116146,15.000716,7.864422,0.189029,0.000000,0.000000,1.209477,2.661190,5.229125,14.641201,5.261157,0.018905,0.000000,0.000000,0.056722,3.550974,13.323186,15.622231,7.042111,0.131962,0.000000,0.000000,0.056746,2.266222,7.074383,11.297717,15.132685,4.284717,0.000000,0.000000,0.094562,0.659735,0.226837,1.774722,14.584864,7.258873,0.000000,0.000000,1.321045,9.679796,9.660902,12.267021,14.620349,3.520407,0.000000,0.000000,0.942161,11.223412,13.885020,10.391194,3.653156,0.074846,0.000000,3
0.000000,0.000000,0.017106,5.519488,13.126101,2.040951,0.169555,0.110211,0.000000,0.000000,1.899693,13.637636,9.412022,1.313605,2.230016,0.415483,0.000000,0.305423,9.579035,13.099930,1.803376,5.773366,6.533550,0.440836,0.000000,4.297469,15.076894,6.014186,2.771357,12.619325,7.405706,0.059344,0.033911,9.195801,15.525246,12.261771,13.431788,15.643859,5.786789,0.000000,0.161077,4.813203,10.339405,11.348409,15.204214,12.100678,1.389458,0.000000,0.008478,0.110215,0.245862,4.027472,14.796832,4.878444,0.008478,0.000000,0.000000,0.000000,0.008480,6.647102,12.947107,1.727051,0.000000,0.000000,4
0.000000,0.000000,0.000000,1.354367,12.985278,6.630511,0.046113,0.000000,0.000000,0.000000,0.000000,5.740010,15.152393,3.200285,0.032085,0.000003,0.000000,0.000000,1.048797,12.600383,9.982814,2.231928,2.219923,0.031207,0.000000,0.293851,8.065754,13.368205,2.803054,9.067026,5.787100,0.000000,0.000000,4.712911,14.786144,8.686343,6.104247,15.047003,5.295420,0.000000,0.676318,11.087288,14.933801,12.889035,14.414123,15.338810,2.924456,0.000000,0.568721,5.686535,7.989505,8.359285,14.537060,12.507682,0.937638,0.000000,0.000000,0.138338,0.261306,1.617440,13.894606,7.323484,0.015377,0.000000,4
0.000000,0.000000,0.025633,6.011351,12.051462,1.154776,0.000000,0.000000,0.000000,0.000000,0.820239,12.998235,9.412243,0.705394,0.076898,0.128164,0.000000,0.064082,6.011212,14.090195,3.693043,3.588580,1.807133,0.230695,0.000000,1.743036,13.024988,7.885945,3.421939,9.267564,3.999702,0.025633,0.012816,7.051086,14.794938,3.923257,9.216073,13.513623,3.282117,0.000000,0.525474,11.345839,15.704897,14.332749,15.653792,13.794955,2.729888,0.000000,0.320412,4.332435,7.602530,10.140500,15.563925,6.141523,0.422941,0.000000,0.000000,0.076898,0.294775,6.857389,13.179285,1.884376,0.038449,0.000000,4
0.000000,0.360654,7.819647,13.278696,14.213101,11.262289,3.737756,0.081975,0.016393,2.704907,14.016377,12.836080,9.541011,8.508229,2.541011,0.065574,0.000000,3.508191,14.672137,3.754129,0.377069,0.180336,0.032787,0.000000,0.000000,5.770518,15.590162,13.245864,9.344233,1.983599,0.032787,0.000000,0.000000,3.213123,11.721331,11.704936,14.278691,8.622936,0.606555,0.000000,0.000000,0.163934,0.409843,0.262323,8.311508,12.393437,0.918029,0.000000,0.000000,0.327867,5.032765,7.327851,13.655748,10.147541,0.327867,0.000000,0.000000,0.245900,8.458997,14.606559,11.229512,2.278687,0.000000,0.000000,5
0.000000,0.655173,9.672414,12.896552,13.655172,11.931035,3.603449,0.224138,0.000000,3.086207,15.017241,13.120690,9.741379,8.844827,2.465517,0.034483,0.000000,4.827586,13.931035,7.517241,1.362069,0.051724,0.034483,0.000000,0.000000,4.672414,13.500000,15.206896,11.155172,1.189655,0.000000,0.000000,0.000000,0.793103,3.327587,4.862070,13.534483,6.465517,0.068966,0.000000,0.000000,0.034483,0.206897,0.586207,10.293104,9.620690,0.155172,0.000000,0.000000,0.879310,6.551724,8.017241,14.931035,6.068965,0.017241,0.000000,0.000000,0.603448,11.155173,14.465517,8.620689,0.724138,0.000000,0.000000,5
0.000000,0.000000,0.477273,10.534091,9.284091,0.920455,0.000000,0.000000,0.000000,0.000000,5.568182,15.090909,6.579545,0.647727,0.000000,0.000000,0.000000,0.363636,11.329545,10.625000,0.454545,0.000000,0.000000,0.000000,0.000000,1.068182,13.647727,8.181818,3.340909,1.068182,0.022727,0.000000,0.000000,1.784091,15.034091,14.840909,14.340909,12.772727,3.284091,0.000000,0.000000,0.795455,14.363636,10.886364,3.306818,6.954545,12.329545,0.375000,0.000000,0.034091,8.511364,12.886364,3.352273,6.943182,14.386364,1.397727,0.000000,0.000000,0.670455,9.011364,14.750000,14.647727,8.238636,0.375000,6
0.000000,0.000000,0.327731,9.478992,11.445378,1.773109,0.000000,0.000000,0.000000,0.008403,5.268908,15.243697,9.235294,1.285714,0.000000,0.000000,0.000000,0.184874,11.100840,12.285714,1.260504,0.000000,0.000000,0.000000,0.000000,1.142857,13.235294,7.823529,0.226891,0.000000,0.000000,0.000000,0.000000,2.042017,14.092437,9.899160,8.000000,4.495798,0.495798,0.000000,0.000000,1.235294,14.285714,14.478992,13.084034,13.773109,6.857143,0.218487,0.000000,0.067227,8.831933,14.705882,8.252101,11.436975,12.058824,1.260504,0.000000,0.000000,0.521008,8.495798,14.369748,14.151261,7.663866,0.462185,6
0.000000,0.025000,5.233337,12.191669,2.900003,0.316666,0.000000,0.000000,0.000000,0.483336,12.125002,10.933334,1.116675,0.133333,0.000000,0.000000,0.000000,2.150004,14.549999,4.658336,0.016673,0.050000,0.008333,0.000000,0.000000,3.858335,14.116667,3.458340,2.016669,0.949999,0.066667,0.000000,0.000000,5.608330,14.433333,11.800002,13.424999,10.408328,1.891666,0.000000,0.000000,4.166665,15.708332,12.491666,8.175002,12.575001,8.649997,0.058333,0.000000,1.200003,14.066668,11.999994,6.983329,13.049999,9.216668,0.225000,0.000000,0.058334,4.908336,13.408334,14.708334,10.858336,2.541669,0.033333,6
0.000000,0.085209,6.233317,14.037584,14.228842,7.756912,0.505613,0.000000,0.000000,0.954521,11.169747,11.852316,14.096852,12.009471,1.167722,0.000000,0.000000,0.542939,2.071844,1.337225,11.098883,11.382913,1.083455,0.000000,0.000000,0.096457,2.278236,6.436320,14.507081,10.780059,3.034357,0.000000,0.000000,1.795757,10.435694,15.229543,15.807384,13.724054,5.917474,0.000000,0.000000,1.302033,6.133525,13.784256,12.310437,6.337887,1.663595,0.000000,0.000000,0.024746,3.475159,15.082784,5.538091,0.144997,0.000134,0.000000,0.000000,0.037059,7.511820,12.982576,1.251997,0.000000,0.000000,0.000000,7
0.000000,0.090226,6.428565,13.496237,14.330827,14.413529,9.398483,0.887215,0.000000,0.421054,7.699254,9.879706,9.030080,14.360902,10.947363,0.511278,0.000000,0.112782,0.984964,0.458646,3.368420,14.796994,4.879700,0.037594,0.000000,0.270674,3.338339,6.436084,12.203001,13.932332,3.721796,0.000000,0.000000,1.315786,8.541348,13.481206,15.639100,12.082713,4.323311,0.000000,0.000000,0.939849,2.969928,12.541353,10.864670,2.045118,0.345865,0.000000,0.000000,0.045113,3.984958,14.977444,4.082710,0.000000,0.000000,0.000000,0.000000,0.045113,8.142848,12.180455,1.022558,0.075188,0.000000,0.000000,7
0.000000,0.026316,4.986842,12.434211,12.986842,5.907895,0.302632,0.000000,0.000000,2.789474,14.263158,9.710526,7.842105,12.276316,2.631579,0.000000,0.000000,5.565789,13.263158,2.368421,5.855263,12.421053,3.421053,0.000000,0.000000,2.631579,13.131579,11.078947,13.513158,8.618421,1.250000,0.000000,0.000000,0.105263,6.184211,15.394737,12.750000,1.934211,0.078947,0.000000,0.000000,0.328947,8.526316,13.289474,13.131579,5.921053,0.210526,0.000000,0.000000,0.684211,10.881579,10.447368,11.236842,9.973684,1.118421,0.000000,0.000000,0.052632,5.315789,13.684211,13.381579,5.907895,0.526316,0.000000,8
0.000000,0.067416,5.258427,12.719101,12.292135,6.000000,0.561798,0.000000,0.000000,1.359551,12.224719,11.213483,9.033708,12.123595,2.078652,0.000000,0.000000,1.382022,11.112360,9.584270,8.393258,11.280899,2.022472,0.000000,0.000000,0.179775,6.426966,14.730337,13.471910,6.876404,0.853933,0.000000,0.000000,0.584270,8.764045,14.786517,12.741573,2.280899,0.078652,0.000000,0.000000,2.146068,13.528090,6.000000,11.539326,7.617978,0.146067,0.000000,0.000000,2.089888,13.730337,5.404494,8.123595,12.258427,1.067416,0.000000,0.000000,0.112360,5.516854,13.112360,14.089888,7.741573,0.471910,0.000000,8
0.000000,0.068376,4.564103,12.205128,12.871795,6.641026,0.641026,0.000000,0.000000,2.863248,13.957265,9.017094,8.623932,12.606838,2.820513,0.000000,0.000000,5.230769,13.213675,4.196581,7.068376,12.358974,2.162393,0.000000,0.000000,1.811966,11.649573,14.128205,14.683761,7.632479,0.358974,0.000000,0.000000,0.358974,7.948718,13.837607,12.854701,9.153846,1.179487,0.000000,0.000000,0.880342,11.709402,6.384615,3.427350,12.119658,4.752137,0.000000,0.000000,0.700855,12.273504,7.615385,4.384615,13.068376,5.760684,0.000000,0.000000,0.025641,4.692308,13.059829,13.871795,9.589744,1.641026,0.042735,8
0.000000,0.154898,7.620364,13.957953,12.774667,4.858361,0.309796,0.000000,0.000000,3.310184,14.760607,7.901626,10.198146,13.281387,2.140406,0.000000,0.000000,5.831404,13.380006,1.450429,5.761801,15.324067,4.097753,0.000000,0.000000,2.169573,13.085073,12.956974,13.535489,15.577539,5.562261,0.000000,0.000000,0.028163,1.859602,5.099575,4.734004,12.479563,6.844109,0.000000,0.000000,0.140816,0.380204,0.000000,0.338154,11.226262,7.802457,0.014082,0.000000,1.154693,8.223902,5.633660,5.000555,13.718713,5.845315,0.028163,0.000000,0.126735,7.662795,14.140431,14.548425,10.041711,1.140848,0.000000,9
*****************************
0 => 100.00
0 => 100.00
1 => 100.00
2 => 100.00
2 => 100.00
2 => 100.00
3 => 100.00
3 => 100.00
4 => 99.15
4 => 100.00
4 => 100.00
5 => 100.00
5 => 100.00
6 => 100.00
6 => 100.00
6 => 99.17
7 => 100.00
7 => 99.25
8 => 100.00
8 => 100.00
8 => 99.15
9 => 100.00
*****************************