0.000000,0.000000,1.691138,12.436508,11.580688,1.872685,0.000000,0.000000,0.000000,0.381944,9.563161,14.891534,13.965608,10.109127,0.309193,0.000000,0.000000,2.308532,13.562831,9.398810,2.946098,13.473876,2.291667,0.000000,0.000000,3.398479,14.199735,5.819114,0.236442,9.583003,5.819114,0.000000,0.000000,3.289352,14.328042,4.183201,0.436508,8.854828,7.509921,0.000000,0.000000,1.181548,14.526786,5.180886,1.309524,12.055886,7.472553,0.000000,0.000000,0.163690,10.036376,13.218915,11.401455,14.945437,3.818122,0.000000,0.000000,0.000000,1.818783,11.908730,14.363426,7.164021,0.363757,0.000000,0
0.000000,0.064484,6.692452,13.500248,5.983920,0.161472,0.000000,0.000000,0.000000,1.483387,13.435283,14.353432,14.434780,6.017146,0.032242,0.000000,0.000000,3.403534,14.500011,7.126532,8.577344,14.096988,1.451149,0.000000,0.000000,4.885663,13.532756,1.838073,1.192948,12.451160,5.339298,0.000000,0.000000,5.498761,12.613365,0.596485,0.193455,10.291450,6.967503,0.000000,0.000000,4.224957,13.936275,1.273808,1.419673,12.210594,6.919358,0.000000,0.000000,1.451138,14.467262,10.870559,11.919422,14.595974,3.257168,0.000000,0.000000,0.128967,6.498746,14.289921,12.936256,5.369526,0.225693,0.000000,0
0.000000,0.050625,3.062975,12.949221,13.354684,3.961719,0.063281,0.000000,0.000000,1.202346,12.366885,12.063443,8.329063,12.379370,1.126408,0.000000,0.000000,4.063285,14.531880,3.368600,0.240625,10.189846,4.037344,0.000000,0.000000,5.494064,11.987815,0.987658,0.000000,6.101254,7.214530,0.000000,0.000000,5.519370,10.696419,0.329063,0.000000,6.139528,7.885629,0.000000,0.000000,2.531564,12.949846,0.925158,0.113905,9.430147,6.860941,0.000000,0.000000,0.291094,12.392030,9.088895,7.987172,14.050785,2.455940,0.000000,0.000000,0.000000,3.164065,13.012662,14.126723,6.227823,0.139219,0.000000,0
0.000000,0.014087,5.464881,14.140675,10.437103,1.563492,0.000000,0.000000,0.000000,1.887500,14.816865,11.070040,12.647421,9.986111,0.338095,0.000000,0.000000,5.929166,13.971627,1.577580,2.746429,13.704167,3.042659,0.000000,0.000000,6.592063,11.422024,0.225397,0.183135,8.774206,7.704167,0.000000,0.000000,6.915873,10.661706,0.084524,0.056349,6.421428,8.929762,0.000000,0.000000,4.394246,13.239087,0.478770,0.000000,7.647024,9.323810,0.000000,0.000000,1.014087,14.070040,7.900992,6.295238,14.239286,5.225794,0.000000,0.000000,0.000000,5.324008,14.577381,15.309921,9.254564,0.436706,0.000000,0
0.000000,0.018520,5.416784,12.962958,11.963649,4.167027,0.157421,0.000000,0.000000,0.898223,13.740968,13.565114,12.694581,12.991260,1.351969,0.000000,0.000000,3.444736,14.833401,3.879687,1.935261,12.759059,4.602249,0.000000,0.000000,5.250451,12.944262,0.888871,0.074080,9.657193,6.750151,0.000000,0.000000,5.454088,11.981211,0.481521,0.138900,10.981300,6.203807,0.000000,0.000000,3.815139,13.425700,1.722370,3.351791,14.555429,3.472181,0.000000,0.000000,0.935265,14.000256,11.879790,14.296235,11.212978,0.296323,0.000000,0.000000,0.000000,5.481693,13.768668,11.073822,1.916743,0.000000,0.000000,0
0.000000,0.000000,1.684211,14.184211,11.631579,1.526316,0.000000,0.000000,0.000000,0.289474,5.500000,15.855263,15.381579,3.131579,0.000000,0.000000,0.171053,2.052632,8.750000,15.881579,13.868421,1.631579,0.000000,0.000000,0.052632,2.250000,8.407895,15.460526,12.447368,1.052632,0.000000,0.000000,0.000000,0.789474,6.671053,15.342105,11.710526,0.776316,0.000000,0.000000,0.000000,0.118421,5.750000,15.263158,11.223684,0.710526,0.000000,0.000000,0.000000,0.000000,4.828947,15.381579,12.355263,1.776316,0.039474,0.000000,0.000000,0.000000,1.736842,12.710526,13.026316,3.500000,0.355263,0.000000,1
0.000000,1.622222,12.500000,13.255556,4.200000,0.022222,0.000000,0.000000,0.000000,6.800000,14.744444,14.444444,9.422222,0.411111,0.000000,0.000000,0.000000,6.044444,6.488889,9.255556,10.633333,0.333333,0.000000,0.000000,0.000000,1.422222,2.055556,11.300000,8.622222,0.033333,0.000000,0.000000,0.000000,0.055556,3.288889,14.266667,4.033333,0.000000,0.000000,0.000000,0.000000,0.566667,9.300000,12.288889,1.122222,0.500000,0.355556,0.000000,0.000000,2.988889,14.588889,14.088889,12.266667,12.333333,6.611111,0.077778,0.000000,1.644444,12.644444,14.722222,13.844444,12.100000,6.766667,0.288889,2
0.000000,1.115372,11.256400,14.858978,7.153857,0.256411,0.000000,0.000000,0.000000,5.820508,14.782053,11.153844,14.679489,3.179494,0.000000,0.000000,0.000000,4.717956,8.730784,1.653841,12.089735,6.948733,0.025641,0.000000,0.000000,1.217951,2.782057,0.641027,11.987171,7.461546,0.000000,0.000000,0.000000,0.076923,0.166667,2.115379,14.307689,4.102569,0.000000,0.000000,0.000000,0.000000,0.320513,8.782047,12.948714,1.487183,0.089744,0.000000,0.000000,0.461537,9.384612,15.602563,12.820506,9.320505,7.038453,0.512822,0.000000,1.012814,11.999992,14.717946,13.692311,13.602567,12.512828,2.012825,2
0.000000,1.158417,9.633668,14.376238,11.396043,2.940597,0.019802,0.000000,0.000000,4.693074,13.564355,10.158415,14.574257,7.534661,0.138614,0.000000,0.000000,1.594061,3.049503,5.049508,14.158419,5.138616,0.029703,0.000000,0.000000,0.099010,3.435647,13.188123,14.613860,5.039604,0.059406,0.000000,0.000000,0.049505,2.613863,8.851482,12.811882,14.158415,3.059404,0.000000,0.000000,0.099010,0.336634,0.346535,2.366339,14.277237,7.227718,0.000000,0.000000,1.128714,8.722775,8.297034,11.049509,14.693072,4.148509,0.000000,0.000000,0.940595,11.049507,14.277227,11.188118,4.396035,0.138613,0.000000,3
0.000000,0.930692,8.059403,13.158419,14.603962,10.168315,2.118810,0.198020,0.000000,3.574254,12.138608,9.099015,9.396040,14.792080,4.742571,0.099010,0.000000,1.376236,2.524750,1.683171,10.069310,12.891092,1.782177,0.000000,0.000000,0.000000,0.742579,8.970304,14.495051,5.851484,0.227723,0.000000,0.000000,0.029703,1.356435,7.970298,14.158417,8.762377,0.930692,0.000000,0.000000,0.000000,0.376243,1.158415,8.099005,13.831684,3.128715,0.000000,0.000000,0.445544,4.247534,6.108913,10.980198,13.435646,2.336638,0.000000,0.000000,0.871286,9.267323,14.306931,11.435648,4.386147,0.267327,0.000000,3
0.000000,0.000000,0.515510,10.630969,9.400734,0.378991,0.200022,0.031582,0.000000,0.010527,4.725607,15.126556,5.084678,1.947469,1.221199,0.031582,0.000000,0.915226,12.020823,10.369365,2.125543,7.199468,2.979295,0.147385,0.000000,5.462768,14.958222,4.558409,6.293865,12.106067,5.221533,0.073692,0.010529,8.389638,15.084112,10.578780,13.726054,14.873568,5.209880,0.000000,0.094750,5.147961,10.358382,12.568593,15.757981,9.832119,1.463208,0.000000,0.000000,0.631648,1.400158,9.305061,13.737270,1.494909,0.000000,0.000000,0.000000,0.010527,0.568147,11.778470,9.695388,0.221077,0.000000,0.000000,4
0.000000,0.000000,0.000000,3.038997,13.210924,3.976385,0.023436,0.000000,0.000000,0.000000,0.203171,9.094106,13.117059,1.882700,0.085935,0.078120,0.000000,0.023436,3.078420,13.773513,6.913764,2.734337,2.327984,0.171865,0.000000,0.898442,10.422213,11.116939,2.781264,9.391026,5.093617,0.007812,0.015624,5.757888,14.796948,6.367415,7.390791,14.195422,4.109367,0.000000,0.679646,11.249617,15.452914,13.734329,15.109429,14.609397,2.726519,0.000000,0.492157,5.109064,7.812024,9.116693,15.257737,9.851567,0.687458,0.000000,0.000000,0.109368,0.210925,3.765396,14.054747,4.773815,0.007812,0.000000,4
0.000000,0.253170,6.116110,12.191551,14.151346,11.152251,3.012332,0.088554,0.012651,3.404982,13.848820,13.518538,10.366416,8.559645,2.166122,0.050602,0.012651,4.986444,14.190063,3.910828,0.379517,0.126656,0.012801,0.000000,0.000000,5.429657,14.988101,9.472623,4.244931,0.507989,0.000000,0.000000,0.000000,2.594266,11.365497,13.757664,13.761455,5.473850,0.203771,0.000000,0.000000,0.126506,0.860236,2.111425,10.653417,11.193085,0.976530,0.000000,0.000000,0.291264,4.609037,7.329069,12.657372,10.863719,0.987670,0.000000,0.000000,0.063559,6.484363,14.467756,12.302686,3.911604,0.063256,0.000000,5
0.000000,0.537343,9.063725,13.180752,13.731520,11.501629,3.578052,0.000000,0.000000,2.634903,14.158146,12.434180,8.983252,7.969823,2.328576,0.000000,0.000000,3.841958,14.327340,6.375196,1.181394,0.084510,0.036489,0.000000,0.000000,4.572445,14.583982,15.048190,12.756262,2.850758,0.000000,0.000000,0.000000,1.143881,5.565723,5.773976,11.667121,11.560551,0.498788,0.000000,0.000000,0.037179,0.256114,0.158867,4.800329,13.839956,1.425272,0.000000,0.000000,0.855610,6.544288,6.514046,11.761718,11.609158,0.780871,0.000000,0.000000,0.549744,10.087289,14.685223,11.406097,3.282643,0.158862,0.000000,5
0.000000,0.560922,9.473823,13.684777,14.298023,12.087054,3.121250,0.227875,0.000000,3.138482,14.649131,13.930450,11.227851,9.579864,2.351136,0.035058,0.000000,4.034166,12.949124,8.631339,1.227587,0.193391,0.087644,0.000000,0.000000,3.421818,10.844805,14.597729,6.602041,0.211496,0.000000,0.000000,0.000000,0.719256,3.176429,8.945372,12.334480,1.760931,0.000000,0.000000,0.000000,0.175288,0.473566,3.891372,13.522975,3.779601,0.017529,0.000000,0.000000,0.893969,6.936242,10.739659,14.089364,2.109208,0.000000,0.000000,0.000000,0.490807,11.070671,14.595970,7.439950,0.298277,0.000000,0.000000,5
0.000000,1.274208,9.620480,13.472921,14.099276,11.470570,2.523511,0.000000,0.049969,6.471088,15.172434,14.475935,11.177350,9.972152,3.048212,0.024984,0.099938,8.722729,13.401600,4.528951,1.075534,0.824488,0.299813,0.000000,0.000000,5.927531,14.000648,5.597926,0.399766,0.000000,0.000000,0.000000,0.000000,1.276099,11.450867,12.651475,3.351205,0.099951,0.000000,0.000000,0.000000,0.024984,3.297962,12.871924,8.604602,0.428412,0.000000,0.000000,0.000000,0.274829,6.047471,13.198021,8.929387,0.778725,0.000000,0.000000,0.000000,0.974395,11.220079,13.800773,3.928754,0.299817,0.000000,0.000000,5
0.000000,0.029412,3.250002,12.676466,5.338222,0.455881,0.000000,0.000000,0.000000,0.426469,10.985284,12.102944,2.382346,0.294117,0.000000,0.000000,0.000000,1.794112,14.470581,4.455900,0.000000,0.000000,0.000000,0.000000,0.000000,3.338224,14.441175,3.470590,3.323519,1.249996,0.029412,0.000000,0.000000,4.602930,14.720593,13.647058,14.838230,13.411748,3.014696,0.000000,0.000000,2.676462,15.558819,8.779425,2.132371,7.794125,11.441172,0.058823,0.000000,0.470587,12.647054,10.500002,3.588225,9.911741,12.029424,0.367646,0.000000,0.029412,3.147055,12.235290,15.014709,12.808833,4.352965,0.044121,6
0.000000,0.000000,0.192909,9.898407,10.153033,0.987021,0.000000,0.000000,0.000000,0.000000,4.410969,15.474447,7.652951,0.705014,0.000000,0.000000,0.000000,0.243548,10.179603,12.102723,0.628107,0.000000,0.000000,0.000000,0.000000,0.781927,12.807393,9.692685,3.384070,1.115206,0.025637,0.000000,0.000000,1.333119,14.500074,14.525723,13.705018,12.025641,3.051603,0.000000,0.000000,0.589651,13.858838,11.487909,4.232497,7.539002,12.192762,0.423331,0.000000,0.025637,7.692988,13.359403,3.500884,6.962660,14.500080,1.692364,0.000000,0.000000,0.449443,8.642035,14.641240,14.704854,8.742508,0.487101,6
0.000000,0.000000,3.363501,12.832610,4.651442,0.742595,0.000000,0.000000,0.000000,0.121240,10.727691,12.377928,1.530188,0.272790,0.000000,0.000000,0.000000,1.500362,14.485666,5.270917,0.000000,0.000000,0.000000,0.000000,0.000000,3.015872,13.985534,2.709953,0.030310,0.060620,0.000000,0.000000,0.000000,4.879937,13.984608,7.786206,9.256735,5.771312,0.771757,0.000000,0.000000,3.409898,15.606662,14.484490,12.105372,13.909759,7.695278,0.090471,0.000000,0.803215,12.879000,13.075069,6.681265,12.090472,11.302156,0.560275,0.000000,0.045465,3.317806,12.120558,14.878534,12.742358,4.606651,0.075775,6
0.000000,0.000000,0.218751,9.041669,12.302070,2.010414,0.000000,0.000000,0.000000,0.010417,4.864587,15.489584,10.499991,1.531248,0.000000,0.000000,0.000000,0.104167,11.072917,13.156249,1.468748,0.000000,0.000000,0.000000,0.000000,1.052082,13.572915,8.437502,0.281250,0.010417,0.000000,0.000000,0.000000,1.989581,14.479167,10.489587,8.270834,4.614585,0.541666,0.000000,0.000000,1.322915,14.291667,14.312502,13.135420,13.875002,6.406253,0.239583,0.000000,0.135417,8.802086,14.937501,8.947919,12.177087,11.552086,1.145832,0.000000,0.000000,0.437501,8.187504,14.229165,14.187495,7.395828,0.479166,6
0.000000,0.025857,5.466145,13.431161,14.482656,13.258851,5.776700,0.327373,0.000000,0.568985,8.362205,10.636996,10.447744,15.068880,7.483735,0.146520,0.000000,0.198663,1.387843,0.370324,4.662999,14.982978,3.405230,0.000000,0.000000,0.103641,2.001593,4.881948,11.880351,13.181360,2.629827,0.000000,0.000000,1.352219,9.602734,14.706092,15.879120,14.550304,5.723185,0.000000,0.000000,1.180273,4.446585,12.483083,12.722967,4.791554,0.956616,0.000000,0.000000,0.060332,2.801776,14.785321,5.912153,0.043094,0.000000,0.000000,0.000000,0.017238,6.836970,13.025204,1.455934,0.000000,0.000000,0.000000,7
0.000000,0.917342,10.218381,14.743703,13.952925,7.044874,0.766969,0.023262,0.000000,1.162700,10.058571,9.895869,13.988641,10.580866,1.104818,0.000000,0.000000,0.453613,1.325946,1.744112,13.301583,8.443766,0.395458,0.000000,0.000000,0.743697,3.951136,8.032557,15.209358,8.162834,2.207439,0.000000,0.000000,3.430206,12.895594,15.767378,15.616729,14.047624,6.605230,0.000000,0.000000,1.384786,7.384099,14.627943,8.713343,5.094973,1.500550,0.000000,0.000000,0.313763,7.775711,13.072672,2.164481,0.127942,0.011631,0.000000,0.000000,1.045286,11.149417,8.876040,0.418720,0.000000,0.000000,0.000000,7
0.000000,0.362230,9.006815,14.121166,15.055201,13.894559,6.516598,0.333511,0.000000,0.720038,8.586649,9.479736,10.267586,14.905699,6.408180,0.120065,0.000000,0.265171,0.691530,1.014624,7.766745,13.673739,2.371293,0.000000,0.000000,0.854015,7.642595,12.639979,15.387257,14.330381,6.788223,0.000000,0.000000,1.109693,8.722467,14.108965,14.679065,9.786896,3.734849,0.000000,0.000000,0.080045,1.790990,13.989265,6.725789,0.386694,0.133406,0.000000,0.000000,0.053735,6.849488,14.314093,1.596816,0.000000,0.000000,0.000000,0.000000,0.322207,11.085945,9.326145,0.186575,0.000000,0.000000,0.000000,7
0.000000,0.012987,3.662338,11.701299,13.012987,6.155844,0.350649,0.000000,0.000000,2.558442,13.844156,9.935065,8.675325,12.116883,2.220779,0.000000,0.012987,6.363636,13.584416,2.337662,5.311688,12.428571,2.792208,0.000000,0.000000,2.818182,13.207792,11.805195,13.727273,10.077922,1.298701,0.000000,0.000000,0.025974,4.961039,15.012987,14.506494,6.467532,0.623377,0.000000,0.000000,0.142857,6.779221,13.259740,9.532468,9.844156,2.350649,0.000000,0.000000,0.194805,9.233766,11.714286,8.038961,13.012987,3.363636,0.000000,0.000000,0.012987,3.831169,13.168831,13.740260,8.090909,1.090909,0.000000,8
0.000000,0.066126,5.418927,12.588377,12.691265,6.948250,0.713161,0.000000,0.000000,2.176646,13.624818,9.889263,8.198380,13.022007,3.058336,0.000000,0.000000,3.147611,12.227740,6.101974,6.470022,12.595616,2.374748,0.000000,0.000000,0.713490,8.669045,14.139173,14.183725,7.324140,0.551500,0.000000,0.000000,0.360369,8.522038,14.521918,13.308513,4.596548,0.301757,0.000000,0.000000,1.683374,13.426278,5.506888,8.248706,10.375509,1.574054,0.000000,0.000000,1.757015,13.823358,5.506999,5.594642,13.154422,3.169346,0.000000,0.000000,0.095539,5.720304,13.007410,14.066072,9.337820,1.198594,0.036767,8
0.000000,0.347943,8.185250,13.695535,11.695068,5.792777,0.315217,0.000000,0.000000,2.858579,14.467508,10.380318,9.902641,12.130435,2.434081,0.000000,0.000000,2.565217,12.347826,6.902174,10.631136,11.227677,2.183731,0.000000,0.000000,0.869565,9.108929,13.717391,12.445302,4.324684,0.401823,0.000000,0.000000,0.130435,7.859631,15.173913,8.205937,0.543128,0.021739,0.000000,0.000000,0.631136,12.652057,12.010168,10.336956,0.749649,0.000000,0.000000,0.000000,1.500818,13.869565,9.498714,11.945535,2.065919,0.000117,0.000000,0.000000,0.260986,8.805166,14.554465,9.250117,1.163862,0.000000,0.000000,8
0.000000,0.093798,6.076902,13.233985,13.233745,5.749852,0.719095,0.000000,0.000000,2.749372,13.936462,7.421370,7.936955,12.811192,2.514832,0.000000,0.000000,4.811428,12.671493,2.718334,5.109389,14.921338,4.187074,0.000000,0.000000,1.718123,11.312195,12.844212,12.968266,15.187119,5.468736,0.000000,0.000000,0.031266,1.499514,3.906211,3.172468,10.513897,7.093814,0.000000,0.000000,0.156325,0.703479,0.078165,0.125064,8.857288,8.218150,0.031266,0.000000,1.094269,7.030955,4.154334,2.716081,11.638451,7.031804,0.046899,0.000000,0.078165,6.170439,13.641199,14.844440,11.235289,2.063281,0.000000,9
*****************************
0 => 100.00
0 => 98.39
0 => 100.00
0 => 100.00
0 => 100.00
1 => 98.68
2 => 98.89
2 => 100.00
3 => 99.01
3 => 98.02
4 => 98.95
4 => 99.22
5 => 100.00
5 => 100.00
5 => 98.25
5 => 100.00
6 => 100.00
6 => 100.00
6 => 98.48
6 => 98.96
7 => 100.00
7 => 98.84
7 => 100.00
8 => 100.00
8 => 100.00
8 => 98.91
9 => 98.44
*****************************