0.000000,0.038462,3.403846,13.134615,11.740385,2.086538,0.000000,0.000000,0.000000,1.086538,13.048077,11.836538,10.807692,11.009615,0.365385,0.000000,0.000000,4.317308,14.144231,2.490385,1.105769,12.173077,2.798077,0.000000,0.000000,5.509615,11.384615,0.721154,0.028846,7.259615,6.663462,0.000000,0.000000,5.692308,10.355769,0.182692,0.038462,6.259615,7.788462,0.000000,0.000000,2.644231,13.096154,0.817308,0.153846,8.490385,7.615385,0.000000,0.000000,0.288462,12.519231,8.644231,7.086538,14.250000,3.615385,0.000000,0.000000,0.000000,3.269231,13.192308,14.711538,7.740385,0.288462,0.000000,0
0.000000,0.078431,7.352941,13.745098,6.274510,0.235294,0.000000,0.000000,0.000000,1.843137,14.450980,13.745098,14.803922,6.431373,0.078431,0.000000,0.000000,4.411765,14.196078,4.529412,8.431373,14.392157,1.627451,0.000000,0.000000,5.686275,12.392157,0.686275,1.156863,12.117647,5.843137,0.000000,0.000000,6.392157,11.215686,0.058824,0.137255,10.058824,7.196078,0.000000,0.000000,4.941176,13.137255,0.431373,1.039216,12.000000,6.568627,0.000000,0.000000,1.686275,14.960784,10.078431,11.058824,14.529412,2.588235,0.000000,0.000000,0.137255,7.254902,14.764706,12.960784,5.078431,0.019608,0.000000,0
0.000000,0.040000,6.640000,15.360000,14.840000,5.800000,0.160000,0.000000,0.000000,3.240000,15.000000,10.200000,8.480000,13.880000,2.080000,0.000000,0.000000,7.840000,14.680000,3.520000,0.400000,11.560000,6.960000,0.000000,0.000000,8.320000,12.960000,0.880000,0.000000,7.120000,10.800000,0.000000,0.000000,8.120000,12.480000,0.520000,0.000000,5.400000,11.600000,0.000000,0.000000,6.240000,13.920000,1.000000,0.000000,7.920000,11.080000,0.000000,0.000000,1.960000,15.160000,8.360000,6.160000,14.320000,5.800000,0.000000,0.000000,0.000000,7.320000,15.560000,15.560000,9.680000,0.280000,0.000000,0
0.000000,0.013158,4.789474,13.842105,10.973684,1.894737,0.000000,0.000000,0.000000,0.776316,12.960526,13.907895,13.289474,11.407895,0.263158,0.000000,0.000000,3.250000,14.947368,4.039474,2.289474,14.052631,2.776316,0.000000,0.000000,4.697368,13.842105,1.289474,0.144737,10.973684,5.776316,0.000000,0.000000,4.868421,13.302632,0.815790,0.210526,11.868421,5.868421,0.000000,0.000000,3.052631,14.486842,2.026316,2.618421,14.539474,3.894737,0.000000,0.000000,0.486842,13.539474,11.618421,13.644737,12.131579,0.473684,0.000000,0.000000,0.000000,4.657895,13.815790,12.381579,2.697368,0.000000,0.000000,0
0.000000,0.018182,5.163637,11.709091,13.181818,6.818181,0.327273,0.000000,0.000000,0.763636,13.363637,12.945454,10.927273,13.945454,2.636363,0.000000,0.000000,3.000000,14.600000,4.127272,1.309091,10.163636,6.181818,0.000000,0.000000,5.363636,12.309091,0.763636,0.018182,7.399999,7.472727,0.000000,0.000000,5.672727,10.763636,0.290909,0.054545,9.290908,6.418182,0.000000,0.000000,4.127273,12.072727,1.309091,3.454545,14.000000,3.272728,0.000000,0.000000,1.145455,13.909092,11.763636,14.309091,10.654546,0.218182,0.000000,0.000000,0.000000,5.581819,13.400000,10.000000,1.236364,0.000000,0.000000,0
0.000000,0.000000,15.000000,16.000000,13.000000,2.000000,0.000000,0.000000,0.000000,3.000000,15.000000,2.000000,10.000000,15.000000,2.000000,0.000000,0.000000,8.000000,12.000000,0.000000,0.000000,10.000000,8.000000,0.000000,0.000000,8.000000,12.000000,0.000000,0.000000,4.000000,12.000000,0.000000,0.000000,9.000000,12.000000,0.000000,0.000000,4.000000,12.000000,0.000000,0.000000,8.000000,12.000000,0.000000,0.000000,9.000000,8.000000,0.000000,0.000000,6.000000,15.000000,4.000000,11.000000,14.000000,2.000000,0.000000,0.000000,0.000000,12.000000,16.000000,15.000000,3.000000,0.000000,0.000000,0
0.000000,0.000000,1.399998,11.799996,12.233341,2.633346,0.000002,0.000000,0.000000,0.533333,9.566655,15.700001,14.500000,11.000007,0.566671,0.000000,0.000000,2.500001,12.966667,10.433339,3.500000,13.466672,3.066674,0.000000,0.000000,3.500008,13.600000,7.266658,0.400000,9.666677,5.933337,0.000000,0.000000,2.966671,14.433332,6.266658,0.600000,9.400009,7.266667,0.000000,0.000000,0.933334,14.299996,7.266663,1.933341,13.133332,6.699998,0.000000,0.000000,0.133333,9.266660,14.566675,13.033337,15.033328,2.999999,0.000000,0.000000,0.000000,1.599998,11.533327,14.300001,6.666668,0.300000,0.000000,0
0.000000,0.000000,2.452771,13.603917,11.452882,1.876906,0.000000,0.000000,0.000000,0.292479,6.537598,15.811304,15.471659,3.792263,0.000000,0.000000,0.122653,1.811218,9.933422,15.915087,14.377220,1.943038,0.000000,0.000000,0.037739,2.292303,9.867381,15.594303,13.330037,1.481171,0.000000,0.000000,0.000000,0.839610,8.018868,15.330751,12.650639,1.216726,0.000000,0.000000,0.000000,0.311260,7.272892,15.311258,12.329856,1.480450,0.000000,0.000000,0.000000,0.047174,6.169637,15.415041,13.207294,3.461487,0.084911,0.000000,0.000000,0.018870,2.480987,12.311435,13.009615,4.462125,0.301913,0.000000,1
0.000000,1.620690,12.471264,13.218391,4.206897,0.022989,0.000000,0.000000,0.000000,6.816092,14.747126,14.459770,9.425287,0.390805,0.000000,0.000000,0.000000,5.977011,6.413793,9.275862,10.632184,0.321839,0.000000,0.000000,0.000000,1.390805,2.000000,11.356322,8.540230,0.034483,0.000000,0.000000,0.000000,0.057471,3.390805,14.252874,3.873563,0.000000,0.000000,0.000000,0.000000,0.586207,9.459770,12.218391,0.896552,0.425287,0.310345,0.000000,0.000000,3.022989,14.609195,14.034483,12.206897,12.367816,6.620690,0.080460,0.000000,1.620690,12.620690,14.678161,13.804598,12.057471,6.666667,0.252874,2
0.000000,0.397727,8.693182,14.738636,9.772727,1.375000,0.011364,0.000000,0.000000,3.704545,14.409091,11.715909,13.738636,7.272727,0.136364,0.000000,0.000000,3.931818,9.863636,2.613636,8.079545,11.193182,0.477273,0.000000,0.000000,1.306818,3.522727,0.829545,8.363636,11.261364,0.272727,0.000000,0.000000,0.068182,0.170455,0.931818,12.545455,7.829545,0.045455,0.000000,0.000000,0.000000,0.329545,6.818182,14.079545,3.840909,0.306818,0.000000,0.000000,0.215909,7.943182,15.272727,14.147727,10.409091,8.045455,0.852273,0.000000,0.318182,9.215909,14.068182,12.568182,11.954545,11.863636,2.784091,2
0.000000,1.107692,11.515385,14.100000,4.884615,0.038462,0.000000,0.000000,0.000000,5.338462,15.076923,12.907692,12.761538,1.007692,0.000000,0.000000,0.000000,4.923077,9.507692,3.376923,13.976923,2.369231,0.000000,0.000000,0.000000,1.300000,2.584615,2.692308,14.369231,2.215385,0.000000,0.000000,0.000000,0.130769,0.246154,6.892308,12.861538,0.661538,0.000000,0.000000,0.000000,0.023077,2.115385,13.023077,8.984615,0.738462,0.369231,0.000000,0.000000,1.030769,11.946154,15.823077,13.046154,11.646154,7.923077,0.338462,0.000000,1.176923,11.292308,13.500000,12.492308,12.361538,10.330769,1.161538,2
0.000000,0.333095,8.256475,14.093810,14.208343,6.094250,0.257097,0.000000,0.000000,3.400014,13.038708,8.830813,9.668138,13.751277,1.237523,0.000000,0.000000,1.543027,3.087290,1.610212,9.095218,12.571767,0.837949,0.000000,0.000000,0.114266,1.104216,8.685243,15.247575,8.601404,0.314407,0.000000,0.000000,0.019044,1.209312,6.523896,11.286009,13.866788,3.781878,0.000000,0.000000,0.076177,0.800301,0.447541,0.961728,10.817840,9.534659,0.028566,0.000000,1.256566,9.058017,5.458475,5.494975,13.389878,8.973112,0.066831,0.000000,0.342530,8.551130,14.704372,14.695733,10.515867,2.210104,0.019044,3
0.000000,0.000000,0.063291,7.164557,11.544304,0.810127,0.000000,0.000000,0.000000,0.000000,1.708861,14.240506,7.367089,1.012658,0.645570,0.101266,0.000000,0.101266,8.544304,12.848101,2.202532,5.316456,3.202532,0.265823,0.000000,3.025316,14.341772,5.164557,3.037975,11.227848,5.468354,0.088608,0.025316,8.772152,14.696203,4.455696,9.582278,14.620253,3.924051,0.000000,0.354430,10.468354,15.531646,14.962025,15.797468,12.848101,2.075949,0.000000,0.088608,2.443038,4.974684,8.721519,14.987342,3.531646,0.113924,0.000000,0.000000,0.012658,0.164557,8.215190,11.810127,0.873418,0.000000,0.000000,4
0.000000,0.000000,0.000000,2.210526,13.052632,5.289474,0.039474,0.000000,0.000000,0.000000,0.052632,6.868421,14.421053,2.723684,0.013158,0.026316,0.000000,0.000000,1.065789,13.013158,9.381579,2.052632,1.552632,0.131579,0.000000,0.131579,8.065789,13.355263,3.197368,7.815789,4.381579,0.013158,0.000000,3.960526,14.736842,7.407895,6.381579,13.947368,4.447368,0.000000,0.789474,11.618421,15.460526,13.013158,14.736842,14.894737,2.723684,0.000000,0.671053,6.657895,9.473684,10.210526,15.078947,12.013158,1.013158,0.000000,0.000000,0.184211,0.328947,2.815789,14.118421,5.960526,0.013158,0.000000,4
0.000000,0.000000,0.000000,3.141176,13.858824,3.588235,0.223529,0.035294,0.000000,0.000000,0.588235,11.800000,12.200000,1.364706,2.341176,0.494118,0.000000,0.058824,7.176471,14.694118,3.070588,5.035294,7.047059,0.411765,0.000000,3.258824,14.600000,8.117647,2.541176,12.588235,7.623529,0.011765,0.035294,9.458824,15.588235,12.823529,13.541176,15.776471,6.235294,0.000000,0.188235,5.223529,9.988235,10.600000,14.552941,13.811765,2.164706,0.000000,0.058824,0.188235,0.200000,2.200000,14.694118,7.552941,0.082353,0.000000,0.000000,0.000000,0.000000,3.823529,14.188235,3.552941,0.000000,0.000000,4
0.000000,0.658824,9.694118,13.200000,13.776471,11.364706,3.270588,0.023529,0.000000,3.364706,15.129412,12.811765,9.647059,8.635294,2.141177,0.000000,0.000000,4.917647,14.400000,5.847059,0.941176,0.082353,0.035294,0.000000,0.000000,5.152941,14.552941,15.023529,10.917647,1.188235,0.000000,0.000000,0.000000,1.470588,6.047059,6.847059,13.870588,6.552941,0.070588,0.000000,0.000000,0.047059,0.200000,0.388235,10.105882,10.200000,0.200000,0.000000,0.000000,0.764706,6.717647,8.047059,14.729412,7.376470,0.058824,0.000000,0.000000,0.588235,11.223529,14.588235,9.494118,1.211765,0.000000,0.000000,5
0.000000,0.418804,7.957267,13.051280,14.085471,12.017092,3.905977,0.042735,0.000000,2.068377,13.940172,11.094017,7.487181,6.051283,1.837607,0.000000,0.000000,3.589745,14.333332,7.512825,4.290595,1.008543,0.017093,0.000000,0.000000,4.222220,14.470085,14.290598,14.264960,9.683759,0.735039,0.000000,0.000000,0.991453,4.042735,2.820515,5.213678,13.658123,3.957264,0.000000,0.000000,0.153846,0.444445,0.111111,1.410254,13.153848,4.504276,0.000000,0.000000,0.752137,6.290602,6.213675,9.341877,13.435903,1.957266,0.000000,0.000000,0.333334,8.538463,14.504273,12.230774,4.427353,0.136752,0.000000,5
0.000000,0.000000,1.089431,11.016260,9.081301,1.162602,0.000000,0.000000,0.000000,0.081301,7.382114,14.439024,6.032520,0.845528,0.000000,0.000000,0.000000,0.674797,12.723577,8.772358,0.382114,0.016260,0.000000,0.000000,0.000000,1.764228,14.325203,8.626016,5.682927,2.121951,0.097561,0.000000,0.000000,2.471545,15.235772,14.024390,13.097561,12.853659,3.699187,0.000000,0.000000,1.154472,14.634146,8.162602,1.788618,7.040650,11.756098,0.268293,0.000000,0.138211,9.560976,11.707317,3.577236,8.585366,13.048780,0.943089,0.000000,0.008130,1.219512,9.951220,14.845528,13.626016,6.300813,0.260163,6
0.000000,0.000000,0.370370,9.607406,11.199998,1.614813,0.000000,0.000000,0.000000,0.007407,5.148146,15.266669,9.059263,1.229630,0.000000,0.000000,0.000000,0.155556,10.770369,12.488894,1.311112,0.000000,0.000000,0.000000,0.000000,1.029630,13.088888,8.222226,0.318519,0.007407,0.000000,0.000000,0.000000,1.948148,14.133333,10.237039,8.666667,5.281483,0.659260,0.000000,0.000000,1.229630,14.177777,14.229630,12.451854,13.629631,7.318521,0.207407,0.000000,0.103704,8.703704,14.592594,7.844448,11.266668,12.170372,1.222223,0.000000,0.000000,0.555556,8.511109,14.288888,14.155555,7.607408,0.429630,6
0.000000,0.305884,9.176475,14.341173,15.082348,14.941171,9.411800,0.694121,0.000000,0.729415,8.341179,9.341172,8.988222,14.776464,10.094145,0.423532,0.000000,0.141177,0.435296,0.388237,5.458811,14.788234,3.764705,0.011765,0.000000,0.294114,4.976454,9.458801,14.505877,13.317649,4.694108,0.000000,0.000000,1.000003,8.235283,13.541167,15.082357,9.811773,3.482365,0.000000,0.000000,0.423531,2.364708,14.223532,7.823524,1.199983,0.247050,0.000000,0.000000,0.023530,7.011761,14.600005,1.811764,0.000000,0.000000,0.000000,0.000000,0.282354,11.494123,9.952951,0.470591,0.117648,0.000000,0.000000,7
0.000000,0.000000,4.742857,12.885714,14.485714,14.885714,13.942857,6.028571,0.000000,0.114286,6.800000,10.457143,8.828571,10.542857,15.428571,5.314286,0.000000,0.028571,0.542857,0.085714,0.200000,9.657143,12.828571,0.800000,0.000000,0.114286,0.942857,4.628571,8.342857,15.342857,7.228571,0.028571,0.000000,0.485714,4.742857,12.200000,15.371429,12.942857,3.285714,0.000000,0.000000,0.428571,2.085714,8.571429,14.600000,3.257143,0.257143,0.000000,0.000000,0.000000,1.885714,13.857143,7.942857,0.000000,0.000000,0.000000,0.000000,0.000000,6.371429,13.571429,1.657143,0.000000,0.000000,0.000000,7
0.000000,1.260268,11.753421,14.972608,14.493158,8.698667,1.123295,0.000000,0.000000,1.205474,9.534232,9.095888,13.369851,11.260298,1.205491,0.000000,0.000000,0.301369,0.808216,1.657526,13.301348,8.123320,0.273991,0.000000,0.000000,1.164385,5.835644,10.095917,15.369866,8.958917,3.246579,0.000000,0.000000,3.534232,12.931497,15.780823,15.191773,13.602710,6.383536,0.000000,0.000000,0.821914,6.232860,14.767129,6.356163,3.520564,1.164392,0.000000,0.000000,0.424655,9.986303,12.041101,0.616436,0.054794,0.013699,0.000000,0.000000,1.424650,12.904105,6.849316,0.082191,0.000000,0.000000,0.000000,7
0.000000,0.023529,5.235294,13.600000,14.729412,10.211765,1.435294,0.000000,0.000000,0.976471,10.682353,11.811765,13.152941,14.094118,2.517647,0.000000,0.000000,0.564706,1.870588,0.552941,8.647059,13.352941,1.576471,0.000000,0.000000,0.035294,1.564706,4.764706,13.329412,11.658824,2.752941,0.000000,0.000000,1.164706,9.235294,14.623529,15.811765,14.094118,6.011765,0.000000,0.000000,1.364706,6.423529,13.305882,13.329412,6.905882,1.541176,0.000000,0.000000,0.047059,2.447059,14.882353,6.823530,0.188235,0.000000,0.000000,0.000000,0.000000,6.505882,13.670588,1.800000,0.000000,0.000000,0.000000,7
0.000000,0.000000,3.812068,12.422251,13.313145,13.375394,9.468613,0.937275,0.000000,0.109585,6.080014,9.672204,8.749127,13.858233,11.781758,0.406152,0.000000,0.016568,1.768514,0.812305,2.031493,14.124504,5.860585,0.078106,0.000000,0.454436,3.236682,5.219665,10.610430,14.187698,2.593406,0.000000,0.000000,1.609462,8.516688,13.672190,15.781066,14.077378,4.842590,0.000000,0.000000,0.781062,2.077625,9.483076,12.703676,2.093247,0.296804,0.000000,0.000000,0.046864,1.249944,14.468404,6.063668,0.000000,0.000000,0.000000,0.000000,0.000000,4.515275,13.734897,1.469580,0.000000,0.000000,0.000000,7
0.000000,0.078652,4.977528,12.561798,12.617978,5.853933,0.415730,0.000000,0.000000,2.764045,14.089888,8.730337,8.640449,12.202247,2.359551,0.000000,0.000000,5.044944,13.528090,4.685393,7.269663,12.269663,2.067416,0.000000,0.000000,1.831461,11.438202,14.853933,14.977528,8.348315,0.382022,0.000000,0.000000,0.449438,8.471910,13.471910,12.258427,11.370787,1.606742,0.000000,0.000000,0.876404,11.910112,6.123596,1.595506,11.662921,6.078652,0.000000,0.000000,0.696629,12.561798,7.651685,4.786517,13.022472,5.775281,0.000000,0.000000,0.011236,5.191011,13.550562,13.696629,8.977528,1.370787,0.000000,8
0.000000,0.025974,5.467532,12.610390,12.168831,6.584416,0.857143,0.000000,0.000000,1.337662,12.064935,12.623377,9.714286,12.662338,3.337662,0.000000,0.000000,1.675325,11.155844,10.285714,6.350649,11.961039,3.493506,0.000000,0.000000,0.532468,7.207792,14.766234,14.311688,9.831169,1.389610,0.000000,0.000000,0.701299,8.649351,15.012987,14.389610,3.181818,0.090909,0.000000,0.000000,2.402597,14.077922,7.428571,12.220779,8.311688,0.155844,0.000000,0.000000,2.454545,14.090909,7.337662,9.909091,12.311688,0.987013,0.000000,0.000000,0.155844,5.857143,13.233766,14.142857,7.324675,0.363636,0.000000,8
0.000000,0.197673,7.383713,13.825581,12.209314,4.523259,0.162791,0.000000,0.000000,3.383714,14.895350,8.406984,11.418611,12.755818,1.732559,0.000000,0.000000,5.476742,13.802323,2.174408,7.360468,14.813951,3.488370,0.000000,0.000000,1.860469,12.976744,13.744182,13.918604,15.197680,4.802328,0.000000,0.000000,0.000000,1.604656,4.476757,4.453503,13.046523,5.965116,0.000000,0.000000,0.174419,0.441862,0.093024,0.930228,12.732571,6.151163,0.000000,0.000000,1.069771,7.976752,6.790695,7.779055,13.872108,4.104645,0.000000,0.000000,0.209303,7.825573,13.755818,12.965135,7.488385,0.511629,0.000000,9
*****************************
0 => 100.00
0 => 100.00
0 => 100.00
0 => 100.00
0 => 100.00
0 => 100.00
0 => 100.00
1 => 99.06
2 => 100.00
2 => 100.00
2 => 100.00
3 => 98.10
4 => 100.00
4 => 100.00
4 => 98.82
5 => 100.00
5 => 98.29
6 => 98.37
6 => 98.52
7 => 98.82
7 => 100.00
7 => 98.63
7 => 98.82
7 => 98.44
8 => 98.88
8 => 100.00
9 => 98.84
*****************************