\relax 
\bibstyle{biblatex}
\bibdata{Bib-blx,Bib}
\citation{biblatex-control}
\citation{*}
\@writefile{toc}{\defcounter {refsection}{0}\relax }\@writefile{toc}{\contentsline {section}{\numberline {8}Bibliography}{2}}
\abx@aux@page{1}{2}
\abx@aux@page{2}{2}
\abx@aux@page{3}{2}
\abx@aux@page{4}{2}
\abx@aux@page{5}{2}
\abx@aux@page{6}{2}
\abx@aux@page{7}{2}
\abx@aux@page{8}{2}
\abx@aux@page{9}{2}
\abx@aux@page{10}{2}
\abx@aux@page{11}{2}
\abx@aux@page{12}{2}
