0.000000,0.029650,4.606469,13.229111,10.954178,2.619946,0.059299,0.000000,0.000000,1.183288,13.048518,13.070081,12.242588,10.735849,0.733154,0.000000,0.000000,3.911051,14.428571,4.592992,2.970350,12.733154,3.323450,0.000000,0.000000,5.264151,12.781671,1.584906,0.272237,9.175202,6.652291,0.000000,0.000000,5.452830,11.902965,0.865229,0.099730,8.641509,7.382749,0.000000,0.000000,3.347709,13.533693,1.671159,1.353100,11.377358,6.444744,0.000000,0.000000,0.773585,13.207547,10.514825,10.584906,13.471698,2.665768,0.000000,0.000000,0.018868,4.617251,13.614555,13.318059,5.536388,0.185984,0.000000,0
0.000000,0.000000,0.000000,0.111111,8.422222,13.866667,2.222222,0.000000,0.000000,0.066667,0.200000,2.088889,13.400000,15.733333,3.800000,0.000000,0.000000,0.911111,3.533333,10.600000,15.711111,15.111111,2.066667,0.000000,0.000000,4.288889,12.622222,13.755556,14.511111,14.511111,1.511111,0.000000,0.000000,2.822222,8.044444,4.511111,13.333333,14.155556,0.977778,0.000000,0.000000,0.355556,1.022222,0.822222,12.600000,14.511111,1.133333,0.000000,0.000000,0.044444,0.355556,0.488889,11.822222,14.933333,2.222222,0.000000,0.000000,0.044444,0.088889,0.066667,8.000000,15.044444,3.866667,0.000000,1
0.000000,1.140000,12.340000,14.860000,6.640000,0.300000,0.000000,0.000000,0.000000,6.280000,14.880000,10.260000,14.540000,3.380000,0.000000,0.000000,0.000000,5.380000,9.000000,1.380000,12.040000,7.420000,0.040000,0.000000,0.000000,1.300000,3.060000,0.600000,11.560000,8.140000,0.000000,0.000000,0.000000,0.000000,0.020000,1.640000,13.980000,4.720000,0.000000,0.000000,0.000000,0.000000,0.180000,7.600000,13.220000,1.800000,0.000000,0.000000,0.000000,0.520000,9.120000,15.420000,12.260000,7.460000,5.060000,0.360000,0.000000,1.000000,13.180000,15.260000,14.760000,14.940000,13.420000,2.060000,2
0.000000,0.434783,7.782609,14.021739,14.152174,4.956522,0.369565,0.000000,0.000000,3.500000,14.130435,10.934783,13.586957,10.869565,0.673913,0.000000,0.000000,1.804348,5.043478,1.043478,12.500000,9.543478,0.391304,0.000000,0.000000,0.108696,0.391304,5.217391,14.891304,3.934783,0.021739,0.000000,0.000000,0.000000,2.130435,13.500000,9.608696,0.065217,0.000000,0.000000,0.000000,0.913043,10.521739,13.434783,1.630435,0.152174,0.065217,0.000000,0.108696,3.000000,14.282609,12.369565,7.608696,7.195652,3.782609,0.195652,0.021739,0.717391,8.652174,14.173913,14.608696,12.586957,5.760870,0.369565,2
0.000000,1.860000,13.260000,11.640000,1.260000,0.000000,0.000000,0.000000,0.000000,7.460000,15.140000,15.300000,5.260000,0.000000,0.000000,0.000000,0.000000,7.060000,7.440000,11.940000,7.320000,0.000000,0.000000,0.000000,0.000000,1.980000,3.120000,12.300000,6.180000,0.000000,0.000000,0.000000,0.000000,0.080000,4.100000,13.640000,2.920000,0.060000,0.020000,0.000000,0.000000,0.900000,9.160000,11.520000,1.360000,0.680000,0.560000,0.000000,0.000000,3.520000,14.660000,14.580000,13.260000,13.020000,7.520000,0.080000,0.000000,1.940000,13.120000,14.280000,13.280000,12.000000,7.560000,0.180000,2
0.000000,1.461538,12.641026,14.166667,4.282051,0.025641,0.000000,0.000000,0.000000,6.141026,15.000000,12.961538,12.141026,0.794872,0.000000,0.000000,0.000000,5.089744,8.692308,4.192308,14.012821,1.756410,0.000000,0.000000,0.000000,1.128205,1.846154,3.461538,14.589744,1.474359,0.000000,0.000000,0.000000,0.115385,0.166667,8.641026,11.884615,0.230769,0.000000,0.000000,0.000000,0.025641,2.743590,14.320513,7.256410,0.256410,0.230769,0.000000,0.000000,1.371795,12.961538,15.794872,12.782051,11.346154,7.525641,0.217949,0.000000,1.589744,12.141026,13.576923,13.076923,13.371795,10.961538,1.128205,2
0.000000,0.111111,7.755556,14.200000,6.866667,0.155556,0.000000,0.000000,0.000000,2.844444,14.933333,14.022222,14.000000,2.044444,0.000000,0.000000,0.000000,4.311111,11.022222,2.866667,12.822222,4.244444,0.000000,0.000000,0.000000,1.822222,3.733333,1.333333,13.444444,4.244444,0.000000,0.000000,0.000000,0.244444,0.511111,3.444444,14.488889,2.466667,0.000000,0.000000,0.000000,0.022222,1.155556,10.711111,12.777778,2.488889,1.044444,0.000000,0.000000,0.222222,9.533333,15.911111,15.222222,14.533333,11.822222,0.911111,0.000000,0.044444,8.022222,12.622222,9.622222,8.644444,9.022222,1.888889,2
0.000000,1.085106,10.936170,15.085106,8.893617,0.127660,0.000000,0.000000,0.000000,5.191489,14.638298,13.000000,14.936170,1.446809,0.000000,0.000000,0.000000,4.191489,6.468085,5.382979,14.957447,1.382979,0.000000,0.000000,0.000000,0.851064,1.638298,9.765957,11.744681,0.170213,0.000000,0.000000,0.000000,0.085106,2.531915,14.659574,5.723404,0.000000,0.000000,0.000000,0.000000,0.127660,9.531915,13.170213,0.978723,0.425532,0.212766,0.000000,0.000000,2.319149,14.212766,13.510638,10.510638,10.936170,4.978723,0.063830,0.000000,1.042553,11.234043,15.127660,14.382979,11.914894,5.085106,0.297872,2
0.000000,1.160000,9.680000,14.450000,11.970000,3.420000,0.020000,0.000000,0.000000,4.610000,13.440000,9.900000,14.680000,8.250000,0.190000,0.000000,0.000000,1.410000,2.590000,5.360000,14.160000,5.450000,0.050000,0.000000,0.000000,0.160000,4.120000,13.620000,13.980000,4.580000,0.060000,0.000000,0.000000,0.080000,3.030000,8.990000,12.970000,13.230000,2.630000,0.000000,0.000000,0.050000,0.350000,0.320000,3.220000,14.530000,6.370000,0.000000,0.000000,1.050000,8.390000,8.240000,11.170000,14.730000,3.730000,0.000000,0.000000,0.970000,11.220000,14.220000,11.040000,4.390000,0.190000,0.000000,3
0.000000,0.721739,7.817391,13.113043,14.556522,9.391304,1.530435,0.069565,0.000000,3.330435,12.460870,8.730435,8.878261,14.634783,3.860870,0.052174,0.000000,1.339130,2.643478,1.373913,9.495652,12.965217,1.582609,0.000000,0.000000,0.078261,0.904348,8.817391,14.686957,6.130435,0.165217,0.000000,0.000000,0.034783,1.156522,7.104348,13.652174,10.530435,1.365217,0.000000,0.000000,0.017391,0.408696,0.521739,5.530435,13.965217,4.417391,0.000000,0.000000,0.634783,5.165217,5.991304,9.304348,13.965217,3.339130,0.000000,0.000000,0.713043,8.973913,14.339130,12.008696,5.373913,0.321739,0.000000,3
0.000000,0.000000,0.000000,1.709677,12.983871,6.112903,0.048387,0.000000,0.000000,0.000000,0.000000,5.935484,14.903226,3.000000,0.000000,0.000000,0.000000,0.000000,0.725806,12.516129,10.048387,2.080645,1.709677,0.032258,0.000000,0.064516,7.419355,13.661290,3.112903,8.403226,4.645161,0.000000,0.000000,3.725806,14.564516,7.758065,5.709677,14.274194,4.338710,0.000000,0.790323,11.596774,15.500000,12.983871,14.532258,15.209677,2.806452,0.000000,0.645161,6.870968,9.500000,10.145161,14.903226,12.467742,1.177419,0.000000,0.000000,0.193548,0.338710,2.258065,13.951613,6.532258,0.016129,0.000000,4
0.000000,0.000000,0.000000,2.616438,13.835616,4.027397,0.260274,0.041096,0.000000,0.000000,0.520548,11.438356,12.424658,1.328767,2.136986,0.479452,0.000000,0.068493,7.013699,14.726027,2.986301,4.726027,7.301370,0.438356,0.000000,3.260274,14.643836,8.123288,2.219178,12.534247,8.095890,0.000000,0.013699,9.246575,15.589041,13.041096,13.479452,15.904110,6.301370,0.000000,0.082192,4.835616,9.424658,10.027397,14.383562,13.821918,1.958904,0.000000,0.013699,0.095890,0.191781,1.712329,14.561644,7.945205,0.095890,0.000000,0.000000,0.000000,0.000000,3.191781,14.260274,3.821918,0.000000,0.000000,4
0.000000,0.000000,0.040000,5.140000,12.920000,1.500000,0.000000,0.000000,0.000000,0.000000,0.900000,13.060000,9.800000,0.160000,0.120000,0.200000,0.000000,0.100000,6.980000,14.080000,2.280000,1.320000,2.680000,0.360000,0.000000,2.420000,14.080000,6.960000,0.860000,9.060000,6.200000,0.040000,0.020000,8.580000,14.540000,2.620000,7.060000,14.180000,3.300000,0.000000,0.720000,12.300000,15.700000,14.300000,15.700000,13.240000,1.140000,0.000000,0.440000,4.500000,7.800000,9.700000,15.660000,6.240000,0.160000,0.000000,0.000000,0.060000,0.280000,6.040000,13.080000,1.720000,0.000000,0.000000,4
0.000000,0.000000,0.063830,8.255319,12.659574,0.489362,0.085106,0.000000,0.000000,0.000000,3.595745,15.276596,6.808511,1.234043,2.297872,0.148936,0.000000,0.595745,12.382979,11.170213,0.744681,6.021277,6.000000,0.382979,0.000000,5.787234,15.510638,3.723404,2.914894,12.744681,7.553191,0.148936,0.063830,9.361702,15.212766,10.914894,13.212766,15.404255,5.553191,0.000000,0.276596,4.914894,10.936170,12.510638,15.702128,10.680851,0.680851,0.000000,0.000000,0.191489,0.446809,5.936170,15.148936,2.765957,0.000000,0.000000,0.000000,0.000000,0.000000,9.531915,12.021277,0.446809,0.000000,0.000000,4
0.000000,0.512195,8.243902,13.804878,14.609756,12.731707,4.560976,0.121951,0.000000,2.585366,14.439024,10.731707,7.390244,6.243902,1.853659,0.000000,0.000000,5.219512,15.243902,10.268293,8.170732,2.439024,0.048780,0.000000,0.000000,4.829268,13.975610,12.780488,13.682927,12.853659,1.463415,0.000000,0.000000,0.634146,1.707317,0.463415,2.121951,13.414634,4.756098,0.000000,0.000000,0.292683,0.951220,0.268293,1.756098,12.878049,4.804878,0.000000,0.000000,1.000000,8.682927,7.170732,10.756098,12.487805,1.463415,0.000000,0.000000,0.195122,8.975610,14.048780,11.048780,3.048780,0.048780,0.000000,5
0.000000,0.525000,8.212500,13.187500,14.325000,11.712500,2.975000,0.000000,0.000000,4.112500,14.737500,14.387500,11.425000,9.437500,2.262500,0.012500,0.012500,5.900000,13.675000,6.112500,0.537500,0.137500,0.062500,0.000000,0.000000,5.050000,12.812500,11.337500,3.350000,0.000000,0.000000,0.000000,0.000000,1.325000,6.637500,12.287500,10.712500,0.812500,0.000000,0.000000,0.000000,0.050000,0.550000,5.900000,14.200000,3.487500,0.000000,0.000000,0.000000,0.400000,5.887500,10.987500,14.137500,3.212500,0.025000,0.000000,0.000000,0.350000,9.425000,14.512500,8.050000,0.987500,0.000000,0.000000,5
0.000000,0.475000,8.375000,13.125000,13.850000,12.150000,4.000000,0.162500,0.000000,2.087500,14.350000,13.200000,9.675000,8.500000,2.750000,0.025000,0.000000,3.700000,14.675000,7.425000,1.687500,0.212500,0.037500,0.000000,0.000000,5.062500,14.625000,15.412500,13.362500,3.350000,0.025000,0.000000,0.000000,1.650000,6.400000,5.975000,12.487500,10.725000,0.675000,0.000000,0.000000,0.062500,0.312500,0.187500,7.100000,13.150000,0.975000,0.000000,0.000000,0.725000,6.312500,7.937500,14.162500,9.825000,0.212500,0.000000,0.000000,0.462500,9.587500,14.725000,10.250000,1.650000,0.000000,0.000000,5
0.000000,0.278689,6.704918,12.426230,14.016393,10.704918,2.885246,0.032787,0.016393,2.803279,13.672131,12.950820,9.639344,8.213115,1.934426,0.000000,0.016393,3.737705,14.065574,3.852459,0.213115,0.131148,0.016393,0.000000,0.000000,4.426230,14.770492,9.836066,4.786885,0.360656,0.000000,0.000000,0.000000,2.196721,11.032787,13.114754,14.573770,7.032787,0.311475,0.000000,0.000000,0.131148,1.032787,1.295082,7.836066,12.852459,1.721311,0.000000,0.000000,0.459016,5.032787,6.032787,10.655738,12.786885,1.704918,0.000000,0.000000,0.114754,6.934426,14.344262,13.147541,5.114754,0.147541,0.000000,5
0.000000,0.000000,0.257143,9.542857,13.328571,2.700000,0.000000,0.000000,0.000000,0.000000,6.171429,15.514286,10.085714,1.742857,0.000000,0.000000,0.000000,0.314286,12.457143,11.914286,0.900000,0.000000,0.000000,0.000000,0.000000,1.742857,14.442857,6.985714,0.514286,0.028571,0.000000,0.000000,0.000000,3.028571,14.985714,10.042857,8.442857,3.771429,0.171429,0.000000,0.000000,1.671429,14.614286,13.171429,11.714286,13.542857,3.871429,0.000000,0.000000,0.171429,9.014286,14.457143,9.085714,13.914286,9.014286,0.228571,0.000000,0.000000,0.428571,8.514286,14.342857,13.328571,5.214286,0.228571,6
0.000000,0.000000,0.120482,8.819277,11.108434,1.325301,0.000000,0.000000,0.000000,0.012048,3.674699,15.337349,9.927711,1.192771,0.000000,0.000000,0.000000,0.096386,9.144578,13.554217,1.698795,0.000000,0.000000,0.000000,0.000000,0.349398,12.120482,11.036145,2.566265,0.807229,0.024096,0.000000,0.000000,0.903614,14.024096,14.060241,13.108434,11.036145,2.650602,0.000000,0.000000,0.542169,13.518072,13.024096,7.228916,9.638554,11.963855,0.566265,0.000000,0.036145,7.180723,14.120482,5.325301,8.289157,14.469880,2.000000,0.000000,0.000000,0.361446,7.831325,14.313253,14.590361,8.819277,0.578313,6
0.000000,1.278481,11.936709,15.025316,14.645570,9.556962,1.531646,0.000000,0.000000,1.227848,9.278481,9.177215,13.126582,11.835443,1.620253,0.000000,0.000000,0.227848,0.544304,1.556962,12.835443,8.784810,0.518987,0.000000,0.000000,1.113924,5.962025,10.240506,15.405063,9.253165,3.202532,0.000000,0.000000,3.215190,12.632911,15.759494,15.000000,13.215190,6.075949,0.000000,0.000000,0.721519,5.962025,14.772152,6.164557,3.556962,1.189873,0.000000,0.000000,0.468354,10.139241,12.037975,0.493671,0.050633,0.012658,0.000000,0.000000,1.481013,13.189873,6.683544,0.037975,0.000000,0.000000,0.000000,7
0.000000,0.021978,5.296703,13.527473,14.725275,10.054945,1.384615,0.000000,0.000000,1.010989,11.000000,12.087912,13.318681,13.824176,2.318681,0.000000,0.000000,0.615385,2.109890,0.923077,9.043956,13.274725,1.538462,0.000000,0.000000,0.054945,1.824176,5.516484,13.571429,11.857143,3.164835,0.000000,0.000000,1.208791,9.197802,14.758242,15.791209,13.879121,5.901099,0.000000,0.000000,1.296703,5.956044,13.285714,13.131868,6.362637,1.406593,0.000000,0.000000,0.043956,2.538462,14.912088,6.714286,0.175824,0.000000,0.000000,0.000000,0.000000,6.582418,13.626374,1.758242,0.000000,0.000000,0.000000,7
0.000000,0.009804,4.784314,12.892157,13.852941,13.941176,9.941176,1.696078,0.000000,0.147059,6.617647,9.676471,8.696078,13.431373,12.470588,1.039216,0.000000,0.029412,1.186275,0.549020,1.901961,13.803922,6.941176,0.078431,0.000000,0.333333,2.990196,5.696078,10.696078,14.607843,3.637255,0.000000,0.000000,1.352941,8.078431,13.411765,15.813725,13.500000,4.539216,0.000000,0.000000,0.803922,2.196078,10.029412,12.803922,2.421569,0.352941,0.000000,0.000000,0.029412,1.960784,14.725490,5.764706,0.000000,0.000000,0.000000,0.000000,0.000000,5.833333,13.215686,1.245098,0.000000,0.000000,0.000000,7
0.000000,0.045455,4.263636,12.145455,12.645455,6.336364,0.490909,0.000000,0.000000,2.254545,13.872727,10.200000,9.672727,12.436364,2.827273,0.000000,0.000000,5.118182,13.518182,3.627273,5.700000,12.700000,2.736364,0.000000,0.000000,1.736364,11.481818,13.409091,14.527273,9.454545,0.827273,0.000000,0.000000,0.054545,5.590909,14.681818,14.554545,8.300000,0.618182,0.000000,0.000000,0.463636,10.027273,9.518182,5.745455,12.881818,3.445455,0.000000,0.000000,0.581818,11.490909,9.309091,5.409091,13.354545,5.181818,0.000000,0.000000,0.027273,4.345455,12.990909,14.109091,9.609091,1.690909,0.036364,8
0.000000,0.247788,7.707965,13.920354,10.920354,2.946903,0.088496,0.000000,0.000000,3.610619,15.035398,9.256637,12.619469,10.840708,0.929204,0.000000,0.000000,5.575221,14.061947,3.929204,10.088496,14.557522,2.212389,0.000000,0.000000,1.681416,12.097345,13.469027,13.663717,14.982301,3.973451,0.000000,0.000000,0.008850,1.247788,3.893805,4.185841,13.433628,5.628319,0.000000,0.000000,0.088496,0.318584,0.079646,0.725664,12.530973,6.831858,0.000000,0.000000,0.849558,7.389381,6.318584,7.336283,14.026549,5.194690,0.000000,0.000000,0.221239,7.982301,13.991150,13.398230,8.407080,0.911504,0.000000,9
*****************************
0 => 100.00
1 => 100.00
2 => 100.00
2 => 100.00
2 => 100.00
2 => 100.00
2 => 100.00
2 => 100.00
3 => 100.00
3 => 99.13
4 => 100.00
4 => 98.63
4 => 100.00
4 => 100.00
5 => 100.00
5 => 100.00
5 => 98.75
5 => 98.36
6 => 98.57
6 => 98.80
7 => 100.00
7 => 98.90
7 => 99.02
8 => 99.09
9 => 98.23
*****************************