0.000000,0.013699,5.287671,14.205479,12.219178,3.561644,0.054795,0.000000,0.000000,1.657534,14.397260,10.273973,9.767123,12.068493,1.136986,0.000000,0.000000,5.657534,13.890411,2.178082,1.369863,11.671233,4.602740,0.000000,0.000000,6.698630,11.219178,0.479452,0.041096,7.150685,8.246575,0.000000,0.000000,6.794521,10.630137,0.232877,0.054795,5.794521,9.095890,0.000000,0.000000,4.589041,12.849315,0.397260,0.000000,7.589041,8.698630,0.000000,0.000000,1.068493,14.273973,7.054795,5.410959,13.767123,4.342466,0.000000,0.000000,0.000000,5.424658,14.465753,15.123288,8.410959,0.260274,0.000000,0
0.000000,0.034783,5.400000,12.947826,11.956522,4.182609,0.156522,0.000000,0.000000,0.939130,13.547826,13.356522,12.313043,12.843478,1.382609,0.000000,0.000000,3.400000,14.747826,3.678261,1.878261,12.365217,4.547826,0.000000,0.000000,5.234783,12.913043,0.843478,0.069565,9.391304,6.739130,0.000000,0.000000,5.469565,11.747826,0.408696,0.130435,10.834783,6.139130,0.000000,0.000000,3.800000,13.226087,1.443478,3.104348,14.469565,3.391304,0.000000,0.000000,0.930435,14.026087,11.617391,14.139130,11.113043,0.217391,0.000000,0.000000,0.000000,5.478261,13.713043,11.043478,1.756522,0.000000,0.000000,0
0.000000,0.024390,2.304878,12.682927,12.256098,1.890244,0.000000,0.000000,0.000000,0.975610,11.280488,13.402439,11.585366,10.719512,0.207317,0.000000,0.000000,3.707317,14.439024,4.219512,1.085366,12.524390,2.390244,0.000000,0.000000,5.000000,13.036585,1.304878,0.000000,7.646341,6.487805,0.000000,0.000000,5.109756,11.914634,0.426829,0.036585,6.646341,7.914634,0.000000,0.000000,1.756098,13.975610,1.987805,0.341463,9.609756,7.963415,0.000000,0.000000,0.121951,11.109756,11.195122,9.353659,14.914634,3.890244,0.000000,0.000000,0.000000,2.219512,12.353659,14.512195,7.743902,0.390244,0.000000,0
0.000000,0.061538,6.415385,13.630769,5.892308,0.123077,0.000000,0.000000,0.000000,1.738462,13.923077,13.907692,14.523077,6.107692,0.030769,0.000000,0.000000,4.061538,14.600000,6.107692,8.676923,14.261538,1.538462,0.000000,0.000000,5.338462,12.861538,1.230769,1.200000,11.969231,5.661538,0.000000,0.000000,5.861538,11.769231,0.138462,0.153846,9.415385,7.369231,0.000000,0.000000,4.292308,13.630769,0.861538,0.953846,11.153846,7.692308,0.000000,0.000000,1.246154,14.461538,10.076923,10.584615,14.969231,3.723077,0.000000,0.000000,0.107692,6.323077,14.446154,13.446154,6.123077,0.184615,0.000000,0
0.000000,0.000000,3.333333,14.083333,8.000000,0.166667,0.000000,0.000000,0.000000,0.000000,5.583333,15.916667,8.666667,0.083333,0.000000,0.000000,0.000000,0.333333,10.583333,16.000000,8.916667,0.000000,0.000000,0.000000,0.000000,5.416667,14.166667,15.333333,11.000000,0.166667,0.000000,0.000000,0.000000,4.750000,7.666667,10.666667,14.166667,1.250000,0.000000,0.000000,0.000000,0.083333,0.500000,5.833333,14.833333,5.333333,0.000000,0.000000,0.000000,0.000000,1.333333,7.833333,15.083333,12.833333,3.416667,0.333333,0.000000,0.000000,3.250000,14.583333,16.000000,15.583333,10.083333,1.500000,1
0.000000,0.000000,0.000000,1.446809,11.276596,12.276596,1.595745,0.000000,0.000000,0.127660,1.148936,7.255319,15.000000,15.148936,2.851064,0.000000,0.000000,2.531915,9.212766,14.021277,15.765957,14.191489,1.723404,0.000000,0.000000,5.659574,12.680851,11.361702,14.829787,13.468085,1.382979,0.000000,0.000000,0.914894,2.978723,2.957447,14.574468,13.340426,1.000000,0.000000,0.000000,0.000000,0.000000,2.148936,14.212766,13.531915,1.127660,0.000000,0.000000,0.000000,0.000000,2.276596,13.893617,14.382979,2.553191,0.000000,0.000000,0.000000,0.000000,1.276596,11.340426,13.978723,3.553191,0.000000,1
0.000000,0.000000,6.625000,13.875000,2.125000,0.000000,0.000000,0.000000,0.000000,0.000000,4.250000,15.750000,7.750000,0.000000,0.000000,0.000000,0.000000,1.000000,8.500000,15.875000,11.125000,0.250000,0.000000,0.000000,0.000000,0.000000,7.250000,14.625000,13.500000,1.250000,0.000000,0.000000,0.000000,0.000000,1.125000,6.875000,15.250000,3.500000,0.000000,0.000000,0.000000,0.000000,0.000000,1.875000,14.250000,8.125000,0.375000,0.000000,0.000000,0.000000,6.500000,12.625000,15.250000,14.500000,10.000000,5.250000,0.000000,0.000000,4.500000,14.375000,15.125000,15.125000,15.125000,13.250000,1
0.000000,1.702703,12.608108,12.824324,3.743243,0.027027,0.000000,0.000000,0.000000,6.878378,14.756757,14.513514,8.743243,0.391892,0.000000,0.000000,0.000000,5.837838,6.324324,9.891892,9.986486,0.256757,0.000000,0.000000,0.000000,1.378378,2.175676,12.000000,7.716216,0.013514,0.000000,0.000000,0.000000,0.054054,4.054054,14.364865,3.121622,0.040541,0.013514,0.000000,0.000000,0.675676,10.256757,11.554054,0.635135,0.608108,0.472973,0.000000,0.000000,3.445946,14.864865,13.891892,12.270270,12.527027,6.837838,0.054054,0.000000,1.743243,12.581081,14.689189,13.878378,12.000000,6.635135,0.216216,2
0.000000,1.288288,11.756757,14.468468,5.576577,0.063063,0.000000,0.000000,0.000000,5.837838,14.972973,12.945946,13.000000,1.063063,0.000000,0.000000,0.000000,5.297297,8.666667,3.783784,14.324324,2.036036,0.000000,0.000000,0.000000,1.252252,1.990991,3.756757,14.504505,1.495495,0.000000,0.000000,0.000000,0.072072,0.198198,9.135135,11.558559,0.207207,0.000000,0.000000,0.000000,0.036036,3.315315,14.396396,6.702703,0.549550,0.387387,0.000000,0.000000,1.279279,12.720721,15.630631,12.684685,11.621622,7.306306,0.225225,0.000000,1.369369,11.504505,13.630631,12.945946,12.720721,9.810811,0.918919,2
0.000000,0.600000,10.213333,14.626667,6.800000,0.226667,0.000000,0.000000,0.000000,4.506667,14.920000,11.720000,14.466667,2.946667,0.000000,0.000000,0.000000,4.480000,9.973333,1.853333,12.066667,6.506667,0.026667,0.000000,0.000000,1.506667,3.466667,0.666667,11.933333,7.053333,0.000000,0.000000,0.000000,0.146667,0.213333,1.480000,14.373333,4.346667,0.000000,0.000000,0.000000,0.000000,0.280000,8.013333,13.706667,2.013333,0.293333,0.000000,0.000000,0.240000,8.746667,15.613333,13.360000,10.066667,8.013333,0.640000,0.000000,0.466667,11.133333,14.466667,12.906667,12.613333,12.213333,2.306667,2
0.000000,1.168317,9.811881,14.544554,11.504950,3.138614,0.019802,0.000000,0.000000,4.564356,13.495050,10.029703,14.554455,7.762376,0.188119,0.000000,0.000000,1.524752,2.871287,5.059406,14.128713,5.336634,0.049505,0.000000,0.000000,0.099010,3.514851,13.316832,14.613861,5.009901,0.059406,0.000000,0.000000,0.049505,2.762376,8.792079,12.811881,14.257426,2.990099,0.000000,0.000000,0.099010,0.415842,0.346535,2.168317,14.376238,7.217822,0.000000,0.000000,1.198020,8.990099,8.267327,10.851485,14.841584,4.207921,0.000000,0.000000,0.960396,11.138614,14.247525,11.247525,4.495050,0.128713,0.000000,3
0.000000,0.477477,9.018018,14.486486,13.387387,4.081081,0.045045,0.000000,0.000000,4.495495,13.387387,9.036036,11.855856,11.000000,0.621622,0.000000,0.000000,2.207207,3.783784,2.162162,11.297297,10.153153,0.441441,0.000000,0.000000,0.090090,1.135135,9.108108,15.387387,8.378378,0.333333,0.000000,0.000000,0.000000,0.846847,5.612613,10.594595,14.297297,4.279279,0.000000,0.000000,0.063063,0.684685,0.198198,0.576577,10.135135,10.477477,0.027027,0.000000,1.144144,9.594595,5.765766,4.972973,13.045045,10.117117,0.072072,0.000000,0.414414,9.126126,14.801802,15.198198,11.819820,2.522523,0.018018,3
0.000000,0.000000,0.000000,2.256757,13.081081,5.202703,0.040541,0.000000,0.000000,0.000000,0.054054,7.027027,14.391892,2.608108,0.013514,0.027027,0.000000,0.000000,1.081081,13.162162,9.229730,2.027027,1.594595,0.135135,0.000000,0.121622,8.148649,13.405405,3.000000,7.864865,4.418919,0.013514,0.000000,3.891892,14.824324,7.216216,6.216216,13.891892,4.432432,0.000000,0.797297,11.675676,15.513514,12.986486,14.702703,14.891892,2.783784,0.000000,0.689189,6.716216,9.594595,10.297297,15.054054,11.959459,1.040541,0.000000,0.000000,0.189189,0.337838,2.891892,14.121622,5.851351,0.013514,0.000000,4
0.000000,0.376344,7.247312,12.881720,14.258065,11.440860,2.967742,0.021505,0.000000,3.709677,14.354839,14.021505,11.086022,9.290323,2.333333,0.010753,0.021505,6.075269,13.978495,4.881720,0.473118,0.139785,0.021505,0.000000,0.000000,5.698925,14.172043,10.344086,3.720430,0.021505,0.000000,0.000000,0.000000,1.924731,9.064516,12.645161,12.505376,2.053763,0.021505,0.000000,0.000000,0.086022,0.666667,3.806452,13.526882,6.698925,0.301075,0.000000,0.000000,0.301075,4.774194,9.000000,13.881720,6.559140,0.376344,0.000000,0.000000,0.215054,8.096774,14.419355,10.064516,2.290323,0.032258,0.000000,5
0.000000,0.505051,8.565657,13.020202,13.909091,11.777778,3.353535,0.000000,0.010101,2.787879,14.606061,12.646465,8.969697,8.111111,2.161616,0.000000,0.000000,3.777778,14.747475,5.808081,0.949495,0.070707,0.030303,0.000000,0.000000,4.868687,14.959596,14.515152,11.323232,2.212121,0.000000,0.000000,0.000000,1.565657,7.070707,7.363636,13.202020,9.959596,0.444444,0.000000,0.000000,0.060606,0.313131,0.151515,6.525253,13.202020,1.242424,0.000000,0.000000,0.656566,6.393939,7.090909,12.919192,10.858586,0.767677,0.000000,0.000000,0.434343,9.666667,14.585859,11.131313,2.797980,0.040404,0.000000,5
0.000000,0.000000,0.211009,9.018349,12.082569,1.825688,0.000000,0.000000,0.000000,0.009174,4.366972,15.422018,10.403670,1.486239,0.000000,0.000000,0.000000,0.082569,10.128440,13.633028,1.623853,0.000000,0.000000,0.000000,0.000000,0.788991,12.834862,9.321101,0.385321,0.000000,0.000000,0.000000,0.000000,1.522936,14.183486,11.082569,9.027523,5.348624,0.669725,0.000000,0.000000,0.990826,13.972477,14.348624,12.201835,13.266055,7.339450,0.238532,0.000000,0.036697,8.183486,14.697248,7.917431,11.146789,12.082569,1.311927,0.000000,0.000000,0.348624,8.119266,14.339450,14.247706,7.788991,0.504587,6
0.000000,0.052632,6.631579,11.666667,2.192982,0.052632,0.000000,0.000000,0.000000,1.052632,13.631579,8.491228,0.754386,0.070175,0.000000,0.000000,0.000000,3.385965,14.701754,1.982456,0.052632,0.105263,0.017544,0.000000,0.000000,5.000000,14.105263,3.929825,4.964912,2.473684,0.157895,0.000000,0.000000,6.543860,14.280702,12.210526,13.614035,12.789474,3.245614,0.000000,0.000000,4.157895,15.578947,8.789474,3.614035,9.122807,10.543860,0.035088,0.000000,1.298246,14.280702,9.807018,4.982456,11.456140,10.175439,0.210526,0.000000,0.105263,5.894737,14.070175,14.561404,10.543860,2.947368,0.035088,6
0.000000,0.058824,6.823529,13.911765,14.264706,6.323529,0.029412,0.000000,0.000000,0.941176,11.764706,11.882353,14.323529,9.882353,0.176471,0.000000,0.000000,0.529412,2.323529,2.970588,13.264706,9.441176,1.352941,0.000000,0.000000,0.058824,4.323529,11.323529,15.794118,13.235294,7.500000,0.000000,0.000000,0.823529,8.411765,15.176471,15.058824,10.911765,4.529412,0.000000,0.000000,0.500000,2.647059,13.411765,9.147059,1.470588,0.323529,0.000000,0.000000,0.000000,4.117647,14.970588,4.029412,0.000000,0.000000,0.000000,0.000000,0.029412,7.794118,11.970588,0.676471,0.000000,0.000000,0.000000,7
0.000000,0.027027,5.202703,13.513514,14.391892,10.932432,2.216216,0.067568,0.000000,0.837838,10.459459,11.972973,12.864865,14.797297,3.324324,0.013514,0.000000,0.418919,1.540541,0.405405,7.797297,13.662162,1.689189,0.000000,0.000000,0.027027,1.175676,3.527027,12.554054,11.324324,1.635135,0.000000,0.000000,1.648649,10.121622,14.837838,15.837838,14.675676,6.243243,0.000000,0.000000,1.770270,7.310811,13.729730,13.513514,7.445946,1.675676,0.000000,0.000000,0.054054,2.594595,14.932432,6.756757,0.162162,0.000000,0.000000,0.000000,0.000000,6.527027,13.878378,1.783784,0.000000,0.000000,0.000000,7
0.000000,0.200000,8.753846,14.307692,15.092308,14.815385,7.415385,0.415385,0.000000,0.723077,8.015385,9.369231,9.600000,15.292308,7.692308,0.123077,0.000000,0.276923,0.507692,0.430769,6.446154,14.661538,2.492308,0.000000,0.000000,0.630769,7.138462,11.692308,14.938462,14.061538,5.476923,0.000000,0.000000,1.123077,10.430769,14.692308,15.076923,11.307692,4.661538,0.000000,0.000000,0.123077,1.507692,14.000000,7.830769,1.415385,0.415385,0.000000,0.000000,0.000000,6.461538,14.800000,1.876923,0.000000,0.000000,0.000000,0.000000,0.107692,11.046154,9.984615,0.353846,0.000000,0.000000,0.000000,7
0.000000,0.057143,3.285714,11.400000,12.857143,5.971429,0.385714,0.000000,0.000000,2.585714,13.585714,10.600000,8.942857,11.871429,2.300000,0.000000,0.000000,5.900000,13.028571,3.014286,4.900000,12.985714,2.785714,0.000000,0.000000,2.400000,12.100000,11.328571,13.600000,9.614286,0.914286,0.000000,0.000000,0.014286,4.342857,14.585714,15.014286,6.157143,0.271429,0.000000,0.000000,0.100000,6.757143,12.742857,9.371429,11.742857,2.100000,0.000000,0.000000,0.142857,9.171429,11.171429,6.314286,13.257143,4.514286,0.000000,0.000000,0.014286,3.400000,12.571429,13.628571,9.228571,1.928571,0.071429,8
0.000000,0.064935,4.922078,12.467532,13.272727,6.402597,0.220779,0.000000,0.000000,2.532468,13.636364,7.675325,6.714286,12.064935,1.792208,0.000000,0.012987,3.740260,12.350649,3.571429,8.987013,10.441558,1.467532,0.000000,0.000000,1.506494,10.584416,12.532468,12.493506,3.259740,0.337662,0.000000,0.000000,0.311688,8.311688,14.935065,9.337662,0.337662,0.025974,0.000000,0.000000,1.038961,11.350649,8.233766,11.506494,3.870130,0.012987,0.000000,0.000000,0.857143,12.077922,5.740260,9.259740,8.571429,0.441558,0.000000,0.000000,0.025974,4.896104,13.415584,13.467532,5.948052,0.194805,0.000000,8
0.000000,0.055556,5.722222,12.888889,12.013889,6.722222,1.041667,0.000000,0.000000,1.333333,12.361111,13.055556,10.041667,12.458333,3.458333,0.000000,0.000000,1.777778,11.458333,10.180556,6.444444,12.027778,3.486111,0.000000,0.000000,0.569444,7.388889,14.847222,14.472222,10.000000,1.430556,0.000000,0.000000,0.611111,8.888889,15.250000,14.652778,3.263889,0.097222,0.000000,0.000000,2.444444,14.458333,7.319444,12.250000,8.722222,0.166667,0.000000,0.000000,2.555556,14.458333,7.208333,9.750000,12.777778,1.152778,0.000000,0.000000,0.152778,6.152778,13.388889,14.125000,7.527778,0.430556,0.000000,8
0.000000,0.239130,5.913043,13.565217,12.152174,4.369565,0.413043,0.000000,0.000000,3.804348,14.847826,10.913043,11.478261,12.586957,2.369565,0.000000,0.000000,5.413043,14.304348,8.608696,12.260870,15.260870,4.369565,0.021739,0.000000,1.913043,10.456522,12.413043,12.478261,14.673913,4.673913,0.000000,0.000000,0.021739,1.000000,1.782609,5.478261,13.239130,3.804348,0.000000,0.000000,0.108696,0.065217,1.652174,8.913043,11.760870,2.021739,0.000000,0.000000,0.173913,2.804348,10.652174,13.695652,6.500000,0.195652,0.000000,0.000000,0.152174,7.086957,13.217391,5.434783,0.326087,0.000000,0.000000,9
0.000000,0.164179,7.328358,14.082090,11.380597,3.082090,0.059701,0.000000,0.000000,3.089552,14.805970,8.873134,11.626866,11.201493,1.044776,0.000000,0.000000,5.947761,13.343284,1.567164,7.059701,14.574627,2.641791,0.000000,0.000000,2.992537,13.865672,10.671642,12.447761,15.514925,4.216418,0.000000,0.000000,0.149254,4.164179,8.410448,8.082090,13.858209,6.007463,0.000000,0.000000,0.082090,0.291045,0.156716,0.544776,11.492537,7.746269,0.000000,0.000000,0.664179,6.410448,5.664179,5.358209,13.358209,6.649254,0.014925,0.000000,0.119403,7.320896,14.201493,14.291045,10.373134,1.791045,0.000000,9
*****************************
0 => 100.00
0 => 100.00
0 => 100.00
0 => 100.00
1 => 100.00
1 => 100.00
1 => 100.00
2 => 100.00
2 => 100.00
2 => 100.00
3 => 100.00
3 => 99.10
4 => 100.00
5 => 100.00
5 => 100.00
6 => 99.08
6 => 100.00
7 => 100.00
7 => 100.00
7 => 100.00
8 => 100.00
8 => 100.00
8 => 100.00
9 => 100.00
9 => 99.25
*****************************