0.000000,0.033329,3.766436,13.439857,12.279836,2.706402,0.026663,0.000000,0.000000,1.386574,12.853264,11.820546,10.620611,11.386531,0.666580,0.000000,0.000000,4.699864,14.080164,3.187643,1.166815,12.067047,3.439856,0.000000,0.000000,5.819806,12.120420,0.981003,0.019998,7.293598,7.346665,0.000000,0.000000,5.873133,11.287237,0.420770,0.046661,6.153573,8.513267,0.000000,0.000000,3.093103,13.373631,1.253692,0.153313,8.566724,8.373546,0.000000,0.000000,0.580011,12.599747,9.100553,7.340302,14.326841,4.166777,0.000000,0.000000,0.000000,3.733106,13.393195,14.833442,8.173530,0.340043,0.000000,0
0.000000,0.013985,4.845920,12.825087,11.887925,3.915895,0.125868,0.000000,0.000000,0.755208,12.985581,13.790317,12.678435,12.545091,1.230709,0.000000,0.000000,3.041812,14.656926,4.909386,2.167922,12.594523,4.307483,0.000000,0.000000,4.727045,13.181473,1.860245,0.076920,9.524693,6.559316,0.000000,0.000000,4.936826,12.223960,1.307727,0.125868,10.699462,6.244743,0.000000,0.000000,3.328511,13.468558,2.300735,3.035011,14.468605,3.685379,0.000000,0.000000,0.783180,13.363426,11.986112,14.062982,11.699510,0.433595,0.000000,0.000000,0.000000,4.992814,13.447435,11.433691,2.160930,0.000000,0.000000,0
0.000000,0.048819,5.674238,13.391330,6.752912,0.255983,0.000000,0.000000,0.000000,1.500861,13.259435,14.242498,14.438269,6.302763,0.024413,0.000000,0.000000,3.806145,14.380832,7.020610,7.710699,14.145824,1.414656,0.000000,0.000000,5.001262,13.086973,2.568411,1.146139,12.086827,5.572690,0.000000,0.000000,5.501015,12.498022,1.228887,0.363630,9.743684,7.341263,0.000000,0.000000,3.795034,13.950393,1.705501,0.902363,11.292892,7.755433,0.000000,0.000000,1.171335,13.880937,10.778252,10.682355,15.084799,3.927069,0.000000,0.000000,0.097637,5.478813,14.135664,13.791423,6.682031,0.304802,0.000000,0
0.000000,0.000000,0.000000,1.672686,11.571312,11.862459,1.343972,0.000000,0.000000,0.103361,1.068066,7.794414,15.155887,14.842434,2.378408,0.000000,0.000000,2.325647,9.171148,14.155344,15.655464,13.738462,1.430102,0.000000,0.000000,5.569364,12.915848,11.915861,15.000846,13.098828,1.360917,0.000000,0.000000,1.551548,3.828851,3.589705,14.604630,12.873483,1.068061,0.000000,0.000000,0.000000,0.000000,2.276560,14.242867,12.909615,1.102515,0.000000,0.000000,0.000000,0.000000,2.689405,14.053094,13.771285,2.342866,0.000000,0.000000,0.000000,0.000000,1.568497,11.674113,13.375654,2.997501,0.000000,1
0.000000,1.060548,11.530104,14.143705,4.878515,0.030302,0.000000,0.000000,0.000000,5.226980,14.984791,12.803210,13.075303,1.098427,0.000000,0.000000,0.000000,4.719431,9.576058,3.212559,13.833172,2.954384,0.000000,0.000000,0.000000,1.295381,2.606478,2.113853,14.257448,2.984684,0.000000,0.000000,0.000000,0.128781,0.212166,5.598390,13.439429,1.219629,0.000000,0.000000,0.000000,0.007575,1.545366,11.901181,10.106059,0.780259,0.257561,0.000000,0.000000,0.840863,11.302674,15.833287,13.212167,11.189270,8.015208,0.386455,0.000000,1.090848,11.598394,13.750127,12.613771,12.734977,11.318218,1.477244,2
0.000000,0.628573,8.971417,15.071426,12.142873,2.057149,0.000000,0.000000,0.000000,4.185720,14.728568,12.014274,15.057143,5.714303,0.000000,0.000000,0.000000,3.171437,6.142862,3.299969,14.742853,4.785729,0.000000,0.000000,0.000000,0.528573,1.257146,7.914274,13.571430,1.457147,0.000000,0.000000,0.000000,0.057143,2.257150,14.199998,7.885702,0.014286,0.000000,0.000000,0.000000,0.585716,9.799996,13.599992,1.671430,0.399998,0.085712,0.000000,0.071429,2.485721,13.814279,13.185706,9.057122,9.271409,4.414281,0.128572,0.014286,0.800002,9.399989,14.842854,14.785711,12.357144,5.528587,0.328572,2
0.000000,0.422522,8.436609,14.802817,10.521119,1.535211,0.000000,0.000000,0.000000,3.633797,14.140856,11.929597,13.563383,8.450702,0.028169,0.000000,0.000000,3.774659,9.718350,2.943706,7.126777,12.422536,0.577465,0.000000,0.000000,1.183099,3.380312,0.887343,7.168997,12.408465,0.464811,0.000000,0.000000,0.028169,0.098592,0.873231,11.746457,8.971861,0.183104,0.000000,0.000000,0.000000,0.394366,6.661958,13.929583,4.802850,0.394366,0.000000,0.000000,0.239428,8.168995,15.169014,14.436628,10.887310,8.126741,0.957747,0.000000,0.366184,8.788713,13.845049,12.380241,11.746435,11.577437,3.028169,2
0.000000,0.499998,9.611116,14.703702,14.333311,5.518491,0.074075,0.000000,0.000000,4.055525,13.037074,8.888913,10.851876,13.055538,0.888894,0.000000,0.000000,1.703696,3.259311,2.574103,11.148144,11.907400,0.518522,0.000000,0.000000,0.055556,1.351842,9.555527,15.518522,10.074162,0.537040,0.000000,0.000000,0.000000,0.499997,4.499958,9.555490,14.425979,6.018569,0.000000,0.000000,0.111112,0.518522,0.092593,0.203674,8.944451,12.037056,0.055556,0.000000,1.259317,9.648183,5.537035,5.148144,12.722271,11.296223,0.148149,0.000000,0.462973,9.481504,14.740758,15.370391,12.351816,3.166624,0.000000,3
0.000000,1.255814,9.906977,13.953488,14.790697,11.116280,3.232559,0.232558,0.000000,2.976742,10.209301,6.744185,7.279069,14.372093,7.395350,0.162791,0.000000,0.627906,1.255813,1.046512,9.418603,13.418605,2.813954,0.000000,0.000000,0.000000,1.046512,10.186047,13.906976,4.651163,0.139535,0.000000,0.000000,0.046512,1.744187,9.348839,13.720930,5.581396,0.465116,0.000000,0.000000,0.000000,0.325582,1.697675,10.069767,12.558139,1.372093,0.000000,0.000000,0.651163,4.883722,5.395349,11.279069,13.116279,1.116279,0.000000,0.000000,1.348838,11.627906,14.418605,11.069768,3.395350,0.069767,0.000000,3
0.000000,1.353461,9.725768,14.510384,13.057692,5.117307,0.058846,0.000000,0.000000,3.353462,12.724231,9.429616,14.077692,10.944615,0.411923,0.000000,0.000000,0.372692,1.352692,4.800384,13.943461,7.218462,0.078462,0.000000,0.000000,0.098077,5.137693,14.077694,14.059230,4.783846,0.058846,0.000000,0.000000,0.039231,3.805385,10.571155,13.843847,13.822692,3.077307,0.000000,0.000000,0.000000,0.313846,0.353077,3.315000,14.765385,6.803845,0.000000,0.000000,0.647308,7.471539,9.196923,12.863077,14.411538,3.079230,0.000000,0.000000,1.098461,11.823461,13.685384,9.489615,2.765385,0.058846,0.000000,3
0.000000,0.928449,9.595171,14.499798,10.703088,1.536315,0.000000,0.000000,0.000000,5.880410,14.131200,9.964845,14.678753,5.523290,0.023806,0.000000,0.000000,2.511549,4.332993,4.108521,14.106305,4.558880,0.023806,0.000000,0.000000,0.059516,1.202777,11.107861,15.392529,5.583412,0.035710,0.000000,0.000000,0.035710,1.130792,6.333030,11.511959,14.595460,2.940915,0.000000,0.000000,0.119032,0.607064,0.214258,1.047459,13.083307,8.047495,0.000000,0.000000,1.440272,9.844588,6.916681,7.655390,14.738141,6.511139,0.000000,0.000000,0.737998,10.333581,14.750180,13.725810,7.891877,0.726077,0.000000,3
0.000000,0.000000,0.000000,2.984615,13.399980,3.923106,0.000000,0.000000,0.000000,0.000000,0.553843,11.246158,12.569228,1.123082,0.615367,0.015385,0.000000,0.061539,6.184615,14.938453,3.615383,3.753813,4.846044,0.199995,0.000000,2.738458,14.107698,8.815352,2.123072,12.107656,7.353794,0.015381,0.015385,9.215376,15.753842,12.184615,12.707696,15.676918,6.230731,0.000000,0.107694,5.692238,11.123041,11.630763,14.830759,14.538462,2.738469,0.000000,0.076924,0.276920,0.430761,2.538469,14.599987,8.230784,0.123079,0.000000,0.000000,0.000000,0.000000,3.446145,14.523073,4.446168,0.000000,0.000000,4
0.000000,0.000000,0.068493,7.493155,11.561632,0.698628,0.000000,0.000000,0.000000,0.000000,1.821918,14.493154,7.136973,1.013709,0.684932,0.109589,0.000000,0.109589,8.876713,12.753413,2.095893,5.452079,3.342460,0.287671,0.000000,3.150685,14.410958,5.027387,3.150697,11.136989,5.479439,0.095890,0.027397,8.917801,14.657538,4.328786,9.726043,14.534250,4.041098,0.000000,0.383561,10.712322,15.506848,14.958899,15.780822,12.808210,2.150680,0.000000,0.095890,2.643829,5.178069,8.986291,14.945203,3.424649,0.109589,0.000000,0.000000,0.013699,0.178082,8.602743,11.780810,0.794518,0.000000,0.000000,4
0.000000,0.000000,1.046917,11.705515,8.506907,0.577749,0.976345,0.317604,0.000000,0.047052,6.740669,14.835315,4.236353,3.178076,3.247175,0.505814,0.000000,1.694024,13.882102,8.859525,2.164545,8.659681,4.659686,0.388183,0.000000,6.635480,15.364795,7.577073,9.435907,13.906172,6.588297,0.011763,0.000000,5.847222,14.564900,14.282592,15.576528,14.482017,4.987569,0.000000,0.011763,1.058674,4.376821,9.082207,15.388318,6.787992,0.588157,0.000000,0.000000,0.000000,0.376420,9.952679,12.752975,1.105733,0.000000,0.000000,0.000000,0.000000,1.023391,12.952408,8.270959,0.329367,0.000000,0.000000,4
0.000000,0.000000,0.000000,2.243240,13.081086,5.094587,0.040540,0.000000,0.000000,0.000000,0.054054,6.986489,14.324328,2.540534,0.013513,0.027027,0.000000,0.000000,1.094597,13.054061,9.202695,1.932442,1.513524,0.135135,0.000000,0.135135,8.027034,13.229729,3.135132,7.783798,4.405416,0.013513,0.000000,3.864870,14.662165,7.108112,6.162171,13.891897,4.202716,0.000000,0.810809,11.702711,15.513515,12.945953,14.702706,14.837841,2.648654,0.000000,0.689188,6.810799,9.783770,10.499985,15.108110,11.959452,1.040538,0.000000,0.000000,0.189189,0.337837,2.878377,14.081086,5.689197,0.000000,0.000000,4
0.000000,0.604167,9.354167,13.375000,14.010417,11.322917,3.177083,0.000000,0.010417,3.364583,15.031250,12.854167,9.583333,8.625000,2.239583,0.000000,0.000000,4.885417,14.635417,5.687500,0.822917,0.104167,0.041667,0.000000,0.000000,5.333333,14.812500,15.072917,10.854167,1.322917,0.000000,0.000000,0.000000,1.666667,6.770833,7.468750,13.958333,6.958333,0.083333,0.000000,0.000000,0.052083,0.250000,0.343750,9.697917,10.656250,0.322917,0.000000,0.000000,0.677083,6.489583,7.854167,14.604167,8.010417,0.125000,0.000000,0.000000,0.520833,10.708333,14.708333,10.020833,1.468750,0.000000,0.000000,5
0.000000,0.000000,0.340739,9.540740,11.251849,1.629627,0.000000,0.000000,0.000000,0.007407,5.118511,15.251854,9.111118,1.251852,0.000000,0.000000,0.000000,0.155555,10.807404,12.451862,1.311114,0.000000,0.000000,0.000000,0.000000,1.051850,13.103703,8.133348,0.318522,0.007407,0.000000,0.000000,0.000000,1.977775,14.088894,10.214826,8.674083,5.244455,0.622225,0.000000,0.000000,1.237036,14.162962,14.199999,12.399995,13.600000,7.288898,0.200000,0.000000,0.103703,8.644444,14.548149,7.792595,11.162962,12.140747,1.244446,0.000000,0.000000,0.518519,8.444442,14.266666,14.162963,7.696298,0.437037,6
0.000000,0.000000,1.024661,11.000063,9.065377,1.163744,0.000000,0.000000,0.000000,0.057381,7.459056,14.475571,5.909823,0.909024,0.000000,0.000000,0.000000,0.721360,12.729900,8.770463,0.344147,0.130283,0.000000,0.000000,0.000000,1.836190,14.345168,8.761856,5.901027,2.376807,0.122959,0.000000,0.000000,2.434594,15.238259,13.893367,12.918160,12.942885,3.893703,0.000000,0.000000,1.098435,14.696634,8.107028,1.647647,6.844045,11.910027,0.270510,0.000000,0.139354,9.647314,11.787338,3.655983,8.721892,13.155612,0.909897,0.000000,0.008197,1.180340,9.991872,14.901700,13.598332,6.253711,0.254116,6
0.000000,0.024793,5.363635,12.099177,2.958684,0.355375,0.000000,0.000000,0.000000,0.479339,12.148759,10.909095,1.148761,0.181818,0.000000,0.000000,0.000000,2.198347,14.537187,4.702481,0.041322,0.049587,0.008264,0.000000,0.000000,3.859504,14.107430,3.710746,2.173552,1.132231,0.107438,0.000000,0.000000,5.652890,14.338836,11.595028,13.289245,10.487594,1.966942,0.000000,0.000000,4.132230,15.669422,12.206617,8.099182,12.652895,8.636358,0.066116,0.000000,1.231405,14.140496,12.074381,7.239665,13.330583,9.033054,0.256197,0.000000,0.057851,5.008262,13.396694,14.561985,10.570251,2.471075,0.082644,6
0.000000,0.225808,8.322592,14.467734,13.822562,6.209636,0.225808,0.000000,0.000000,1.370966,11.403196,10.854846,14.371001,10.419311,0.645154,0.000000,0.000000,0.467729,1.516104,1.435496,12.951651,9.306411,0.435483,0.000000,0.000000,0.209679,3.806441,8.225803,15.451621,9.306420,2.467750,0.000000,0.000000,1.999949,12.145129,15.596771,15.709675,13.661271,6.209641,0.000000,0.000000,1.241916,5.629047,14.564555,9.983854,5.629077,1.645175,0.000000,0.000000,0.016129,5.790334,14.967733,2.677417,0.177421,0.016129,0.000000,0.000000,0.112904,10.016133,11.000009,0.500004,0.000000,0.000000,0.000000,7
0.000000,0.117035,8.361743,14.330051,14.787097,14.531749,9.192303,0.766044,0.000000,0.287153,7.201132,9.052632,8.829315,14.595586,10.415959,0.414941,0.000000,0.010640,0.223090,0.351104,4.488964,14.787323,4.021732,0.010640,0.000000,0.351104,5.265987,9.211998,13.829542,13.818902,4.446859,0.000000,0.000000,1.244822,9.127900,13.808263,15.425580,11.552915,4.201698,0.000000,0.000000,0.627731,2.202264,13.595699,8.819128,1.755518,0.404301,0.000000,0.000000,0.031919,5.819242,14.999887,2.308546,0.000000,0.000000,0.000000,0.000000,0.063837,10.468025,10.616978,0.329825,0.000000,0.000000,0.000000,7
0.000000,0.000000,4.305117,12.898382,14.739395,12.464481,2.709985,0.072449,0.000000,0.811637,9.928804,11.971417,12.405908,15.507347,3.782028,0.014490,0.000000,0.463682,1.695934,0.405712,6.695929,14.449181,2.115501,0.000000,0.000000,0.028979,1.392061,4.350227,12.276135,13.000612,3.333459,0.000000,0.000000,1.188202,8.854734,14.608987,15.782450,14.304295,6.029413,0.000000,0.000000,1.275115,5.723664,12.695903,13.593257,5.535074,1.101218,0.000000,0.000000,0.057959,1.855729,14.637967,7.535077,0.072449,0.000000,0.000000,0.000000,0.000000,5.435941,13.955896,2.072029,0.000000,0.000000,0.000000,7
0.000000,0.056250,5.062693,12.437539,12.618907,6.406407,0.562500,0.000000,0.000000,2.287848,13.794099,10.287384,9.106287,13.056366,2.737655,0.000000,0.000000,4.037850,12.844293,5.481404,6.531406,12.443943,2.494060,0.000000,0.000000,1.281211,10.049885,13.587461,14.275077,7.712771,0.781250,0.000000,0.000000,0.287539,7.525467,14.800078,14.231327,4.649260,0.131250,0.000000,0.000000,1.350039,12.006327,7.593866,8.794800,11.562034,1.330938,0.000000,0.000000,1.456250,12.924728,7.406328,6.107066,14.162345,3.243205,0.000000,0.000000,0.081250,5.193787,13.081327,14.174961,9.411724,1.162306,0.025000,8
0.000000,0.213410,6.560197,13.119666,13.186006,7.187275,0.586878,0.000000,0.000000,2.505768,13.519252,8.747477,7.480539,12.332557,2.640218,0.000000,0.000000,2.624720,11.492030,6.281205,9.508296,10.584718,1.905900,0.000000,0.000000,0.919964,8.572081,13.560200,12.332550,3.585071,0.253420,0.000000,0.000000,0.146551,7.812752,15.173021,8.824965,0.426820,0.026676,0.000000,0.000000,0.853110,12.306237,8.987531,11.825878,1.878335,0.000000,0.000000,0.000000,1.253244,12.854362,5.827306,12.027207,4.731975,0.013338,0.000000,0.000000,0.160058,7.014059,14.466638,12.025780,3.119863,0.013338,0.000000,8
0.000000,0.225243,7.486609,13.919074,11.702671,3.783112,0.134821,0.000000,0.000000,3.540584,14.999920,9.018108,11.910395,11.909564,1.332872,0.000000,0.000000,5.405519,14.153249,4.045377,9.432800,14.702589,3.117041,0.000000,0.000000,1.909985,12.639614,13.423461,13.423299,14.945860,4.603648,0.000000,0.000000,0.027029,1.612666,4.062752,4.126143,13.369482,5.666805,0.000000,0.000000,0.090097,0.288149,0.117126,1.126216,13.198293,5.999925,0.000000,0.000000,0.819398,6.467768,6.369557,8.234906,13.765831,3.819810,0.000000,0.000000,0.198214,8.063067,13.882795,12.486204,7.026302,0.459335,0.000000,9
*****************************
0 => 100.00
0 => 100.00
0 => 98.78
1 => 98.28
2 => 100.00
2 => 98.57
2 => 100.00
3 => 100.00
3 => 100.00
3 => 100.00
3 => 98.81
4 => 98.46
4 => 100.00
4 => 98.82
4 => 100.00
5 => 100.00
6 => 98.52
6 => 98.36
6 => 98.35
7 => 100.00
7 => 100.00
7 => 100.00
8 => 100.00
8 => 100.00
9 => 98.20
*****************************