0.000000,0.029491,4.595174,13.265416,10.989276,2.613941,0.058981,0.000000,0.000000,1.176944,13.050938,13.120643,12.286863,10.766756,0.729223,0.000000,0.000000,3.890080,14.404826,4.648794,2.983914,12.772118,3.319035,0.000000,0.000000,5.249330,12.739946,1.638070,0.289544,9.211796,6.654155,0.000000,0.000000,5.461126,11.908847,0.906166,0.152815,8.694370,7.388740,0.000000,0.000000,3.340483,13.541555,1.721180,1.412869,11.415550,6.458445,0.000000,0.000000,0.769437,13.219839,10.571046,10.648794,13.520107,2.672922,0.000000,0.000000,0.018767,4.611260,13.648794,13.364611,5.571046,0.195710,0.000000,0
0.000000,0.015384,0.492360,4.315676,11.980799,11.838390,3.665345,0.203843,0.000000,0.411665,5.008179,10.419446,11.919363,13.150218,6.173148,0.353841,0.000000,2.096374,9.950326,10.334404,10.799900,13.223236,4.692620,0.111551,0.000000,3.734443,12.087931,12.130194,13.538203,13.515628,3.861761,0.000000,0.000000,1.957589,6.372747,6.718983,11.530819,12.884955,2.057824,0.000000,0.000000,0.219154,0.857474,2.223103,12.249952,10.907811,0.734619,0.000000,0.000000,0.034615,0.415232,3.969248,13.738347,8.684517,0.796142,0.000000,0.000000,0.007692,0.357747,5.019614,10.872871,7.076583,1.157661,0.000000,1
0.000000,0.051359,3.058067,12.033953,11.732909,3.644020,0.130209,0.000000,0.017123,0.407422,6.784044,15.089030,15.325253,7.732873,0.332336,0.000000,0.047946,1.222570,8.705265,15.160996,14.763695,6.650868,0.328818,0.000000,0.013699,1.647327,9.301397,15.441774,14.527638,5.722811,0.325346,0.000000,0.000000,1.068529,8.246519,15.051359,14.366701,5.366537,0.308223,0.000000,0.000000,0.565110,7.242941,14.184863,14.243447,5.900789,0.332196,0.000000,0.003425,0.356169,6.777194,14.465711,14.465947,7.626872,0.780831,0.027398,0.000000,0.078768,3.201928,11.479140,12.708901,6.202304,1.089066,0.061645,1
0.000000,0.994302,10.772080,13.928775,6.438746,0.578348,0.000000,0.000000,0.000000,5.079772,14.515670,12.980057,12.039886,2.874644,0.014245,0.000000,0.000000,4.698006,8.487179,5.076923,11.629630,4.210826,0.054131,0.000000,0.000000,1.196581,2.772080,5.293447,11.578348,3.615385,0.022792,0.000000,0.000000,0.079772,1.139601,8.282051,10.603989,1.886040,0.000000,0.000000,0.000000,0.196581,4.113960,11.347578,7.703704,1.441595,0.327635,0.000000,0.000000,1.393162,11.666667,14.883191,12.558405,11.159544,7.421652,0.544160,0.000000,0.994302,10.817664,14.182336,13.341880,12.561254,9.621083,1.655271,2
0.000000,0.811840,8.922143,14.123723,13.180067,5.384371,0.572524,0.026882,0.000000,4.182899,12.991950,9.335976,12.032309,10.782327,1.408579,0.018817,0.000000,1.526867,3.096768,3.516187,11.819999,9.094167,0.664003,0.000000,0.000000,0.083335,1.940888,10.451627,14.204246,6.061857,0.207028,0.000000,0.000000,0.043011,1.508087,7.258170,12.596805,12.266191,2.379023,0.000000,0.000000,0.059141,0.543011,0.564524,3.728585,12.903305,6.599427,0.008065,0.000000,0.895174,7.427476,6.467858,8.263510,13.658547,5.919324,0.032259,0.000000,0.677436,9.857633,14.577965,13.024114,7.623636,1.370980,0.034947,3
0.000000,0.003226,0.196774,5.590323,12.135484,2.709677,0.177419,0.093548,0.000000,0.016129,1.900000,11.900000,9.912903,1.822581,1.551613,0.338710,0.000000,0.358065,7.448387,12.732258,4.019355,5.064516,4.570968,0.345161,0.000000,3.180645,13.187097,8.248387,3.977420,11.512903,6.238710,0.032258,0.016129,7.438709,15.122581,9.838710,11.303226,14.993548,5.112903,0.000000,0.338710,7.225806,11.654838,11.961290,15.135484,12.725806,1.970968,0.000000,0.200000,2.187097,3.567742,7.103226,14.677419,6.283871,0.274194,0.000000,0.000000,0.032258,0.287097,6.554839,12.503226,2.748387,0.016129,0.000000,4
0.000000,0.513513,8.081009,13.047160,13.827648,11.381789,3.226382,0.067563,0.010134,3.317646,14.351428,13.324314,9.716268,8.233025,2.361406,0.023647,0.016891,4.827592,14.080987,5.993388,1.206057,0.398622,0.185798,0.003378,0.000000,4.945772,14.121358,12.050840,7.794303,2.446206,0.293921,0.000000,0.000000,1.577597,7.698921,9.604431,10.814157,6.875489,0.730004,0.000000,0.000000,0.101345,0.962773,3.422066,8.735923,9.158943,0.997068,0.000000,0.000000,0.550661,5.743181,8.871539,12.256594,7.801215,0.571153,0.000000,0.000000,0.398633,9.091087,14.432504,9.615025,2.240039,0.081076,0.010134,5
0.000000,0.018277,2.279371,10.913866,7.911255,1.080939,0.000000,0.000000,0.000000,0.206265,8.211473,13.684089,5.603197,0.796346,0.000000,0.000000,0.000000,1.049601,12.707581,8.848613,0.634515,0.018277,0.002611,0.000000,0.000000,2.240207,13.908630,7.020949,2.728454,1.104431,0.083550,0.000000,0.000000,3.323758,14.597921,11.822476,11.477729,9.318475,2.086148,0.000000,0.000000,2.130547,14.822462,11.493483,7.529975,11.125251,9.143541,0.177544,0.000000,0.527412,10.759779,12.825087,6.339396,11.117418,11.451619,0.812005,0.000000,0.041775,2.261095,10.616204,14.592672,12.861532,5.556098,0.268928,6
0.000000,0.336397,6.834103,13.476969,13.854804,11.675071,6.016194,0.981588,0.000000,0.981486,9.306399,10.260299,9.914723,13.020716,7.822550,0.847944,0.000000,0.854814,2.921566,1.287848,6.327158,12.725801,4.723357,0.117509,0.000000,0.937808,4.396375,7.228137,12.741978,12.594440,4.129003,0.004608,0.000000,1.557637,8.380326,13.493152,15.255782,12.046154,4.389436,0.000000,0.000000,0.739631,3.698156,11.988586,10.933082,3.430853,0.631350,0.000000,0.000000,0.122085,4.594445,13.622246,5.193360,0.264892,0.016129,0.000000,0.000000,0.343309,8.129040,11.615146,1.647298,0.076022,0.000000,0.000000,7
0.000000,0.211980,6.154990,12.687560,12.467465,6.293601,0.554375,0.002717,0.000000,2.712053,13.961841,9.839708,9.127772,12.445661,2.619620,0.005435,0.000000,3.703740,12.100358,5.092521,8.013682,11.918370,2.241899,0.000000,0.000000,1.323346,9.385748,12.842388,13.630437,6.758144,0.570658,0.000000,0.000000,0.293470,7.396669,14.679306,11.796201,3.912987,0.355968,0.000000,0.000000,0.986406,11.445595,9.404844,8.155026,7.073234,1.470065,0.000000,0.013587,1.453813,12.891278,8.282594,7.565427,9.703694,2.524382,0.000000,0.002717,0.241863,6.532704,13.364207,12.519056,7.056909,1.051600,0.013587,8
0.000000,0.233231,6.876642,13.710547,12.037527,4.605614,0.678207,0.013405,0.000000,2.683475,13.938248,10.192898,10.731865,9.284186,0.989276,0.000000,0.000000,4.498641,13.214360,6.077597,8.638333,11.153170,1.753400,0.000000,0.000000,2.321698,10.879308,11.318952,12.418239,14.112808,3.286931,0.000000,0.000000,0.209123,2.404841,4.158104,4.927394,13.048143,5.986646,0.000000,0.000000,0.120648,0.689041,0.361944,1.109843,10.809550,7.855304,0.013405,0.000000,0.756045,6.815102,6.069548,6.533276,12.769356,6.697251,0.120648,0.000000,0.179617,6.962443,13.887345,13.758865,9.573973,2.485352,0.134053,9
*****************************
0 => 99.73
1 => 42.91
1 => 85.32
2 => 94.60
3 => 94.10
4 => 99.36
5 => 95.62
6 => 97.14
7 => 85.98
8 => 87.80
9 => 66.84
*****************************