0.000000,0.040404,4.101010,13.101010,8.686869,0.787879,0.000000,0.000000,0.000000,1.050505,11.737374,14.888889,14.303030,7.737374,0.050505,0.000000,0.000000,3.060606,14.060606,8.979798,6.181818,13.919192,1.717172,0.000000,0.000000,4.333333,13.919192,4.050505,0.787879,11.151515,5.666667,0.000000,0.000000,4.494949,13.616162,2.454545,0.303030,9.272727,7.484848,0.000000,0.000000,2.676768,14.505051,3.232323,1.060606,11.505051,7.949495,0.000000,0.000000,0.777778,12.292929,12.232323,11.242424,15.111111,4.212121,0.000000,0.000000,0.080808,4.040404,13.222222,14.181818,7.252525,0.383838,0.000000,0
0.000000,0.036232,4.427536,13.659420,11.797101,2.695652,0.028986,0.000000,0.000000,1.521739,13.681159,11.398551,10.608696,11.202899,0.695652,0.000000,0.000000,5.036232,14.239130,2.340580,1.485507,12.224638,3.507246,0.000000,0.000000,6.086957,11.695652,0.623188,0.094203,7.572464,7.427536,0.000000,0.000000,6.239130,10.710145,0.231884,0.028986,6.260870,8.500000,0.000000,0.000000,3.565217,13.086957,0.688406,0.014493,8.347826,8.210145,0.000000,0.000000,0.724638,13.297101,8.282609,6.789855,14.253623,3.905797,0.000000,0.000000,0.000000,4.420290,13.905797,14.818841,7.956522,0.275362,0.000000,0
0.000000,0.014599,5.153285,12.846715,11.664234,3.817518,0.131387,0.000000,0.000000,0.912409,13.226277,13.503650,12.364964,12.343066,1.248175,0.000000,0.000000,3.306569,14.700730,3.897810,2.160584,12.343066,4.255474,0.000000,0.000000,5.029197,12.934307,0.963504,0.124088,9.408759,6.583942,0.000000,0.000000,5.343066,11.912409,0.489051,0.153285,10.671533,6.204380,0.000000,0.000000,3.605839,13.321168,1.649635,2.978102,14.401460,3.613139,0.000000,0.000000,0.861314,13.759124,11.627737,14.029197,11.547445,0.372263,0.000000,0.000000,0.000000,5.204380,13.554745,11.182482,1.927007,0.000000,0.000000,0
0.000000,0.000000,0.031746,3.650794,13.412698,9.777778,0.809524,0.000000,0.000000,0.142857,1.253968,10.761905,15.920635,12.587302,1.253968,0.000000,0.000000,2.682540,10.603175,15.492063,15.873016,10.761905,0.841270,0.000000,0.000000,5.476190,12.650794,12.444444,15.650794,10.079365,0.761905,0.000000,0.000000,1.095238,3.190476,6.111111,15.476190,10.158730,0.793651,0.000000,0.000000,0.000000,0.015873,4.841270,15.174603,10.809524,1.190476,0.000000,0.000000,0.000000,0.158730,5.269841,15.444444,12.777778,2.349206,0.079365,0.000000,0.000000,0.031746,3.285714,13.650794,12.365079,2.444444,0.063492,1
0.000000,0.400000,8.025000,14.587500,10.900000,2.050000,0.025000,0.000000,0.000000,3.675000,14.175000,12.000000,13.350000,9.075000,0.250000,0.000000,0.000000,3.950000,9.187500,2.662500,6.837500,12.637500,0.725000,0.000000,0.000000,1.112500,3.275000,0.950000,7.475000,12.362500,0.525000,0.000000,0.000000,0.025000,0.087500,1.512500,12.137500,8.425000,0.162500,0.000000,0.000000,0.000000,0.650000,7.600000,13.262500,4.462500,0.412500,0.000000,0.000000,0.350000,8.375000,15.212500,13.887500,10.800000,8.000000,0.850000,0.000000,0.337500,8.262500,13.637500,12.475000,11.737500,10.800000,2.687500,2
0.000000,1.036496,11.401460,14.182482,5.043796,0.029197,0.000000,0.000000,0.000000,5.167883,15.007299,12.846715,13.145985,1.124088,0.000000,0.000000,0.000000,4.846715,9.700730,3.248175,13.905109,2.897810,0.000000,0.000000,0.000000,1.401460,2.737226,2.291971,14.262774,2.883212,0.000000,0.000000,0.000000,0.153285,0.291971,5.875912,13.299270,1.175182,0.000000,0.000000,0.000000,0.014599,1.708029,12.000000,9.912409,0.817518,0.321168,0.000000,0.000000,0.861314,11.270073,15.824818,13.233577,11.226277,7.912409,0.379562,0.000000,1.065693,11.445255,13.773723,12.664234,12.715328,11.248175,1.430657,2
0.000000,0.551282,8.346154,14.294872,13.166667,3.858974,0.217949,0.000000,0.000000,4.051282,14.307692,10.910256,13.679487,8.589744,0.615385,0.000000,0.000000,2.589744,5.128205,1.948718,12.615385,7.794872,0.448718,0.000000,0.000000,0.192308,0.551282,6.012821,13.846154,3.371795,0.025641,0.000000,0.000000,0.000000,2.038462,13.269231,9.089744,0.141026,0.000000,0.000000,0.000000,0.576923,9.692308,13.435897,1.884615,0.192308,0.051282,0.000000,0.064103,2.294872,13.923077,12.307692,7.589744,7.346154,3.653846,0.128205,0.012821,0.628205,9.025641,14.500000,14.628205,12.358974,5.512821,0.320513,2
0.000000,1.740741,12.962963,12.691358,2.864198,0.000000,0.000000,0.000000,0.000000,6.950617,14.765432,14.629630,7.938272,0.061728,0.000000,0.000000,0.000000,6.370370,7.283951,9.913580,9.543210,0.049383,0.000000,0.000000,0.000000,1.691358,2.716049,11.049383,8.061728,0.024691,0.000000,0.000000,0.000000,0.061728,3.185185,13.814815,3.938272,0.037037,0.012346,0.000000,0.000000,0.604938,8.765432,12.308642,1.481481,0.691358,0.555556,0.000000,0.000000,3.234568,14.567901,14.407407,12.777778,12.975309,7.271605,0.074074,0.000000,1.790123,12.962963,14.419753,13.432099,11.827160,6.728395,0.271605,2
0.000000,1.265060,9.795181,14.240964,14.590361,9.228916,1.421687,0.000000,0.000000,3.072289,11.060241,7.301205,9.168675,14.457831,4.072289,0.024096,0.000000,0.481928,1.204819,2.493976,11.277108,11.915663,1.433735,0.000000,0.000000,0.096386,2.819277,12.457831,13.963855,4.120482,0.048193,0.000000,0.000000,0.048193,2.566265,10.433735,14.108434,8.807229,1.036145,0.000000,0.000000,0.000000,0.457831,1.096386,7.024096,13.698795,3.722892,0.000000,0.000000,0.722892,6.506024,6.228916,10.686747,13.819277,2.457831,0.000000,0.000000,1.240964,11.530120,14.433735,11.349398,4.385542,0.216867,0.000000,3
0.000000,0.981481,9.805556,14.407407,10.472222,1.490741,0.000000,0.000000,0.000000,5.175926,13.731481,9.740741,14.842593,4.787037,0.000000,0.000000,0.000000,1.824074,3.324074,4.768519,14.148148,3.537037,0.000000,0.000000,0.000000,0.120370,2.592593,12.509259,14.175926,4.222222,0.027778,0.000000,0.000000,0.046296,1.861111,8.120370,12.620370,13.370370,2.546296,0.000000,0.000000,0.092593,0.435185,0.314815,2.194444,13.712963,7.055556,0.000000,0.000000,1.101852,8.675926,6.935185,8.361111,14.203704,6.120370,0.027778,0.000000,0.750000,10.703704,14.601852,12.925926,7.481481,1.111111,0.018519,3
0.000000,0.000000,0.061728,7.111111,11.555556,0.777778,0.000000,0.000000,0.000000,0.000000,1.604938,14.209877,7.395062,1.049383,0.827160,0.098765,0.000000,0.098765,8.419753,12.827160,2.222222,5.740741,3.333333,0.259259,0.000000,2.950617,14.259259,5.222222,3.222222,11.530864,5.308642,0.086420,0.037037,8.790123,14.728395,4.827160,9.901235,14.654321,3.938272,0.000000,0.370370,10.271605,15.358025,14.913580,15.802469,12.802469,2.172840,0.000000,0.086420,2.358025,4.617284,8.506173,14.975309,3.333333,0.111111,0.000000,0.000000,0.012346,0.135802,8.185185,11.790123,0.827160,0.000000,0.000000,4
0.000000,0.000000,0.000000,2.210526,13.078947,5.171053,0.039474,0.000000,0.000000,0.000000,0.052632,6.934211,14.368421,2.605263,0.013158,0.026316,0.000000,0.000000,1.092105,13.065789,9.250000,2.013158,1.552632,0.131579,0.000000,0.131579,8.118421,13.250000,3.118421,7.828947,4.421053,0.013158,0.000000,3.934211,14.697368,7.210526,6.250000,13.947368,4.355263,0.000000,0.789474,11.657895,15.526316,13.026316,14.736842,14.868421,2.710526,0.000000,0.671053,6.657895,9.578947,10.276316,15.078947,11.934211,1.013158,0.000000,0.000000,0.184211,0.328947,2.828947,14.092105,5.828947,0.013158,0.000000,4
0.000000,0.473684,7.315789,13.078947,14.486842,11.236842,2.934211,0.026316,0.013158,4.171053,14.539474,13.144737,10.118421,8.526316,1.855263,0.000000,0.013158,5.776316,14.223684,3.460526,0.355263,0.105263,0.026316,0.000000,0.000000,5.750000,15.144737,10.657895,4.460526,0.197368,0.000000,0.000000,0.000000,2.289474,10.394737,13.355263,13.723684,3.618421,0.000000,0.000000,0.000000,0.105263,0.526316,2.013158,12.131579,9.763158,0.486842,0.000000,0.000000,0.394737,5.118421,7.736842,13.539474,9.644737,0.644737,0.000000,0.000000,0.223684,7.921053,14.592105,11.592105,3.302632,0.039474,0.000000,5
0.000000,0.555556,9.349206,12.650794,13.301587,11.857143,3.873016,0.206349,0.000000,2.793651,14.793651,13.269841,10.158730,9.015873,2.698413,0.031746,0.000000,4.365079,14.206349,8.253968,1.698413,0.063492,0.031746,0.000000,0.000000,4.126984,13.809524,15.190476,12.063492,1.841270,0.000000,0.000000,0.000000,0.619048,3.222222,4.412698,12.904762,8.047619,0.095238,0.000000,0.000000,0.031746,0.190476,0.412698,9.222222,10.857143,0.222222,0.000000,0.000000,0.793651,6.380952,8.095238,14.682540,6.904762,0.031746,0.000000,0.000000,0.571429,10.603175,14.317460,8.619048,1.015873,0.000000,0.000000,5
0.000000,0.000000,1.185841,11.159292,8.610619,1.061947,0.000000,0.000000,0.000000,0.088496,7.831858,14.353982,5.318584,0.876106,0.000000,0.000000,0.000000,0.725664,13.141593,8.097345,0.079646,0.070796,0.000000,0.000000,0.000000,1.920354,14.707965,8.044248,5.672566,2.353982,0.141593,0.000000,0.000000,2.548673,15.327434,13.876106,12.840708,12.884956,3.805310,0.000000,0.000000,1.141593,14.690265,7.796460,1.469027,6.920354,11.601770,0.247788,0.000000,0.168142,9.752212,11.592920,3.557522,8.548673,12.876106,0.902655,0.000000,0.008850,1.274336,10.106195,14.769912,13.345133,6.185841,0.309735,6
0.000000,0.000000,0.073529,7.970588,12.323529,1.720588,0.000000,0.000000,0.000000,0.014706,2.911765,15.250000,11.750000,1.588235,0.000000,0.000000,0.000000,0.014706,8.367647,14.750000,2.573529,0.000000,0.000000,0.000000,0.000000,0.411765,11.647059,11.750000,1.250000,0.205882,0.014706,0.000000,0.000000,1.000000,13.691176,13.897059,12.014706,8.955882,1.588235,0.000000,0.000000,0.764706,13.573529,14.705882,10.338235,12.500000,10.058824,0.338235,0.000000,0.073529,7.529412,14.852941,6.794118,10.735294,13.500000,1.500000,0.000000,0.000000,0.279412,7.529412,14.352941,14.558824,8.323529,0.529412,6
0.000000,0.029412,5.754902,11.911765,2.352941,0.205882,0.000000,0.000000,0.000000,0.558824,12.500000,10.401961,0.901961,0.117647,0.000000,0.000000,0.000000,2.480392,14.656863,4.215686,0.049020,0.058824,0.009804,0.000000,0.000000,4.225490,14.137255,3.607843,2.558824,1.235294,0.078431,0.000000,0.000000,6.049020,14.235294,11.764706,13.862745,11.196078,2.000000,0.000000,0.000000,4.372549,15.686275,11.911765,7.578431,12.470588,8.715686,0.009804,0.000000,1.323529,14.431373,11.813725,7.313725,13.411765,8.607843,0.098039,0.000000,0.068627,5.372549,13.705882,14.500000,10.215686,1.970588,0.009804,6
0.000000,1.226415,11.698113,15.113208,13.962264,6.698113,0.566038,0.000000,0.000000,1.320755,9.830189,9.094340,14.188679,9.584906,0.622642,0.000000,0.000000,0.433962,1.132075,2.132075,14.301887,6.584906,0.188679,0.000000,0.000000,1.113208,5.377358,10.226415,15.415094,7.811321,2.660377,0.000000,0.000000,3.830189,13.207547,15.867925,15.283019,14.226415,7.150943,0.000000,0.000000,1.056604,6.603774,14.641509,6.716981,4.188679,1.452830,0.000000,0.000000,0.509434,9.886792,11.792453,0.773585,0.075472,0.018868,0.000000,0.000000,1.471698,12.679245,6.905660,0.113208,0.000000,0.000000,0.000000,7
0.000000,1.000000,10.746667,14.253333,14.933333,13.880000,5.586667,0.173333,0.000000,1.493333,9.373333,9.733333,11.000000,15.520000,5.333333,0.040000,0.000000,0.840000,1.573333,0.840000,9.373333,13.346667,1.280000,0.000000,0.000000,0.973333,6.186667,10.400000,15.360000,11.280000,4.266667,0.000000,0.000000,1.626667,8.666667,14.413333,14.320000,9.226667,3.453333,0.000000,0.000000,0.240000,3.560000,14.733333,5.986667,1.213333,0.346667,0.000000,0.000000,0.320000,9.026667,13.720000,1.173333,0.000000,0.000000,0.000000,0.000000,1.000000,12.680000,8.306667,0.120000,0.000000,0.000000,0.000000,7
0.000000,0.023256,5.093023,13.383721,14.406977,10.511628,2.023256,0.058140,0.000000,0.930233,10.476744,12.058140,13.104651,14.511628,3.058140,0.011628,0.000000,0.430233,1.709302,0.558140,8.232558,13.581395,1.720930,0.000000,0.000000,0.023256,1.348837,4.372093,12.953488,11.709302,2.558140,0.000000,0.000000,1.325581,9.697674,14.848837,15.848837,14.360465,6.046512,0.000000,0.000000,1.523256,6.732558,13.302326,13.511628,6.720930,1.465116,0.000000,0.000000,0.046512,2.406977,14.883721,6.906977,0.139535,0.000000,0.000000,0.000000,0.000000,6.302326,13.860465,1.813953,0.000000,0.000000,0.000000,7
0.000000,0.018182,4.927273,12.800000,12.527273,6.945455,1.000000,0.000000,0.000000,0.345455,10.509091,13.545455,10.381818,13.545455,3.781818,0.000000,0.000000,0.527273,9.290909,12.836364,8.290909,12.727273,3.363636,0.000000,0.000000,0.436364,5.763636,15.054545,14.436364,9.145455,0.963636,0.000000,0.000000,1.036364,9.909091,14.818182,13.763636,2.800000,0.000000,0.000000,0.000000,2.945455,14.454545,6.636364,12.236364,7.363636,0.127273,0.000000,0.000000,2.727273,13.927273,7.836364,10.218182,11.400000,0.981818,0.000000,0.000000,0.145455,5.490909,12.836364,13.927273,7.236364,0.345455,0.000000,8
0.000000,0.307692,7.846154,13.494505,11.835165,5.835165,0.340659,0.000000,0.000000,2.945055,14.582418,9.747253,9.318681,11.648352,2.461538,0.000000,0.000000,2.692308,12.648352,5.780220,9.890110,11.505495,2.263736,0.000000,0.000000,0.978022,9.516484,13.362637,12.725275,4.505495,0.428571,0.000000,0.000000,0.098901,7.285714,15.329670,8.637363,0.472527,0.021978,0.000000,0.000000,0.549451,11.934066,12.406593,11.000000,0.780220,0.000000,0.000000,0.000000,1.318681,13.483516,9.307692,12.241758,2.549451,0.021978,0.000000,0.000000,0.219780,8.505495,14.494505,9.791209,1.439560,0.010989,0.000000,8
0.000000,0.185185,7.140741,13.985185,11.540741,3.185185,0.081481,0.000000,0.000000,3.133333,14.718519,8.800000,11.466667,11.251852,1.103704,0.000000,0.000000,6.014815,13.251852,1.548148,6.970370,14.548148,2.666667,0.000000,0.000000,3.051852,13.903704,10.696296,12.400000,15.488889,4.200000,0.000000,0.000000,0.133333,4.214815,8.288889,7.992593,13.866667,5.807407,0.000000,0.000000,0.103704,0.259259,0.133333,0.748148,11.925926,7.185185,0.000000,0.000000,0.651852,6.200000,5.844444,5.977778,13.288889,5.925926,0.000000,0.000000,0.133333,7.311111,14.111111,13.881481,9.585185,1.562963,0.000000,9
*****************************
0 => 98.99
0 => 100.00
0 => 100.00
1 => 100.00
2 => 98.75
2 => 100.00
2 => 100.00
2 => 98.77
3 => 100.00
3 => 100.00
4 => 100.00
4 => 100.00
5 => 100.00
5 => 100.00
6 => 98.23
6 => 100.00
6 => 99.02
7 => 98.11
7 => 98.67
7 => 100.00
8 => 98.18
8 => 98.90
9 => 99.26
*****************************