0.000000,0.016529,5.314050,13.016529,11.851240,4.016529,0.148760,0.000000,0.000000,0.867769,13.438017,13.528926,12.545455,12.719008,1.289256,0.000000,0.000000,3.297521,14.727273,4.082645,1.958678,12.611570,4.421488,0.000000,0.000000,4.991736,13.066116,1.033058,0.066116,9.528926,6.710744,0.000000,0.000000,5.297521,12.000000,0.495868,0.132231,10.884298,6.148760,0.000000,0.000000,3.710744,13.363636,1.603306,3.198347,14.504132,3.438017,0.000000,0.000000,0.900826,13.942149,11.677686,14.198347,11.223141,0.280992,0.000000,0.000000,0.000000,5.429752,13.743802,11.148760,1.809917,0.000000,0.000000,0
0.000000,0.037037,7.000000,15.296296,14.555556,5.370370,0.148148,0.000000,0.000000,3.518519,15.111111,10.703704,9.555556,13.888889,2.000000,0.000000,0.000000,8.037037,14.888889,3.222222,0.481481,12.185185,7.000000,0.000000,0.000000,8.555556,13.407407,0.703704,0.000000,7.518519,10.814815,0.000000,0.000000,8.037037,12.925926,0.481481,0.000000,5.851852,11.592593,0.000000,0.000000,6.000000,14.259259,1.222222,0.000000,8.777778,10.777778,0.000000,0.000000,2.074074,14.962963,9.000000,7.185185,14.740741,5.592593,0.000000,0.000000,0.000000,7.296296,15.518519,15.666667,9.592593,0.222222,0.000000,0
0.000000,0.000000,1.666666,12.416666,12.062500,2.104167,0.000000,0.000000,0.000000,0.416666,9.666666,15.375000,14.125000,10.520834,0.354167,0.000000,0.000000,2.437500,13.416666,9.687501,3.145833,13.500000,2.416667,0.000000,0.000000,3.395834,14.104167,6.291668,0.291667,9.729166,5.812501,0.000000,0.000000,3.250000,14.354166,4.645834,0.500000,8.958333,7.458334,0.000000,0.000000,1.229166,14.500000,5.687500,1.333334,12.020833,7.625000,0.000000,0.000000,0.187500,9.895833,13.583333,11.479166,15.125000,4.000001,0.000000,0.000000,0.000000,1.708333,11.770833,14.541667,7.562501,0.416667,0.000000,0
0.000000,0.037037,3.314815,13.009259,11.796296,2.277778,0.000000,0.000000,0.000000,0.962963,13.000000,11.620370,10.361111,10.944444,0.453704,0.000000,0.000000,4.120370,14.120370,2.370370,1.129630,11.768519,2.814815,0.000000,0.000000,5.435185,11.370370,0.629630,0.027778,7.111111,6.611111,0.000000,0.000000,5.666667,10.370370,0.194444,0.037037,6.138889,7.740741,0.000000,0.000000,2.638889,12.953704,0.694444,0.083333,8.379630,7.481481,0.000000,0.000000,0.287037,12.518519,8.472222,7.009259,14.046296,3.388889,0.000000,0.000000,0.000000,3.212963,13.185185,14.500000,7.425926,0.287037,0.000000,0
0.000000,0.056338,6.380282,13.507042,5.859155,0.126761,0.000000,0.000000,0.000000,1.619718,13.661972,14.000000,14.323944,5.887324,0.028169,0.000000,0.000000,3.859155,14.563380,6.394366,8.366197,14.042254,1.464789,0.000000,0.000000,5.267606,13.070423,1.549296,1.169014,12.056338,5.633803,0.000000,0.000000,5.802817,12.056338,0.478873,0.154930,9.633803,7.338028,0.000000,0.000000,4.169014,13.788732,1.154930,1.000000,11.352113,7.577465,0.000000,0.000000,1.267606,14.380282,10.422535,10.816901,14.929577,3.746479,0.000000,0.000000,0.112676,6.197183,14.366197,13.450704,6.197183,0.267606,0.000000,0
0.000000,0.075002,3.462509,11.462507,11.874996,4.612491,0.112500,0.000000,0.062500,0.487507,6.037519,15.112502,15.900000,11.324996,0.549999,0.000000,0.000000,0.662499,6.187511,15.000002,15.862500,12.000000,0.562499,0.000000,0.000000,0.374999,6.300007,15.250001,15.900000,11.662493,0.699999,0.000000,0.000000,0.512499,5.662505,15.075002,16.000000,11.537497,0.637499,0.000000,0.000000,0.200000,4.925008,14.875002,15.762500,11.362503,0.674999,0.000000,0.000000,0.100000,5.837504,15.337501,15.812500,11.525001,1.274998,0.062500,0.000000,0.050000,3.700002,11.437507,12.400007,7.300003,1.312499,0.075000,1
0.000000,0.100000,7.166667,12.366667,3.200000,0.033333,0.000000,0.000000,0.000000,0.566667,7.433333,15.566667,6.400000,0.133333,0.000000,0.000000,0.000000,2.533333,10.933333,15.566667,8.633333,0.066667,0.000000,0.000000,0.000000,2.600000,11.100000,14.666667,10.766667,0.466667,0.000000,0.000000,0.000000,1.900000,3.566667,9.700000,13.833333,1.666667,0.000000,0.000000,0.000000,0.033333,0.166667,5.066667,14.200000,5.833333,0.266667,0.000000,0.000000,0.066667,5.633333,11.133333,14.900000,13.566667,7.633333,2.266667,0.000000,0.200000,6.166667,14.800000,15.533333,15.000000,13.033333,6.400000,1
0.000000,0.000000,1.302083,12.468750,12.239583,2.489583,0.020833,0.000000,0.000000,0.239583,4.635417,15.031250,15.406250,4.354167,0.010417,0.000000,0.135417,1.895833,8.604167,15.625000,14.197917,2.354167,0.041667,0.000000,0.041667,2.937500,9.010417,15.343750,13.239583,1.614583,0.041667,0.000000,0.000000,1.114583,6.552083,14.843750,12.666667,1.031250,0.000000,0.000000,0.000000,0.166667,4.843750,14.229167,12.177083,0.916667,0.000000,0.000000,0.000000,0.010417,3.854167,14.291667,13.135417,2.437500,0.062500,0.000000,0.000000,0.000000,1.302083,11.291667,13.510417,4.781250,0.406250,0.000000,1
0.000000,1.321168,11.306569,13.810219,7.051095,0.978102,0.000000,0.000000,0.000000,5.868613,14.788321,13.306569,11.124088,2.708029,0.007299,0.000000,0.000000,4.788321,6.481752,6.693431,11.854015,2.321168,0.000000,0.000000,0.000000,1.080292,1.722628,9.437956,10.620438,0.708029,0.000000,0.000000,0.000000,0.065693,2.781022,14.072993,5.664234,0.007299,0.000000,0.000000,0.000000,0.576642,9.364964,12.854015,1.211679,0.394161,0.277372,0.000000,0.000000,2.810219,14.350365,13.693431,10.824818,10.897810,6.014599,0.109489,0.000000,1.394161,11.489051,14.569343,14.102190,12.343066,6.686131,0.255474,2
0.000000,0.971223,11.230216,14.115108,5.302158,0.165468,0.000000,0.000000,0.000000,5.136691,15.028777,12.769784,13.107914,1.546763,0.000000,0.000000,0.000000,4.798561,9.410072,3.064748,13.683453,3.338129,0.000000,0.000000,0.000000,1.280576,2.575540,2.057554,14.251799,3.143885,0.000000,0.000000,0.000000,0.122302,0.194245,5.697842,13.489209,1.172662,0.000000,0.000000,0.000000,0.014388,1.705036,12.043165,10.014388,0.827338,0.316547,0.000000,0.000000,0.870504,11.266187,15.798561,13.093525,11.129496,7.755396,0.381295,0.000000,0.956835,11.294964,13.741007,12.604317,12.589928,10.784173,1.431655,2
0.000000,0.400001,8.112500,14.562499,10.937510,1.962512,0.025000,0.000000,0.000000,3.599999,14.099996,12.037494,13.349996,9.062509,0.237500,0.000000,0.000000,3.699993,9.174983,2.874995,6.950000,12.612503,0.737499,0.000000,0.000000,1.062498,3.024994,0.799998,7.500012,12.349997,0.487499,0.000000,0.000000,0.025000,0.087500,1.425014,12.062502,8.499988,0.162500,0.000000,0.000000,0.000000,0.600012,7.312517,13.487480,4.537491,0.349999,0.000000,0.000000,0.300000,8.337513,15.125002,14.099989,10.874995,7.799991,0.849998,0.000000,0.337499,8.425001,13.762498,12.462499,11.449994,10.749985,2.687495,2
0.000000,1.177305,10.262308,14.708670,11.488614,2.219710,0.000000,0.000000,0.000000,5.786783,13.475327,9.050199,14.624065,6.276247,0.014184,0.000000,0.000000,1.808361,2.752223,4.843819,14.155780,4.510690,0.000000,0.000000,0.000000,0.099291,3.070769,12.850314,13.836680,4.389771,0.077964,0.000000,0.000000,0.049645,1.993208,8.426332,12.568127,12.687546,2.552891,0.000000,0.000000,0.085106,0.404352,0.447206,2.631706,13.574770,7.070771,0.000000,0.000000,1.141743,8.403652,6.241287,7.617375,14.347571,6.440013,0.021277,0.000000,0.929078,11.396811,14.758816,13.397161,8.347314,1.305064,0.014184,3
0.000000,0.974138,8.327587,13.405172,14.706896,10.060345,2.043103,0.267241,0.000000,3.456899,12.301726,9.327585,10.370687,14.663793,4.241382,0.103448,0.000000,1.198276,2.629309,2.965515,11.431029,11.646554,1.344830,0.000000,0.000000,0.017241,1.422414,10.155173,14.232760,5.181037,0.163793,0.000000,0.000000,0.025862,1.525862,7.939659,14.068967,9.301723,1.275861,0.000000,0.000000,0.000000,0.284483,0.991379,7.879310,13.939656,3.353451,0.000000,0.000000,0.491379,4.543108,6.974137,11.887927,13.120691,1.818969,0.000000,0.000000,0.887930,9.758620,14.250000,10.836209,3.543107,0.137931,0.000000,3
0.000000,0.295302,8.200337,13.943043,14.019136,5.723561,0.180935,0.000000,0.000000,3.505432,13.361873,9.028217,9.705063,13.447132,1.190364,0.000000,0.000000,1.695357,3.437883,1.514863,8.753032,12.656460,0.885631,0.000000,0.000000,0.104753,1.114452,8.705402,15.228633,8.838471,0.314347,0.000000,0.000000,0.019046,1.199892,6.580355,11.275268,13.866685,3.876381,0.000000,0.000000,0.066661,0.657173,0.285688,0.885630,10.418921,9.828677,0.028569,0.000000,1.171502,9.305260,5.647205,5.342386,13.266644,9.219028,0.085707,0.000000,0.285689,8.505162,14.733447,14.780969,10.686095,2.180936,0.000000,3
0.000000,0.000000,0.018634,5.378882,12.770186,2.192547,0.155280,0.080745,0.000000,0.000000,1.465839,13.397516,9.509317,1.279503,1.937888,0.391304,0.000000,0.186335,8.881988,13.322981,2.136646,5.341615,5.757764,0.378882,0.000000,3.782609,14.913043,6.149068,2.944099,12.111801,6.919255,0.049689,0.031056,9.223602,15.279503,10.260870,12.515528,15.490683,5.565217,0.000000,0.204969,6.385093,11.559006,12.074534,15.186335,12.596273,1.695652,0.000000,0.043478,0.677019,1.434783,4.813665,14.782609,4.944099,0.049689,0.000000,0.000000,0.006211,0.055901,6.329193,12.875776,1.900621,0.000000,0.000000,4
0.000000,0.000000,0.000000,2.867347,13.030612,4.346939,0.030612,0.000000,0.000000,0.000000,0.132653,8.020408,13.510204,2.285714,0.030612,0.020408,0.000000,0.000000,1.795918,13.469388,8.285714,2.704082,1.602041,0.102041,0.000000,0.275510,9.061224,12.448980,3.122449,8.510204,4.295918,0.010204,0.000000,4.520408,14.765306,6.673469,6.846939,13.846939,4.071429,0.000000,0.724490,11.602041,15.479592,13.326531,14.928571,14.857143,2.969388,0.000000,0.571429,6.173469,9.132653,9.969388,15.173469,10.887755,0.867347,0.000000,0.000000,0.142857,0.275510,3.551020,13.989796,5.224490,0.010204,0.000000,4
0.000000,0.020619,2.113402,11.958763,7.608247,0.835052,1.463918,0.515464,0.000000,0.402062,8.226804,13.958763,3.567010,3.948454,4.701031,0.835052,0.000000,2.494845,14.371134,7.938144,2.298969,9.917526,6.175258,0.402062,0.000000,6.907216,15.371134,8.494845,10.556701,14.649485,7.206186,0.010309,0.000000,5.144330,13.639175,14.123711,15.628866,13.690722,4.257732,0.000000,0.010309,0.845361,3.340206,8.762887,14.845361,5.711340,0.443299,0.000000,0.000000,0.010309,0.927835,10.783505,11.402062,0.896907,0.000000,0.000000,0.000000,0.041237,2.206186,12.907216,6.804124,0.237113,0.000000,0.000000,4
0.000000,0.387122,7.604878,12.645007,13.967609,11.532033,3.306473,0.056455,0.008065,2.701790,14.177365,12.927739,9.548619,8.363187,2.371123,0.032260,0.000000,3.943806,14.427316,4.879022,0.556227,0.128911,0.032260,0.000000,0.000000,5.088848,14.935416,12.637006,8.378534,1.217170,0.000000,0.000000,0.000000,2.193237,9.136655,10.161111,14.185758,8.056064,0.266146,0.000000,0.000000,0.112911,0.596553,0.717789,8.322732,12.459447,1.080651,0.000000,0.000000,0.637139,5.677264,6.943476,12.766177,10.435256,0.838765,0.000000,0.000000,0.306472,8.580746,14.467840,11.346800,3.008002,0.072585,0.000000,5
0.000000,0.420139,7.915903,12.958126,14.000139,12.117847,4.025137,0.042014,0.000000,1.999861,13.941251,11.159446,7.403264,6.159515,1.831805,0.000000,0.000000,3.621596,14.336251,7.478821,4.260485,1.067291,0.016806,0.000000,0.000000,4.369651,14.495901,14.210070,14.311041,9.638676,0.739444,0.000000,0.000000,0.992013,4.059650,2.807429,5.176809,13.554651,3.982914,0.000000,0.000000,0.151250,0.386805,0.109236,1.571739,13.134653,4.302289,0.000000,0.000000,0.781458,6.210213,6.168199,9.672434,13.168119,1.772985,0.000000,0.000000,0.336111,8.537710,14.504095,11.983121,4.042012,0.058819,0.000000,5
0.000000,0.848485,8.979798,13.575758,14.282828,11.292929,2.585859,0.000000,0.020202,5.252525,14.909091,14.323232,11.555556,9.787879,2.565657,0.010101,0.050505,6.929293,13.363636,5.868687,0.848485,0.444444,0.171717,0.000000,0.000000,4.888889,12.737374,9.545455,2.313131,0.090909,0.050505,0.000000,0.000000,1.000000,7.616162,12.272727,7.939394,0.575758,0.080808,0.000000,0.000000,0.090909,1.828283,8.525252,12.060606,2.141414,0.000000,0.000000,0.000000,0.565657,6.565657,12.090909,12.030303,2.373737,0.040404,0.000000,0.000000,0.606061,10.333333,14.303030,6.747475,0.909091,0.000000,0.000000,5
0.000000,0.008197,1.065574,11.008197,9.073770,1.172131,0.000000,0.000000,0.000000,0.139344,7.532787,14.508197,5.983607,0.827869,0.000000,0.000000,0.000000,0.803279,12.778689,8.696721,0.327869,0.024590,0.000000,0.000000,0.000000,1.918033,14.450820,8.704918,5.844262,2.352459,0.122951,0.000000,0.000000,2.450820,15.278689,13.877049,12.934426,13.000000,3.934426,0.000000,0.000000,1.098361,14.565574,8.098361,1.647541,6.852459,11.950820,0.270492,0.000000,0.139344,9.557377,11.836066,3.721311,8.836066,13.155738,0.909836,0.000000,0.008197,1.188525,10.008197,14.918033,13.598361,6.204918,0.254098,6
0.000000,0.065574,5.426230,12.008197,3.024590,0.393443,0.000000,0.000000,0.000000,0.549180,12.180328,10.934426,1.196721,0.196721,0.000000,0.000000,0.000000,2.303279,14.573770,4.721311,0.040984,0.049180,0.008197,0.000000,0.000000,3.934426,14.139344,3.745902,2.163934,1.122951,0.106557,0.000000,0.000000,5.688525,14.319672,11.532787,13.180328,10.352459,1.918033,0.000000,0.000000,4.131148,15.696721,12.049180,8.040984,12.680328,8.540984,0.049180,0.000000,1.286885,14.131148,12.065574,7.311475,13.368852,8.934426,0.237705,0.000000,0.106557,5.065574,13.393443,14.532787,10.524590,2.442623,0.081967,6
0.000000,0.000000,0.364964,9.591241,11.240876,1.678832,0.000000,0.000000,0.000000,0.007299,5.175182,15.262774,9.080292,1.291971,0.000000,0.000000,0.000000,0.160584,10.839416,12.459854,1.299270,0.000000,0.000000,0.000000,0.000000,1.051095,13.109489,8.138686,0.313869,0.007299,0.000000,0.000000,0.000000,1.963504,14.109489,10.233577,8.642336,5.255474,0.649635,0.000000,0.000000,1.233577,14.167883,14.226277,12.394161,13.481752,7.291971,0.211679,0.000000,0.109489,8.693431,14.569343,7.861314,11.124088,12.072993,1.240876,0.000000,0.000000,0.547445,8.518248,14.291971,14.102190,7.598540,0.430657,6
0.000000,0.659964,9.404301,14.588285,14.536340,9.667337,1.869507,0.013070,0.000000,1.019522,9.986929,10.117549,13.019352,12.686608,2.026606,0.000000,0.000000,0.411671,1.215327,1.287003,11.534874,10.575931,0.692685,0.000000,0.000000,0.705377,4.548450,8.652681,15.051822,10.098406,3.169915,0.000000,0.000000,2.535629,11.784503,15.549115,15.477482,13.608309,6.176572,0.000000,0.000000,0.941183,5.731845,14.503077,8.805157,4.196967,1.163586,0.000000,0.000000,0.202589,7.012232,13.719408,2.556614,0.072094,0.006535,0.000000,0.000000,0.731809,10.757530,9.706879,0.464286,0.000000,0.000000,0.000000,7
0.000000,0.000000,2.270447,10.392092,14.442491,15.296882,12.973396,4.921290,0.000000,0.195781,7.197838,11.629479,9.241043,11.630647,14.660123,4.592782,0.000000,0.195804,1.223007,0.611637,0.464674,9.356714,12.867291,0.881025,0.000000,0.073427,0.460946,3.478342,6.597670,14.360822,8.450466,0.048951,0.000000,0.097902,4.014133,12.016287,14.776225,14.810951,4.756812,0.000000,0.000000,0.415394,2.734828,6.715031,14.609707,7.798707,0.513980,0.000000,0.000000,0.000000,0.684420,9.216001,13.029852,1.883814,0.024475,0.000000,0.000000,0.000000,2.468691,13.019764,7.007620,0.171304,0.000000,0.000000,7
0.000000,0.008197,4.473479,12.842630,14.130549,13.656061,8.191389,1.084003,0.000000,0.360611,7.245236,10.345299,9.663310,14.064836,10.691146,0.705717,0.000000,0.065578,1.221458,0.303304,2.497806,14.146395,6.100751,0.057383,0.000000,0.278640,2.146672,4.532686,10.498752,14.361695,3.467797,0.000000,0.000000,1.303160,8.194975,13.778063,15.745885,14.016197,4.876901,0.000000,0.000000,1.155613,3.548212,10.775157,13.336771,3.867310,0.647044,0.000000,0.000000,0.057381,1.875489,14.465278,6.854022,0.048918,0.000000,0.000000,0.000000,0.000000,5.529786,13.516837,1.755375,0.000001,0.000000,0.000000,7
0.000000,0.079640,5.663510,12.769926,12.628579,6.832034,0.743384,0.000000,0.000000,1.770008,12.973457,10.593187,8.805166,12.761320,2.734771,0.000000,0.000000,2.265779,11.584417,7.805003,7.672350,11.495935,2.168214,0.000000,0.000000,0.593337,8.009476,14.459679,13.752315,6.849891,0.787555,0.000000,0.000000,0.557555,9.044776,14.911590,12.920365,2.406966,0.061942,0.000000,0.000000,1.973601,13.309942,6.009627,11.363047,8.459670,0.150430,0.000000,0.000000,2.088485,13.725841,5.496309,7.558180,13.026316,1.274232,0.000000,0.000000,0.168129,5.920285,13.230150,14.177131,8.327636,0.504382,0.000000,8
0.000000,0.064946,3.636460,11.467276,13.129373,6.415128,0.350537,0.000000,0.000000,2.597335,13.961194,9.882408,8.766533,12.129218,2.272088,0.000000,0.012989,5.792179,13.129373,2.064604,5.246814,12.453958,2.792156,0.000000,0.000000,2.505913,12.090243,10.156193,13.285417,8.856758,0.961187,0.000000,0.000000,0.051788,4.231779,14.506235,14.143044,4.572043,0.233807,0.000000,0.000000,0.116228,5.907359,13.324232,10.544854,9.260977,1.428819,0.000000,0.000000,0.168518,8.946833,11.479935,7.595967,12.377017,3.390198,0.000000,0.000000,0.012989,3.766015,13.103734,13.687920,8.454116,1.285937,0.000000,8
0.000000,0.093023,5.197690,12.662797,12.360469,5.476733,0.348836,0.000000,0.000000,3.151155,14.220923,8.569759,8.918614,11.511597,2.139525,0.000000,0.000000,5.406958,13.383712,4.686066,8.220936,11.151113,1.662783,0.000000,0.000000,2.081386,11.988350,14.767435,14.383706,7.174397,0.290696,0.000000,0.000000,0.488373,9.174406,13.546512,11.802328,10.093004,1.639527,0.000000,0.000000,0.918617,12.499993,5.511626,1.744195,11.569772,6.011610,0.000000,0.000000,0.813968,12.674417,7.034874,4.337206,12.546509,6.534875,0.000000,0.000000,0.034885,5.267454,13.290696,13.720933,9.476749,1.732559,0.046511,8
0.000000,0.301204,8.253011,14.168674,10.024088,2.385538,0.012048,0.000000,0.000000,3.722899,15.325297,10.445774,14.072289,10.132521,0.626505,0.000000,0.000000,6.120485,14.156625,2.530120,10.325292,14.349397,1.710846,0.000000,0.000000,2.433738,13.783136,12.891568,14.445784,15.481928,3.783140,0.000000,0.000000,0.108434,3.192769,7.132527,7.493975,14.891558,5.409641,0.000000,0.000000,0.084337,0.457831,0.204819,0.759040,13.228919,7.216860,0.000000,0.000000,0.795179,8.204805,6.915658,7.783143,14.674691,6.060231,0.000000,0.000000,0.216867,8.228918,14.060239,13.819264,9.252996,1.518070,0.000000,9
0.000000,0.186056,5.324159,12.952047,11.839863,4.716539,0.644261,0.000000,0.000000,3.046523,14.488954,11.327557,11.905394,12.044378,1.737294,0.000000,0.000000,4.070801,14.509507,10.133336,12.253288,14.744680,3.207231,0.000000,0.000000,1.510950,9.201726,11.855604,11.999773,14.484586,4.413315,0.000000,0.000000,0.023255,0.581304,1.070129,3.399285,13.328196,4.671253,0.000000,0.000000,0.116278,0.139545,0.488366,6.021301,13.999941,2.744931,0.000000,0.000000,0.162824,2.952607,9.441121,14.322036,8.867201,0.418732,0.000000,0.000000,0.116301,6.417182,12.790267,7.215904,1.002882,0.000012,0.000000,9
0.000000,0.089553,5.940288,13.208946,13.164170,4.761177,0.313434,0.000000,0.000000,2.611946,13.955217,6.761193,7.880597,12.552228,1.865658,0.000000,0.000000,5.492542,12.462675,0.999980,3.671624,14.626861,3.865665,0.000000,0.000000,3.074637,12.955237,8.925363,10.119397,15.402983,4.850749,0.000000,0.000000,0.119403,4.403000,7.955250,6.955247,12.194017,6.522390,0.000000,0.000000,0.074627,0.223881,0.089553,0.238807,9.507448,7.731346,0.000000,0.000000,0.597017,4.791047,3.865665,2.208949,11.776106,6.716427,0.000000,0.000000,0.044776,6.089543,14.104481,14.791054,11.194034,1.791051,0.000000,9
*****************************
0 => 100.00
0 => 100.00
0 => 100.00
0 => 100.00
0 => 98.59
1 => 93.75
1 => 90.00
1 => 96.88
2 => 100.00
2 => 100.00
2 => 97.50
3 => 99.29
3 => 94.83
3 => 100.00
4 => 99.38
4 => 100.00
4 => 95.88
5 => 100.00
5 => 98.32
5 => 97.98
6 => 98.36
6 => 97.54
6 => 98.54
7 => 99.35
7 => 92.68
7 => 100.00
8 => 98.23
8 => 92.21
8 => 98.84
9 => 98.80
9 => 90.70
9 => 100.00
*****************************