0.000000,0.022765,4.168713,13.481630,10.376490,1.753825,0.009090,0.000000,0.000000,1.327341,12.831757,12.814143,12.332596,9.635335,0.354328,0.000000,0.000000,4.290517,14.186286,4.823250,3.419028,13.068942,2.654116,0.000000,0.000000,5.377012,12.545867,1.836522,0.341197,9.105927,6.681206,0.000000,0.000000,5.599758,11.832463,0.995637,0.149985,7.450847,8.126876,0.000000,0.000000,3.186386,13.713990,1.750087,0.395983,9.478361,8.404077,0.000000,0.000000,0.654782,12.868318,9.896317,8.469555,14.763436,4.345032,0.000000,0.000000,0.018260,4.141200,13.568266,14.722248,8.081137,0.345419,0.000000,0
0.000000,0.039137,5.260512,12.823789,11.701355,3.832111,0.130748,0.000000,0.000000,0.960552,13.248587,13.476159,12.057053,12.231591,1.268656,0.000000,0.000000,3.307823,14.634255,4.384378,2.285473,12.187679,4.236593,0.000000,0.000000,5.046247,13.044954,1.300186,0.201955,9.323823,6.589554,0.000000,0.000000,5.268427,12.090142,0.711957,0.143821,10.436716,6.333799,0.000000,0.000000,3.594811,13.352081,1.594548,2.796767,14.142448,3.679708,0.000000,0.000000,0.986483,13.718840,11.475584,13.710577,11.672949,0.333364,0.000000,0.000000,0.025974,5.293733,13.620740,11.300939,1.960911,0.000000,0.000000,0
0.000000,0.000001,1.593725,12.173699,11.882513,2.692358,0.036699,0.000000,0.000003,0.300110,5.375740,15.046159,15.381850,4.675901,0.018239,0.000000,0.127159,2.089943,9.146754,15.245616,14.473344,2.912200,0.036479,0.000000,0.036331,2.898446,9.582949,15.291545,14.074289,2.048007,0.063801,0.000000,0.000000,0.937305,6.659545,14.882818,13.728618,1.402037,0.036331,0.000000,0.000000,0.128564,4.760578,14.365093,13.465516,1.874577,0.045418,0.000000,0.000000,0.009306,3.942457,14.301519,13.910952,4.350353,0.182111,0.000000,0.000000,0.000074,1.602070,11.091655,13.553831,5.465963,0.482207,0.000000,1
0.000000,0.538465,8.320161,14.449042,12.844541,3.330716,0.215839,0.000000,0.000000,3.832357,14.371308,11.346657,14.129692,7.907816,0.407982,0.000000,0.000000,2.628684,5.347979,2.205321,13.283048,7.049004,0.229796,0.000000,0.000000,0.320503,0.807683,6.498712,13.859005,2.781384,0.012821,0.000000,0.000000,0.012821,2.102065,13.549975,8.667187,0.089748,0.000000,0.000000,0.000000,0.577085,9.704612,13.526469,1.885621,0.308364,0.051282,0.000000,0.064103,2.308820,13.897392,12.744596,8.182119,8.105190,3.693262,0.128205,0.012821,0.641023,8.896260,14.523028,14.626256,12.371125,5.679768,0.320513,2
0.000000,1.106650,11.396659,14.221775,5.138092,0.038175,0.000000,0.000000,0.000000,5.358363,14.923712,12.709456,13.367492,1.222012,0.000000,0.000000,0.000000,4.785737,9.282619,2.854927,13.831791,3.215273,0.000000,0.000000,0.000000,1.213835,2.443300,1.854217,14.205311,3.215516,0.000000,0.000000,0.000000,0.091619,0.152699,5.357168,13.519841,1.321572,0.000000,0.000000,0.000000,0.007576,1.486916,11.753955,10.215103,0.824940,0.320789,0.000000,0.000000,0.830844,11.075097,15.824397,13.182885,11.166485,7.999420,0.374116,0.000000,1.099013,11.534507,13.779895,12.664653,12.740525,11.260363,1.428097,2
0.000000,0.392600,8.088307,14.633376,10.736209,1.722396,0.000000,0.000000,0.000000,3.735032,14.214304,12.328256,13.594691,9.166170,0.088653,0.000000,0.000000,3.950010,9.947502,3.895502,7.706146,12.772896,0.658398,0.000000,0.000000,1.076496,3.315626,1.175141,7.503726,12.659212,0.671208,0.000000,0.000000,0.025329,0.088653,1.126492,11.543080,9.279402,0.291283,0.000000,0.000000,0.000000,0.443263,6.608556,13.746351,5.353887,0.354101,0.000000,0.000000,0.177308,7.872225,14.987486,14.340922,10.393129,7.481914,0.861180,0.000000,0.303787,8.366609,13.721384,11.722596,10.583811,10.330007,2.709213,2
0.000000,1.702406,13.072187,12.738235,2.809360,0.000000,0.000000,0.000000,0.000000,6.868717,14.905210,14.548111,7.988666,0.083288,0.000000,0.000000,0.000000,6.249475,7.607750,9.784179,9.799633,0.071390,0.000000,0.000000,0.000000,1.832618,2.844513,10.782446,8.456189,0.035695,0.000000,0.000000,0.000000,0.154678,3.224449,13.652649,4.384653,0.035695,0.011898,0.000000,0.000000,0.594915,8.605178,12.466035,1.788925,0.678203,0.559355,0.000000,0.000000,3.226592,14.655474,14.476998,12.810825,12.823116,7.406817,0.107085,0.000000,1.773932,12.987960,14.308412,13.284749,11.905352,6.966338,0.273663,2
0.000000,0.875541,9.065977,14.170927,12.953588,4.946593,0.237760,0.000000,0.000000,4.474521,13.159385,9.209915,12.547935,10.350833,0.771263,0.000000,0.000000,1.544531,2.770406,3.486149,12.591141,8.160199,0.307599,0.000000,0.000000,0.081695,2.069981,11.361646,14.661207,5.299019,0.093365,0.000000,0.000000,0.038902,1.750783,7.626569,12.903316,13.076489,2.318526,0.000000,0.000000,0.050573,0.396888,0.256940,2.748408,13.650209,6.699368,0.000000,0.000000,0.964902,7.516912,6.630499,8.556586,14.225604,5.345888,0.003890,0.000000,0.669260,10.139976,14.587523,12.672980,6.848283,0.727843,0.000000,3
0.000000,0.000000,0.020550,4.828893,13.048423,2.397250,0.143849,0.089049,0.000000,0.000000,1.274093,13.123393,9.917895,1.143897,1.952241,0.431547,0.000000,0.178099,8.575490,13.452004,2.102796,4.917661,6.157786,0.417848,0.000000,3.698790,14.815146,6.266677,2.465138,12.170967,7.390731,0.054800,0.034250,9.288172,15.157833,9.890402,12.191705,15.499999,5.479687,0.000000,0.226049,6.589568,11.726660,12.130571,15.075539,12.965699,1.739654,0.000000,0.047950,0.726096,1.548091,4.417659,14.849536,5.369943,0.061650,0.000000,0.000000,0.006850,0.054800,5.684949,13.191987,2.137046,0.000000,0.000000,4
0.000000,0.000087,1.166410,11.495696,8.867409,1.117209,1.182503,0.348747,0.000000,0.156270,6.816191,14.623030,4.493654,3.877730,3.979110,0.596454,0.000000,1.879816,13.769175,8.954546,2.321134,9.594788,5.420237,0.357924,0.000000,6.522074,15.393332,8.033831,9.988304,14.247003,6.741459,0.009178,0.000000,5.836547,14.322176,14.100864,15.505107,14.229787,4.762767,0.000000,0.009178,1.496457,4.388767,8.701168,15.165717,6.716972,0.642948,0.000000,0.000000,0.064329,0.487795,9.856131,12.567870,1.137486,0.000000,0.000000,0.000000,0.000000,1.165978,12.845393,7.989762,0.246752,0.000000,0.000000,4
0.000000,0.000000,0.000000,2.793821,12.979384,4.391748,0.030928,0.000000,0.000000,0.000000,0.082479,7.927844,13.556699,2.350513,0.010309,0.020619,0.000000,0.000000,1.639187,13.453610,8.381436,2.618554,1.505153,0.103093,0.000000,0.226809,8.896915,12.525768,3.144327,8.453599,4.237109,0.010309,0.000000,4.402069,14.721651,6.742263,6.876284,13.793808,4.030927,0.000000,0.731958,11.443301,15.463918,13.278351,14.824742,14.804125,2.896911,0.000000,0.577319,6.175254,9.041243,10.020625,15.123712,10.865981,0.969071,0.000000,0.000000,0.144330,0.257734,3.474236,13.927837,5.288660,0.092783,0.000000,4
0.000000,0.585532,9.475027,13.511126,13.850559,11.040962,3.112262,0.245115,0.000000,3.623620,14.699022,14.827908,12.467626,10.673708,3.016789,0.056565,0.000000,3.832731,13.321892,9.130027,1.376671,0.603283,0.226236,0.000000,0.000000,2.947509,10.494352,13.209534,4.436805,0.075420,0.000000,0.000000,0.000000,0.567025,3.755896,11.412720,10.719748,0.848948,0.000000,0.000000,0.000000,0.037722,0.395949,6.562711,13.944763,2.020095,0.018855,0.000000,0.000000,0.679116,7.112716,12.204688,13.266072,1.246162,0.000000,0.000000,0.000000,0.453535,10.793920,14.529211,6.494542,0.207388,0.000000,0.000000,5
0.000000,0.517445,7.742496,12.967121,14.294673,11.560795,2.939556,0.081679,0.011770,4.093864,14.636283,13.446552,10.329432,8.766768,1.998737,0.046512,0.011770,5.656960,14.283461,4.460765,0.494616,0.117841,0.011912,0.000000,0.000000,5.505084,15.153008,12.202960,6.250921,0.377211,0.000000,0.000000,0.000000,2.022824,9.046805,11.657818,14.400450,4.743243,0.035310,0.000000,0.000000,0.058565,0.399482,1.421316,11.563199,10.426034,0.434768,0.000000,0.000000,0.305886,4.885176,7.588616,14.036600,9.319984,0.493326,0.000000,0.000000,0.293825,8.649626,14.717676,11.353550,2.787592,0.023540,0.000000,5
0.000000,0.386119,7.806937,12.701155,13.745350,12.115675,4.202953,0.000000,0.000000,2.070284,14.044276,12.622816,8.885837,7.419701,2.482327,0.000000,0.000000,3.456483,14.675474,7.184442,2.412848,0.429917,0.043797,0.000000,0.000000,4.648269,14.666219,14.956680,13.966020,5.966181,0.315916,0.000000,0.000000,1.333067,5.542319,4.840117,9.314471,12.999920,1.973677,0.000000,0.000000,0.105304,0.473866,0.175499,3.613481,14.123332,2.332750,0.000000,0.000000,0.623050,5.517186,7.219144,12.385955,11.797210,0.876906,0.000000,0.000000,0.351015,8.727879,14.420825,11.034070,2.832552,0.087754,0.000000,5
0.000000,1.256705,8.574910,13.449208,14.612430,11.842436,2.130709,0.000000,0.064446,6.775745,14.903986,14.163091,10.779385,9.064447,2.387760,0.000000,0.128893,9.811020,12.517736,3.100168,0.549846,0.386678,0.161116,0.000000,0.000000,6.777538,14.163041,3.646836,0.032278,0.000000,0.000000,0.000000,0.000000,1.453311,12.871028,11.616592,1.423737,0.000028,0.000000,0.000000,0.000000,0.096670,4.608974,13.415391,7.169738,0.553864,0.000000,0.000000,0.000000,0.290009,6.155065,12.929365,8.490731,1.336219,0.032223,0.000000,0.000000,1.031142,10.314042,13.485536,4.721267,0.884789,0.000000,0.000000,5
0.000000,0.000000,1.418182,10.418122,8.982257,1.197859,0.000000,0.000000,0.000000,0.027465,6.633208,14.636323,6.948844,0.879012,0.000000,0.000000,0.000000,0.456286,11.896322,10.937916,0.878897,0.000000,0.000000,0.000000,0.000000,1.495165,13.505552,7.191363,0.324599,0.087945,0.027465,0.000000,0.000000,2.747869,14.159553,10.045031,9.221181,5.880107,0.813157,0.000000,0.000000,1.995163,14.571752,14.422640,12.432993,13.829859,7.515857,0.186760,0.000000,0.379128,10.138213,14.384073,7.988753,11.846939,11.668797,1.038164,0.000000,0.005493,1.544519,9.616356,14.379384,13.630573,6.580736,0.373519,6
0.000000,0.012270,2.404955,11.576478,7.043490,0.760844,0.000000,0.000000,0.000000,0.312896,9.043089,13.275974,4.374673,0.558345,0.000000,0.000000,0.000000,1.429651,13.215031,7.091843,0.208710,0.067487,0.000000,0.000000,0.000000,2.601513,14.288355,6.884080,5.001105,2.184665,0.104299,0.000000,0.000000,3.601358,14.901875,13.570242,13.563986,13.141303,3.742325,0.000000,0.000000,1.963109,14.914105,9.207830,2.539089,7.367875,11.840448,0.202462,0.000000,0.447943,10.963181,11.625563,4.067410,9.435521,12.515168,0.742361,0.000000,0.030676,2.331222,11.092022,14.846544,12.993830,5.374250,0.196327,6
0.000000,0.000044,3.413542,12.013994,14.115316,14.067329,9.700846,2.168257,0.000000,0.317703,7.230502,10.750150,9.432844,13.250463,11.998418,1.816957,0.000000,0.155323,1.614573,0.567463,1.805377,12.696641,8.262082,0.290464,0.000000,0.283709,1.790382,4.317840,9.271254,14.452886,4.891828,0.013510,0.000000,0.999735,6.743050,13.033906,15.412273,14.088252,4.669530,0.000000,0.000000,0.925649,3.297352,9.277572,13.925607,4.676375,0.533995,0.000000,0.000000,0.047285,1.216818,12.986451,8.817786,0.385644,0.000044,0.000000,0.000000,0.000000,4.116324,13.635448,3.196152,0.027063,0.000000,0.000000,7
0.000000,0.643340,9.325023,14.662044,14.674700,9.771833,1.720834,0.012739,0.000000,1.012297,9.826721,10.050264,12.916541,12.816135,2.013674,0.000000,0.000000,0.388227,1.107432,1.190480,11.305013,10.770734,0.757670,0.000000,0.000000,0.624352,4.504352,8.669435,14.993837,10.343924,3.216451,0.000000,0.000000,2.338084,11.605936,15.509654,15.452004,13.484132,6.082765,0.000000,0.000000,0.923401,5.553222,14.426809,8.896495,4.228605,1.184555,0.000000,0.000000,0.197460,6.860159,13.757869,2.667187,0.069864,0.006370,0.000000,0.000000,0.707036,10.688218,9.737902,0.483730,0.000000,0.000000,0.000000,7
0.000000,0.506954,9.293439,14.094547,14.841920,14.934787,10.234163,0.774866,0.000000,1.255436,9.469912,9.947766,9.066161,14.558614,11.352354,0.601342,0.000000,0.654324,1.696627,0.947535,5.212950,15.000732,4.564860,0.053385,0.000000,0.426501,4.464175,8.372625,14.253341,12.757312,4.333072,0.000000,0.000000,0.705446,6.180786,12.395499,14.852051,8.017987,2.568012,0.000000,0.000000,0.413746,2.483873,14.039307,7.837940,0.903390,0.119362,0.000000,0.000000,0.133462,7.443457,14.638718,1.812168,0.000000,0.000000,0.000000,0.000000,0.400379,11.640643,10.213532,0.522551,0.135721,0.000188,0.000000,7
0.000000,0.072180,4.371540,12.226528,13.000434,6.650382,0.598066,0.000000,0.000000,2.525575,14.051342,9.195156,8.658969,12.608486,2.928246,0.000000,0.000000,5.453288,13.701822,4.103956,6.453712,12.720932,2.422876,0.000000,0.000000,1.979601,12.042121,14.258006,14.949406,9.112867,0.432760,0.000000,0.000000,0.360902,7.702693,13.876913,12.803435,10.783125,1.515680,0.000000,0.000000,0.690869,11.022123,7.247041,2.854676,12.091945,5.175725,0.000000,0.000000,0.453705,11.824808,8.813633,5.257358,13.886573,4.906985,0.000000,0.000000,0.010311,4.608166,13.361015,13.752311,8.669496,0.947477,0.000000,8
0.000000,0.063104,5.174116,12.480557,12.779184,6.676415,0.637657,0.000000,0.000000,2.086354,13.258779,10.731595,8.701919,13.259502,2.542635,0.000000,0.000000,3.156553,12.108346,6.740857,7.521869,12.424469,2.283004,0.000000,0.000000,1.188589,9.243641,13.591207,13.921265,7.116035,0.747698,0.000000,0.000000,0.457243,8.552690,15.125849,12.912488,1.967904,0.055111,0.000000,0.000000,1.535246,12.440344,7.669029,12.314683,8.110892,0.165517,0.000000,0.000000,1.637838,13.274886,6.747700,8.338548,12.921393,1.315889,0.000000,0.000000,0.110526,5.402557,13.205244,14.141771,8.133961,0.574914,0.000000,8
0.000000,0.334087,8.196569,13.543943,12.258552,6.547867,0.439724,0.000000,0.000000,3.394949,14.740978,9.499448,8.892785,12.242259,3.029607,0.000000,0.000000,3.423615,12.904716,4.740838,8.559629,11.954329,2.605285,0.000000,0.000000,1.227517,9.604130,12.120164,12.953800,5.333332,0.591038,0.000000,0.000000,0.090931,6.076010,15.257188,9.864000,0.878978,0.151551,0.000000,0.000000,0.409188,10.922174,12.830957,11.093719,0.803418,0.000000,0.000000,0.000000,1.258093,13.073223,9.665428,12.685914,2.045881,0.000000,0.000000,0.000000,0.288615,8.788071,14.363066,9.502193,1.015371,0.000000,0.000000,8
0.000000,0.162296,6.811053,13.863714,11.578633,3.454385,0.110222,0.000000,0.000000,2.986722,14.798614,9.377892,11.585429,11.519815,1.233557,0.000000,0.000000,5.713870,13.728237,3.152640,8.132691,14.720105,2.967321,0.000000,0.000000,2.869669,13.329862,11.389778,12.402980,15.226768,4.505779,0.000000,0.000000,0.129870,3.609926,6.791026,6.532047,13.792758,5.902087,0.000000,0.000000,0.097361,0.305448,0.253292,1.170519,12.780241,6.537694,0.000000,0.000000,0.590575,5.564520,6.287235,7.302039,13.526061,4.725456,0.000000,0.000000,0.136322,7.181644,14.071208,13.089597,7.984856,0.973015,0.000000,9
*****************************
0 => 99.55
0 => 100.00
1 => 93.64
2 => 98.72
2 => 100.00
2 => 91.14
2 => 100.00
3 => 98.83
4 => 99.32
4 => 94.50
4 => 98.97
5 => 100.00
5 => 100.00
5 => 97.37
5 => 96.77
6 => 97.80
6 => 98.77
7 => 96.62
7 => 100.00
7 => 97.33
8 => 97.94
8 => 99.21
8 => 93.94
9 => 97.40
*****************************