0.000412,0.005761,3.824280,13.011111,12.153909,3.375309,0.086008,0.002881,0.002058,1.108230,12.994650,13.035391,11.756379,11.602058,1.041975,0.003292,0.004938,4.293004,14.466667,4.071605,1.537860,11.627572,3.763374,0.005761,0.000000,5.548148,12.713169,1.659671,0.007819,6.991770,7.135802,0.004115,0.002469,5.166667,12.205761,1.018519,0.003292,6.335802,8.062551,0.001646,0.001235,2.506173,13.622634,2.358025,0.857202,9.848971,7.426749,0.005350,0.000412,0.470370,12.296296,10.977778,9.962551,14.165021,3.239506,0.006584,0.003292,0.008642,3.712346,13.218930,13.922634,6.271193,0.216049,0.005350,0
0.000233,0.027668,4.806092,13.291095,10.607533,2.256684,0.053476,0.002325,0.001163,1.097419,13.029063,13.190653,12.812137,10.537549,0.562892,0.001860,0.002558,3.561032,14.622878,4.480121,3.664729,13.650779,3.007905,0.002558,0.000000,4.870728,13.042548,1.857708,0.827947,11.218321,5.974890,0.002558,0.001628,5.152988,11.387352,0.772844,0.226924,11.275982,6.378284,0.003255,0.003720,3.407812,12.945594,1.342013,2.170658,13.761683,4.681934,0.002558,0.002325,0.818647,13.113694,10.847245,12.542897,12.741455,1.184841,0.010695,0.000930,0.013485,4.955127,13.730760,12.156010,3.460126,0.103464,0.016043,0
0.197368,0.144737,4.052632,13.710526,14.552632,5.171053,0.131579,0.118421,0.184211,2.750000,11.921053,11.684211,7.815789,13.815789,1.644737,0.000000,0.131579,6.157895,13.263158,3.486842,0.460526,10.815789,6.236842,0.184211,0.118421,7.907895,10.750000,0.473684,0.026316,6.157895,9.828947,0.052632,0.131579,8.039474,10.657895,0.184211,0.013158,4.539474,10.618421,0.039474,0.171053,4.881579,13.539474,1.605263,0.105263,6.171053,10.815789,0.000000,0.157895,0.842105,13.223684,9.684211,4.934211,13.039474,7.526316,0.092105,0.184211,0.052632,4.157895,12.723684,15.605263,12.881579,0.894737,0.078947,0
0.017123,0.046233,1.938356,8.414384,13.077055,7.587329,1.018836,0.174658,0.001712,0.248288,4.022260,14.357877,15.785959,12.837329,1.402397,0.068493,0.022260,1.633562,8.890411,15.496575,15.669521,12.669521,0.945205,0.003425,0.000000,2.748288,9.169521,14.047945,15.833904,12.327055,1.285959,0.006849,0.013699,0.811644,3.731164,10.578767,15.392123,12.339041,1.198630,0.008562,0.001712,0.075342,1.671233,9.537671,15.203767,12.205479,1.368151,0.017123,0.023973,0.034247,2.570205,10.698630,15.678082,12.818493,2.037671,0.068493,0.003425,0.035959,1.914384,8.183219,13.859589,9.299658,1.765411,0.073630,1
0.004926,0.004516,0.000821,0.618227,10.022167,12.524220,1.603859,0.000000,0.004105,0.036125,0.281609,4.386700,14.410509,14.561576,2.525452,0.000821,0.002463,0.907225,4.481117,11.589080,15.148194,13.162972,1.302545,0.000411,0.000821,4.160099,13.002874,13.561576,14.752053,12.211412,1.062397,0.004105,0.006158,3.904762,9.298030,6.466338,14.319787,11.845649,0.954844,0.003284,0.006568,0.425698,1.145731,1.833333,13.548030,12.068555,0.788998,0.000821,0.003284,0.001642,0.131773,1.381773,13.122742,12.756979,1.597291,0.001232,0.005337,0.001642,0.006158,0.511905,9.900246,13.784072,2.993842,0.001642,1
0.041558,1.963636,12.844156,12.929870,4.000000,0.049351,0.028571,0.015584,0.023377,7.244156,14.675325,14.555844,9.064935,0.451948,0.000000,0.020779,0.025974,5.540260,5.779221,9.787013,10.337662,0.363636,0.020779,0.028571,0.028571,1.077922,1.607792,11.693506,8.290909,0.085714,0.000000,0.025974,0.041558,0.057143,3.950649,14.418182,3.706494,0.054545,0.012987,0.012987,0.036364,0.659740,10.431169,11.807792,1.020779,0.711688,0.602597,0.010390,0.010390,3.524675,15.072727,13.992208,12.550649,12.906494,7.353247,0.064935,0.012987,2.000000,12.864935,14.711688,13.849351,11.883117,6.636364,0.277922,2
0.000027,0.773966,10.402542,14.079456,6.288190,0.371397,0.000675,0.000054,0.000000,4.553330,14.488071,12.649142,12.693998,2.532360,0.001080,0.000270,0.004507,5.004750,9.866917,3.936522,12.284978,4.329834,0.005587,0.000324,0.000162,1.575569,3.766841,3.634865,12.746815,3.960002,0.010121,0.000135,0.000432,0.140748,0.395633,6.551522,12.623772,1.945374,0.002537,0.000243,0.000189,0.055571,2.104799,11.418844,9.842977,1.536624,0.331858,0.000243,0.000405,0.830239,10.832937,15.241633,12.916874,11.017705,7.481216,0.552224,0.000270,0.790781,10.500918,13.998354,13.047474,12.595514,10.318417,1.732133,2
0.022039,1.396694,10.746556,14.107438,11.090909,3.118457,0.041322,0.016529,0.000000,4.203857,11.504132,8.774105,13.906336,7.369146,0.261708,0.044077,0.024793,1.066116,2.085399,6.881543,13.909091,3.914601,0.033058,0.019284,0.041322,0.278237,5.994490,13.856749,10.407713,2.360882,0.033058,0.016529,0.022039,0.140496,3.798898,10.732782,13.404959,8.818182,1.622590,0.016529,0.016529,0.190083,0.796143,0.903581,6.592287,14.068871,3.942149,0.013774,0.035813,1.396694,6.900826,7.129477,11.030303,13.192837,3.151515,0.022039,0.027548,1.369146,12.575758,13.611570,10.057851,4.625344,0.534435,0.005510,3
0.166667,0.625000,11.708333,9.500000,0.208333,0.500000,3.625000,1.770833,0.020833,4.083333,15.458333,6.375000,0.270833,7.375000,11.750000,1.666667,0.020833,6.375000,15.479167,4.375000,5.708333,15.000000,8.125000,0.083333,0.208333,5.083333,13.333333,11.062500,14.208333,13.583333,3.125000,0.041667,0.250000,1.312500,7.145833,12.687500,15.062500,6.833333,0.770833,0.250000,0.333333,0.187500,2.937500,13.895833,8.583333,0.791667,0.125000,0.208333,0.187500,0.145833,8.354167,13.375000,1.083333,0.020833,0.229167,0.208333,0.041667,0.666667,12.666667,7.541667,0.020833,0.187500,0.062500,0.020833,4
0.003425,0.003710,0.068493,4.313356,12.844178,2.743436,0.031107,0.005708,0.001427,0.005708,1.068208,11.281393,10.761986,0.735731,0.414669,0.190354,0.000856,0.108162,6.095034,13.446918,3.638128,1.679509,3.611587,0.438927,0.002854,2.374715,12.706050,7.854167,0.605594,9.575913,7.622432,0.097032,0.044521,7.981164,14.479452,2.955765,5.549943,14.960902,4.315068,0.002854,0.722603,11.985160,15.321347,13.426370,14.852740,13.654966,1.616724,0.002283,0.463756,4.262272,7.610160,9.002568,15.323345,6.610731,0.139269,0.000285,0.000571,0.061644,0.289954,5.073916,12.948059,2.514555,0.002854,0.001998,4
0.000000,0.079365,0.142857,1.984127,14.285714,5.761905,0.079365,0.190476,0.000000,0.015873,0.253968,5.746032,15.269841,3.095238,0.190476,0.142857,0.079365,0.126984,0.380952,11.365079,11.777778,3.380952,3.031746,0.333333,0.111111,0.015873,5.555556,14.460317,4.206349,11.888889,5.920635,0.142857,0.000000,3.619048,14.047619,10.285714,6.365079,15.126984,4.857143,0.111111,1.761905,13.777778,15.650794,14.190476,14.952381,15.079365,2.492063,0.158730,1.365079,8.920635,10.222222,10.476190,15.063492,12.507937,1.349206,0.142857,0.047619,0.222222,0.412698,2.793651,14.634921,6.031746,0.253968,0.111111,4
0.375000,0.625000,0.916667,5.041667,12.333333,0.791667,0.166667,0.083333,0.125000,0.291667,0.791667,10.958333,10.958333,0.000000,0.291667,0.333333,0.375000,0.125000,3.208333,13.916667,5.791667,0.083333,0.000000,0.208333,0.000000,0.666667,9.250000,12.083333,2.916667,1.166667,0.125000,0.000000,0.000000,1.875000,14.916667,7.833333,12.083333,5.166667,0.666667,0.625000,0.208333,10.500000,15.458333,10.958333,15.708333,11.208333,1.000000,0.166667,0.791667,13.250000,15.416667,15.625000,14.958333,15.000000,4.125000,0.333333,0.125000,1.583333,1.958333,8.291667,14.166667,3.833333,0.541667,0.666667,4
0.006554,0.466292,8.299157,13.060861,13.992509,12.135768,4.018258,0.001873,0.011704,2.404494,14.351124,11.596442,8.107210,7.432584,2.397004,0.007491,0.003745,4.023876,14.845037,6.248127,3.057116,1.220974,0.217697,0.002809,0.004213,4.929775,15.086142,14.545880,13.279963,6.708801,0.579120,0.003277,0.002809,1.412453,5.486891,4.553839,8.416667,11.835674,2.327247,0.001873,0.004213,0.067884,0.270599,0.062734,4.144663,13.016854,2.541199,0.006086,0.001404,0.733614,6.264045,6.480805,11.539794,11.486891,0.926498,0.004682,0.003745,0.400749,9.351592,14.519663,11.238296,2.895131,0.069288,0.002341,5
0.000024,0.000095,1.151383,10.446429,9.618392,1.358588,0.001018,0.000616,0.000095,0.030883,6.572257,14.935511,7.241190,0.930016,0.000734,0.000521,0.000142,0.444344,11.856811,10.961302,0.867563,0.001800,0.001397,0.000379,0.000000,1.471746,13.574436,7.609795,1.213717,0.240929,0.010042,0.000166,0.000308,2.462983,14.451070,11.561576,11.001255,7.577799,1.203013,0.000024,0.000024,1.527070,14.372774,13.307763,9.931248,12.522949,8.565105,0.190958,0.000189,0.217175,9.560155,13.891105,6.800422,11.184587,12.186032,1.023423,0.000071,0.004500,1.255731,9.641294,14.628458,13.659625,6.678050,0.370832,6
0.023810,0.061508,3.279762,12.652778,5.349206,0.095238,0.007937,0.019841,0.001984,0.638889,9.960317,12.323413,2.484127,0.057540,0.003968,0.015873,0.003968,2.043651,13.424603,5.255952,0.075397,0.000000,0.007937,0.029762,0.029762,3.154762,14.202381,5.119048,4.809524,1.886905,0.035714,0.023810,0.013889,4.210317,14.890873,14.319444,14.101190,13.402778,3.918651,0.019841,0.007937,2.369048,15.242063,8.680556,1.835317,5.615079,12.248016,0.359127,0.013889,0.567460,11.956349,10.511905,2.182540,6.398810,14.029762,1.146825,0.015873,0.087302,3.073413,11.771825,15.331349,14.460317,7.103175,0.250000,6
0.060870,0.017391,6.321739,10.286957,2.269565,0.173913,0.060870,0.069565,0.139130,0.704348,12.373913,8.486957,1.313043,0.208696,0.026087,0.095652,0.052174,1.913043,14.156522,3.391304,0.756522,0.130435,0.052174,0.034783,0.069565,3.513043,14.217391,7.895652,6.521739,2.921739,0.347826,0.060870,0.104348,5.739130,13.956522,13.939130,13.886957,12.434783,2.191304,0.139130,0.104348,3.904348,15.121739,5.217391,3.121739,11.991304,8.347826,0.000000,0.060870,1.495652,14.556522,8.139130,6.034783,13.913043,6.643478,0.000000,0.026087,0.182609,6.200000,13.886957,13.669565,8.252174,0.947826,0.104348,6
3.000000,3.750000,0.000000,0.000000,9.750000,5.250000,2.250000,2.250000,3.000000,15.250000,12.750000,14.000000,12.750000,10.500000,2.500000,1.250000,3.000000,3.250000,6.250000,5.250000,14.000000,7.250000,0.750000,1.500000,0.750000,3.500000,4.750000,3.250000,15.500000,6.250000,0.500000,0.250000,0.500000,5.500000,14.750000,16.000000,13.750000,12.000000,3.750000,3.250000,2.750000,2.250000,5.000000,1.250000,14.250000,6.500000,1.750000,3.500000,0.250000,0.500000,0.750000,2.000000,12.250000,7.000000,1.250000,0.750000,0.250000,3.500000,0.750000,0.250000,7.500000,11.250000,0.000000,2.000000,7
0.011272,1.417069,12.468599,15.247987,14.789050,10.264090,2.183575,0.032206,0.012882,1.409018,9.351047,8.830918,13.157810,12.516908,1.993559,0.019324,0.025765,0.273752,0.454106,1.140097,13.045089,9.099839,0.291465,0.017713,0.019324,1.088567,5.487923,9.769726,15.434783,8.608696,2.594203,0.011272,0.009662,3.376812,12.795491,15.777778,15.135266,13.929147,6.714976,0.009662,0.009662,0.861514,6.742351,14.613527,6.086957,4.077295,1.463768,0.001610,0.006441,0.574879,10.708535,11.570048,0.734300,0.404187,0.196457,0.016103,0.008052,1.623188,13.637681,6.856683,0.442834,0.256039,0.149758,0.003221,7
0.028011,0.005602,3.263305,12.005602,14.621849,14.913165,13.394958,5.282913,0.011204,0.064426,5.047619,9.563025,8.134454,10.927171,14.801120,4.509804,0.014006,0.008403,0.364146,0.137255,0.179272,9.526611,11.971989,0.733894,0.008403,0.109244,0.787115,3.336134,6.733894,14.619048,7.302521,0.058824,0.039216,0.865546,7.028011,13.904762,15.229692,14.302521,4.899160,0.030812,0.002801,0.963585,3.792717,8.498599,14.151261,4.703081,0.322129,0.028011,0.019608,0.011204,1.316527,11.703081,9.904762,0.414566,0.022409,0.019608,0.033613,0.033613,4.226891,13.282913,3.616246,0.033613,0.016807,0.022409,7
0.020408,0.142857,7.170068,13.591837,11.476190,5.047619,0.479592,0.010204,0.054422,1.078231,12.431973,11.727891,9.608844,11.649660,2.108844,0.051020,0.000000,0.367347,9.656463,9.972789,5.455782,10.442177,2.632653,0.027211,0.027211,0.013605,3.465986,14.404762,12.482993,8.187075,1.312925,0.013605,0.010204,0.197279,6.833333,14.778912,12.901361,2.091837,0.204082,0.020408,0.040816,1.935374,12.904762,6.064626,12.608844,4.659864,0.023810,0.040816,0.027211,2.697279,13.227891,4.887755,10.425170,8.278912,0.353741,0.030612,0.051020,0.221088,7.823129,13.806122,13.244898,4.938776,0.190476,0.020408,8
0.500000,1.500000,6.250000,2.500000,8.250000,10.750000,3.250000,0.250000,1.250000,4.000000,13.500000,5.750000,7.500000,11.250000,8.750000,0.000000,0.250000,2.250000,12.250000,2.000000,5.250000,14.250000,2.250000,3.000000,3.750000,0.750000,9.750000,14.250000,9.250000,3.000000,0.750000,0.500000,0.500000,1.750000,12.250000,15.000000,1.000000,2.500000,3.500000,2.500000,2.000000,5.000000,9.500000,12.000000,7.750000,1.750000,0.750000,3.000000,4.000000,3.750000,11.250000,4.750000,10.500000,1.250000,0.250000,2.000000,1.250000,2.250000,11.500000,15.500000,10.250000,1.000000,0.250000,2.750000,8
3.000000,3.750000,4.000000,14.000000,10.000000,1.750000,0.000000,1.750000,2.000000,3.000000,13.000000,12.750000,11.750000,0.250000,1.250000,3.500000,0.500000,8.000000,15.250000,3.000000,9.000000,13.750000,2.750000,1.500000,0.500000,8.000000,16.000000,15.000000,15.250000,14.250000,9.000000,3.500000,0.250000,1.250000,8.500000,4.250000,6.750000,13.750000,9.250000,1.250000,2.250000,0.000000,0.250000,2.750000,9.500000,14.750000,6.000000,2.000000,2.000000,2.250000,5.000000,13.000000,15.000000,7.000000,2.000000,2.500000,4.000000,3.250000,8.000000,16.000000,8.500000,2.250000,0.000000,1.750000,9
3.250000,1.750000,13.750000,15.750000,9.750000,0.750000,2.500000,3.750000,1.750000,9.250000,11.750000,9.250000,14.500000,9.250000,0.250000,0.250000,1.000000,12.000000,14.000000,14.250000,14.250000,10.250000,1.000000,3.750000,3.250000,0.500000,6.250000,6.000000,8.000000,12.750000,4.500000,3.250000,0.750000,2.750000,0.500000,2.500000,0.500000,14.500000,3.250000,0.250000,3.000000,1.000000,1.500000,3.000000,1.250000,12.000000,9.250000,4.000000,0.500000,5.500000,15.750000,3.250000,10.250000,14.000000,1.250000,0.750000,1.250000,2.750000,13.000000,14.750000,11.250000,1.750000,0.000000,3.250000,9
*****************************
0 => 100.00
0 => 94.62
0 => 100.00
1 => 93.06
1 => 90.36
2 => 100.00
2 => 91.91
3 => 96.88
4 => 100.00
4 => 100.00
4 => 100.00
4 => 100.00
5 => 96.05
6 => 98.27
6 => 100.00
6 => 90.91
7 => 100.00
7 => 97.06
7 => 100.00
8 => 90.24
8 => 100.00
9 => 100.00
9 => 100.00
*****************************