0.000000,0.029255,4.553191,13.178191,10.944149,2.635638,0.058511,0.000000,0.000000,1.167553,12.973404,13.103723,12.276596,10.718085,0.739362,0.000000,0.000000,3.875000,14.372340,4.691489,2.997340,12.731383,3.327128,0.000000,0.000000,5.228723,12.755319,1.664894,0.329787,9.215426,6.630319,0.000000,0.000000,5.425532,11.909574,0.944149,0.180851,8.670213,7.388298,0.000000,0.000000,3.316489,13.529255,1.795213,1.454787,11.385638,6.454787,0.000000,0.000000,0.763298,13.119681,10.571809,10.638298,13.486702,2.694149,0.000000,0.000000,0.018617,4.566489,13.553191,13.324468,5.561170,0.202128,0.000000,0
0.000000,0.015424,2.344473,9.017995,11.074550,5.773779,0.519280,0.000000,0.000000,0.218509,4.778920,12.606684,14.830334,9.244216,0.910026,0.000000,0.033419,1.416452,8.071979,14.676093,14.917738,8.169666,0.547558,0.000000,0.010283,2.447301,10.107969,14.678663,14.676093,7.501285,0.457584,0.000000,0.000000,1.629820,7.460154,12.074550,14.493573,7.267352,0.403599,0.000000,0.000000,0.383033,4.706941,10.542416,14.215938,7.724936,0.557841,0.000000,0.000000,0.136247,4.473008,10.938303,14.467866,9.534704,1.637532,0.190231,0.000000,0.038560,2.329049,8.637532,12.568123,8.987147,2.331620,0.498715,1
0.000000,0.942105,10.342105,13.950000,7.610526,1.384211,0.094737,0.000000,0.000000,4.955263,14.623684,12.626316,12.136842,4.260526,0.276316,0.000000,0.000000,4.426316,8.097368,4.263158,11.126316,5.460526,0.331579,0.000000,0.000000,1.121053,2.347368,4.605263,11.415789,4.444737,0.136842,0.000000,0.000000,0.073684,1.221053,8.150000,10.189474,2.255263,0.057895,0.000000,0.000000,0.252632,4.650000,11.415789,7.110526,1.421053,0.331579,0.000000,0.013158,1.544737,11.865789,14.634211,12.052632,10.652632,6.828947,0.363158,0.002632,0.965789,10.560526,14.044737,13.202632,12.184211,8.897368,1.207895,2
0.000000,0.820051,8.771208,13.933162,13.159383,5.622108,0.681234,0.041131,0.000000,4.259640,13.015424,9.318766,11.928021,10.776350,1.670951,0.043702,0.000000,1.712082,3.331620,3.285347,11.632391,9.046272,0.742931,0.000000,0.000000,0.146530,2.161954,10.550129,14.226221,6.041131,0.221080,0.000000,0.000000,0.056555,1.668380,7.665810,12.442159,11.943445,2.537275,0.000000,0.000000,0.046272,0.488432,0.660668,3.848329,12.812339,6.709512,0.007712,0.000000,0.897172,7.326478,6.460154,8.311054,13.773779,5.853470,0.030848,0.000000,0.701799,9.701799,14.511568,13.048843,7.629820,1.231362,0.005141,3
0.000000,0.018088,0.935401,6.271318,11.067183,2.684755,0.645995,0.219638,0.000000,0.167959,3.160207,11.811370,8.927649,2.648579,2.594315,0.452196,0.000000,0.834625,8.604651,11.782946,4.069767,6.160207,4.720930,0.286822,0.000000,3.689922,13.441860,8.932817,5.602067,11.875969,6.242894,0.025840,0.012920,6.542636,14.281654,10.346253,11.863049,14.335917,4.829457,0.000000,0.271318,5.894057,9.886305,11.085271,14.558140,11.124031,1.700258,0.002584,0.162791,1.914729,3.552972,7.664083,13.589147,5.604651,0.379845,0.010336,0.000000,0.069767,1.043928,6.994832,11.297158,2.599483,0.098191,0.018088,4
0.000000,0.492021,7.984043,12.997340,14.015957,11.268617,3.316489,0.109043,0.007979,3.007979,14.135638,12.808511,9.465426,7.800532,2.210106,0.031915,0.013298,4.433511,13.992021,6.694149,2.611702,0.787234,0.079787,0.000000,0.000000,4.454787,13.614362,12.167553,8.973404,4.457447,0.412234,0.000000,0.000000,1.308511,6.311170,7.577128,8.750000,8.071809,1.914894,0.000000,0.000000,0.101064,0.819149,2.465426,6.574468,9.513298,2.614362,0.005319,0.000000,0.662234,6.273936,8.031915,11.053191,9.138298,1.723404,0.021277,0.000000,0.380319,8.797872,14.345745,10.558511,3.534574,0.436170,0.005319,5
0.000000,0.007958,2.100796,10.798408,7.992042,1.124668,0.000000,0.000000,0.000000,0.175066,8.066313,13.599469,5.615385,0.832891,0.000000,0.000000,0.000000,0.992042,12.610080,8.750663,0.631300,0.021220,0.002653,0.000000,0.000000,2.214854,13.827586,6.901857,2.710875,1.055703,0.055703,0.000000,0.000000,3.305040,14.519894,11.938992,11.535809,9.328912,2.045093,0.000000,0.000000,2.103448,14.816976,11.710875,7.591512,11.082228,9.114058,0.177719,0.000000,0.435013,10.676393,12.859416,6.310345,11.068966,11.339523,0.811671,0.000000,0.018568,2.127321,10.554377,14.639257,12.827586,5.472149,0.246684,6
0.000000,0.392765,6.987080,13.351421,14.416021,12.333333,6.240310,0.979328,0.000000,0.917313,8.860465,10.441860,11.012920,13.351421,7.423773,0.793282,0.000000,0.400517,1.493540,0.857881,6.581395,12.325581,4.286822,0.124031,0.000000,0.452196,3.385013,6.886305,12.653747,12.338501,4.157623,0.005168,0.000000,1.514212,8.635659,13.968992,15.299742,12.586563,4.842377,0.000000,0.000000,0.811370,4.077519,12.253230,10.666667,3.806202,0.728682,0.000000,0.000000,0.147287,4.746770,13.457364,5.036176,0.245478,0.002584,0.000000,0.000000,0.395349,8.266150,11.201550,1.596899,0.113695,0.000000,0.000000,7
0.000000,0.144737,5.557895,12.668421,12.347368,5.965789,0.471053,0.000000,0.013158,2.455263,13.476316,10.189474,9.260526,11.923684,2.384211,0.000000,0.002632,3.768421,12.444737,6.213158,8.131579,11.486842,2.194737,0.000000,0.000000,1.418421,10.097368,13.628947,13.497368,6.842105,0.642105,0.000000,0.000000,0.378947,7.900000,14.471053,11.942105,4.447368,0.471053,0.000000,0.000000,1.086842,11.539474,8.997368,8.734211,7.673684,1.828947,0.000000,0.000000,1.255263,12.492105,8.397368,8.115789,9.994737,2.697368,0.000000,0.000000,0.118421,5.844737,13.394737,12.686842,6.797368,0.939474,0.018421,8
0.000000,0.146597,5.285340,12.000000,11.801047,6.170157,1.801047,0.060209,0.000000,2.306283,12.960733,10.751309,10.654450,11.274869,3.691099,0.183246,0.000000,4.232984,13.240838,6.041885,8.793194,14.102094,4.167539,0.075916,0.000000,2.293194,10.939791,11.125654,12.267016,14.688482,4.431937,0.000000,0.000000,0.225131,2.803665,5.044503,6.418848,12.882199,4.654450,0.000000,0.000000,0.065445,0.329843,0.819372,4.170157,10.222513,5.198953,0.007853,0.000000,0.447644,4.471204,5.905759,8.018325,9.510471,4.437173,0.065445,0.000000,0.117801,5.348168,12.342932,11.842932,6.892670,1.531414,0.023560,9
*****************************
0 => 0.00
1 => 0.00
2 => 0.00
3 => 0.00
4 => 0.00
5 => 0.00
6 => 0.00
7 => 0.00
8 => 0.00
9 => 0.00
*****************************