0.000000,0.034483,4.160920,13.540230,11.212644,2.344828,0.022989,0.000000,0.000000,1.431034,13.080460,12.172414,11.183908,10.545977,0.603448,0.000000,0.000000,4.568966,14.235632,3.827586,2.178161,12.367816,3.218391,0.000000,0.000000,5.689655,12.195402,1.137931,0.091954,7.913793,7.201149,0.000000,0.000000,5.867816,11.183908,0.425287,0.057471,6.344828,8.488506,0.000000,0.000000,3.264368,13.390805,0.977011,0.022989,8.396552,8.517241,0.000000,0.000000,0.655172,12.954023,8.775862,7.149425,14.373563,4.367816,0.000000,0.000000,0.005747,4.091954,13.580460,14.781609,8.195402,0.367816,0.000000,0
0.000000,0.025126,4.944724,12.909548,10.713568,2.904523,0.090452,0.000000,0.000000,0.954774,12.944724,13.884422,13.206030,10.914573,0.869347,0.000000,0.000000,3.296482,14.527638,5.346734,3.653266,13.070352,3.427136,0.000000,0.000000,4.854271,13.236181,2.020101,0.452261,10.296482,6.155779,0.000000,0.000000,5.105528,12.557789,1.301508,0.226131,10.673367,6.432161,0.000000,0.000000,3.407035,13.683417,2.386935,2.648241,14.015075,4.663317,0.000000,0.000000,0.869347,13.376884,12.090452,13.653266,12.718593,1.190955,0.000000,0.000000,0.030151,5.030151,13.587940,12.050251,3.226131,0.025126,0.000000,0
0.000000,0.000000,0.000000,0.058777,6.944538,13.971429,2.470075,0.000000,0.000000,0.000000,0.029365,1.327965,12.502848,15.764963,4.266783,0.000000,0.000000,0.235107,2.118161,9.063679,15.206839,15.324113,2.266036,0.000000,0.000000,3.502031,12.003175,13.766643,14.324953,14.618744,1.442414,0.000000,0.000000,3.147012,9.498856,5.794328,12.561835,13.884057,1.028501,0.000000,0.000000,0.411438,1.440033,1.266970,11.562722,14.266083,1.234220,0.000000,0.000000,0.117554,0.911041,0.502871,10.445962,14.706933,1.825280,0.000000,0.000000,0.058777,0.176331,0.030205,6.622969,14.736321,3.293954,0.000000,1
0.000000,0.000000,0.000000,1.703982,12.568788,11.889657,1.432046,0.000000,0.000000,0.162286,1.433512,8.947453,15.837715,14.918125,2.456186,0.000000,0.000000,2.785878,10.410976,15.162305,15.837714,13.674009,1.457630,0.000000,0.000000,5.567300,12.429770,11.023291,15.459053,13.024915,1.296080,0.000000,0.000000,0.809144,2.509468,3.484556,15.486093,12.592195,0.865519,0.000000,0.000000,0.000000,0.000000,2.809935,15.323808,12.646269,0.892566,0.000000,0.000000,0.000000,0.000000,2.999267,15.323834,13.701099,2.160863,0.000000,0.000000,0.000000,0.000000,1.540966,12.567363,13.538727,2.945925,0.000000,1
0.000000,0.395062,8.061728,14.518519,10.987654,2.086420,0.024691,0.000000,0.000000,3.592593,14.098765,11.975309,13.283951,9.098765,0.246914,0.000000,0.000000,3.753086,9.037037,2.790123,6.913580,12.592593,0.716049,0.000000,0.000000,1.074074,3.061728,0.790123,7.543210,12.283951,0.481481,0.000000,0.000000,0.024691,0.086420,1.432099,12.074074,8.382716,0.160494,0.000000,0.000000,0.000000,0.691358,7.555556,13.246914,4.358025,0.345679,0.000000,0.000000,0.358025,8.481481,15.185185,13.950617,10.728395,7.851852,0.839506,0.000000,0.333333,8.358025,13.716049,12.419753,11.543210,10.679012,2.654321,2
0.000000,0.525085,8.375705,14.588071,12.687281,2.998578,0.050008,0.000000,0.000000,3.824979,14.399755,11.537911,14.313970,7.411122,0.224875,0.000000,0.000000,2.836231,5.562124,2.450407,13.538702,6.536456,0.150017,0.000000,0.000000,0.486798,1.049238,6.725917,13.762618,2.574602,0.012502,0.000000,0.000000,0.050008,2.162845,13.662925,8.474913,0.075012,0.000000,0.000000,0.000000,0.562591,9.600880,13.599630,1.837637,0.325054,0.062513,0.000000,0.062510,2.237867,13.750590,12.925637,8.413854,8.351349,3.875480,0.150025,0.012502,0.625102,8.863430,14.549771,14.624774,12.387240,5.662446,0.350056,2
0.000000,1.880000,13.373329,12.559992,2.386646,0.000000,0.000000,0.000000,0.000000,7.306675,14.800000,14.600002,7.573313,0.066660,0.000000,0.000000,0.000000,6.440015,7.106683,10.040000,9.359984,0.039995,0.000000,0.000000,0.000000,1.680004,2.653340,11.039996,7.986655,0.026667,0.000000,0.000000,0.000000,0.066667,3.333327,13.773328,3.866666,0.040000,0.013333,0.000000,0.000000,0.653333,8.959995,12.199998,1.426670,0.666668,0.586668,0.000000,0.000000,3.493323,14.813330,14.346668,12.880000,12.946660,7.386670,0.053333,0.000000,1.933331,13.293327,14.306663,13.360005,11.920014,6.853349,0.200000,2
0.000000,1.052632,11.413534,14.172932,4.999999,0.030075,0.000000,0.000000,0.000000,5.210527,14.984962,12.789473,13.157894,1.105263,0.000000,0.000000,0.000000,4.804511,9.578946,3.150375,13.879698,2.947369,0.000000,0.000000,0.000000,1.300752,2.548870,2.105261,14.285714,2.969926,0.000000,0.000000,0.000000,0.127820,0.218044,5.676687,13.390979,1.210527,0.000000,0.000000,0.000000,0.015037,1.624056,11.924810,10.052634,0.842105,0.330826,0.000000,0.000000,0.864660,11.240600,15.819549,13.225563,11.225562,8.022554,0.390977,0.000000,1.075188,11.481204,13.729324,12.571429,12.639098,11.210526,1.436090,2
0.000000,0.962617,9.841121,14.504673,11.093458,1.803738,0.000000,0.000000,0.000000,5.990654,13.588785,9.112150,14.383178,5.308411,0.000000,0.000000,0.000000,2.392523,4.140187,4.859813,13.850467,3.990654,0.000000,0.000000,0.000000,0.140187,2.373832,11.766355,13.420561,3.728972,0.065421,0.000000,0.000000,0.028037,1.252336,7.887850,12.775701,11.831776,1.925234,0.000000,0.000000,0.065421,0.495327,0.476636,2.878505,13.224299,7.074766,0.000000,0.000000,0.915888,7.747664,5.299065,5.607477,13.813084,8.028037,0.037383,0.000000,0.682243,10.654206,14.934579,14.663551,10.598131,1.953271,0.018692,3
0.000000,0.489362,5.425532,11.553191,14.829787,10.361702,1.765957,0.170213,0.000000,4.255319,14.468085,12.000000,11.723404,14.978723,3.106383,0.085106,0.000000,2.765957,5.446809,1.595745,10.255319,12.553191,1.234043,0.000000,0.000000,0.063830,0.085106,4.829787,14.914894,9.106383,0.319149,0.000000,0.000000,0.000000,0.000000,3.212766,13.106383,12.787234,1.978723,0.000000,0.000000,0.000000,0.042553,0.382979,5.680851,14.638298,4.936170,0.000000,0.000000,0.021277,2.234043,8.042553,12.340426,13.787234,2.595745,0.000000,0.000000,0.276596,5.702128,13.510638,11.148936,3.978723,0.085106,0.000000,3
0.000000,1.297297,9.675676,14.527027,12.716216,4.391892,0.040541,0.000000,0.000000,4.148649,13.297297,9.756757,14.364865,10.054054,0.310811,0.000000,0.000000,0.810811,2.040541,5.040541,14.162162,6.716216,0.081081,0.000000,0.000000,0.108108,4.202703,13.878378,14.567568,5.283784,0.081081,0.000000,0.000000,0.067568,3.081081,8.837838,12.797297,13.878378,3.027027,0.000000,0.000000,0.067568,0.432432,0.256757,3.013514,14.621622,6.608108,0.000000,0.000000,1.148649,8.554054,8.837838,12.283784,14.527027,3.148649,0.000000,0.000000,1.040541,11.513514,13.972973,10.135135,3.189189,0.054054,0.000000,3
0.000000,1.133333,9.700000,14.083333,14.666667,9.833333,1.883333,0.000000,0.000000,2.866667,10.783333,7.400000,7.816667,14.483333,5.283333,0.033333,0.000000,0.600000,1.550000,2.050000,10.183333,13.100000,2.033333,0.000000,0.000000,0.133333,1.866667,11.033333,13.350000,3.816667,0.166667,0.000000,0.000000,0.216667,2.616667,10.750000,13.816667,5.183333,0.283333,0.000000,0.000000,0.000000,0.550000,2.200000,9.850000,12.466667,1.950000,0.000000,0.000000,0.850000,6.000000,5.100000,9.116667,13.733333,2.666667,0.000000,0.000000,1.250000,11.133333,14.633333,12.600000,6.283333,0.783333,0.000000,3
0.000000,0.300000,8.522222,14.200000,14.066667,5.577778,0.144444,0.000000,0.000000,3.500000,13.211111,8.733333,9.700000,13.311111,1.177778,0.000000,0.000000,1.433333,3.100000,1.466667,9.111111,12.511111,0.788889,0.000000,0.000000,0.033333,1.011111,9.066667,15.400000,8.644444,0.322222,0.000000,0.000000,0.011111,1.200000,6.655556,11.033333,14.222222,4.188889,0.000000,0.000000,0.088889,0.888889,0.311111,0.533333,10.044444,10.222222,0.033333,0.000000,1.400000,9.866667,5.388889,4.988889,13.033333,9.600000,0.088889,0.000000,0.344444,8.855556,14.766667,14.955556,11.000000,2.388889,0.022222,3
0.000000,0.000000,0.000000,2.243243,13.067568,5.108108,0.040541,0.000000,0.000000,0.000000,0.054054,7.000000,14.378378,2.540541,0.013514,0.027027,0.000000,0.000000,1.081081,13.067568,9.229730,2.013514,1.594595,0.135135,0.000000,0.121622,7.986486,13.297297,3.162162,7.837838,4.405405,0.013514,0.000000,3.837838,14.702703,7.229730,6.256757,13.891892,4.310811,0.000000,0.810811,11.797297,15.513514,12.986486,14.702703,14.878378,2.716216,0.000000,0.689189,6.837838,9.729730,10.486486,15.108108,12.000000,1.040541,0.000000,0.000000,0.189189,0.337838,2.891892,14.108108,5.797297,0.000000,0.000000,4
0.000000,0.200000,7.371429,12.114286,1.800000,0.485714,2.571429,1.171429,0.000000,1.828571,13.142857,9.600000,0.571429,5.485714,8.171429,1.742857,0.000000,4.400000,15.457143,5.057143,4.114286,11.971429,6.685714,0.371429,0.000000,5.685714,14.514286,10.514286,13.028571,14.285714,5.514286,0.000000,0.000000,2.257143,9.657143,13.200000,15.542857,9.657143,1.742857,0.000000,0.000000,0.142857,2.285714,12.000000,11.771429,1.342857,0.057143,0.000000,0.000000,0.028571,4.485714,13.971429,4.714286,0.000000,0.000000,0.000000,0.000000,0.257143,7.942857,11.428571,1.457143,0.000000,0.000000,0.000000,4
0.000000,0.000000,0.028169,6.746479,11.704225,0.971831,0.000000,0.000000,0.000000,0.000000,1.464789,14.070423,7.774648,0.802817,0.577465,0.112676,0.000000,0.084507,8.225352,13.070423,2.197183,4.464789,3.309859,0.295775,0.000000,2.901408,14.323944,5.366197,2.619718,11.098592,5.774648,0.098592,0.014085,8.661972,14.605634,3.788732,9.126761,14.563380,3.647887,0.000000,0.352113,10.929577,15.830986,15.056338,15.774648,13.126761,2.070423,0.000000,0.154930,2.830986,5.535211,8.605634,15.239437,3.901408,0.126761,0.000000,0.000000,0.014085,0.154930,7.690141,12.225352,1.042254,0.000000,0.000000,4
0.000000,0.000000,0.000000,3.246893,13.870606,3.270819,0.211871,0.152920,0.000000,0.000000,0.694159,11.929424,11.858970,1.317602,2.378178,0.600459,0.000000,0.070579,7.376692,14.447133,2.964572,5.094242,7.189438,0.435505,0.000000,3.259329,14.635481,7.824236,2.306655,12.564899,7.729989,0.011763,0.035289,9.388168,15.682383,12.941585,13.517983,15.752975,6.259326,0.000000,0.164683,5.022843,10.010396,10.763640,14.705374,13.553136,2.152782,0.000000,0.011763,0.082342,0.152920,2.234990,14.741078,7.212135,0.082342,0.000000,0.000000,0.000000,0.000000,3.999733,14.117898,3.294208,0.000000,0.000000,4
0.000000,0.000000,0.616279,11.011628,9.697675,0.767442,0.767442,0.290698,0.000000,0.011628,5.686046,15.139535,5.046512,3.046512,2.988372,0.337209,0.000000,1.372093,13.244186,9.930232,1.918605,9.023256,4.941861,0.313953,0.000000,6.418605,15.290698,6.674419,8.430233,13.813953,6.302326,0.011628,0.011628,6.953488,15.000000,14.197674,15.395349,14.848837,5.383721,0.000000,0.069767,1.813953,5.709302,9.453488,15.593023,7.906977,0.755814,0.000000,0.000000,0.011628,0.197674,9.244186,13.488372,1.255814,0.000000,0.000000,0.000000,0.000000,0.593023,12.511628,9.023256,0.162791,0.000000,0.000000,4
0.000000,0.446809,8.446809,12.882979,13.691489,11.776596,3.734043,0.000000,0.000000,2.404255,14.351064,12.957447,9.361702,7.978723,2.468085,0.000000,0.000000,3.563830,14.563830,7.744681,1.893617,0.223404,0.031915,0.000000,0.000000,4.159574,14.340426,15.404255,13.851064,4.797872,0.095745,0.000000,0.000000,1.117021,5.138298,5.223404,10.659574,12.404255,1.255319,0.000000,0.000000,0.063830,0.393617,0.191489,4.574468,14.063830,1.829787,0.000000,0.000000,0.659574,5.936170,7.382979,12.840426,11.595745,0.680851,0.000000,0.000000,0.382979,9.361702,14.755319,10.872340,2.680851,0.095745,0.000000,5
0.000000,1.137255,9.549020,13.647059,14.313725,11.117647,2.117647,0.000000,0.039216,5.549020,14.843137,14.588235,11.549020,10.039216,2.745098,0.019608,0.078431,6.960784,12.901961,6.235294,1.098039,0.764706,0.313725,0.000000,0.000000,4.647059,11.960784,7.627451,0.862745,0.000000,0.000000,0.000000,0.000000,1.019608,9.333333,12.823529,4.137255,0.078431,0.000000,0.000000,0.000000,0.137255,2.960784,12.392157,9.274510,0.333333,0.000000,0.000000,0.000000,0.588235,7.058824,13.549020,9.392157,0.607843,0.000000,0.000000,0.000000,0.882353,11.333333,14.156863,4.235294,0.235294,0.000000,0.000000,5
0.000000,0.533333,8.211111,13.344444,14.344444,11.411111,2.888889,0.022222,0.000000,4.266667,14.911111,13.666667,10.522222,8.811111,1.966667,0.000000,0.011111,6.255556,14.188889,4.900000,0.555556,0.144444,0.022222,0.000000,0.000000,5.611111,14.611111,12.488889,5.777778,0.222222,0.000000,0.000000,0.000000,1.700000,7.577778,11.111111,13.400000,2.533333,0.000000,0.000000,0.000000,0.055556,0.277778,2.277778,13.377778,6.844444,0.044444,0.000000,0.000000,0.400000,5.377778,8.911111,14.722222,6.066667,0.100000,0.000000,0.000000,0.377778,9.500000,14.555556,9.922222,1.644444,0.011111,0.000000,5
0.000000,0.000000,0.360825,9.634021,10.845361,1.500000,0.000000,0.000000,0.000000,0.005155,5.067010,15.386598,8.670103,1.128866,0.000000,0.000000,0.000000,0.190722,10.865979,12.201031,1.030928,0.000000,0.000000,0.000000,0.000000,1.030928,13.293814,8.737113,1.768041,0.577320,0.041237,0.000000,0.000000,1.737113,14.463918,11.907216,10.567010,8.015464,1.726804,0.000000,0.000000,0.953608,14.087629,12.855670,9.113402,11.365979,9.211340,0.304124,0.000000,0.092784,8.417526,14.082474,6.350515,9.958763,13.041237,1.386598,0.000000,0.000000,0.551546,8.551546,14.371134,14.170103,7.902062,0.489691,6
0.000000,0.017857,4.422619,12.220238,3.988095,0.446429,0.000000,0.000000,0.000000,0.386905,11.565476,11.470238,1.571429,0.214286,0.000000,0.000000,0.000000,1.910714,14.559524,4.815476,0.035714,0.047619,0.011905,0.000000,0.000000,3.559524,14.375000,4.184524,2.928571,1.285714,0.107143,0.000000,0.000000,5.232143,14.613095,11.869048,13.089286,11.071429,2.208333,0.000000,0.000000,3.607143,15.654762,10.755952,6.279762,11.250000,9.154762,0.047619,0.000000,1.011905,13.488095,11.684524,6.226190,12.184524,9.958333,0.238095,0.000000,0.053571,4.136905,12.797619,14.726190,11.482143,3.214286,0.029762,6
0.000000,0.000000,3.000000,11.284091,14.181818,14.545455,11.625000,3.193182,0.000000,0.181818,7.284091,11.022727,9.250000,12.386364,14.068182,2.920455,0.000000,0.102273,1.625000,0.670455,1.045455,11.272727,10.761364,0.522727,0.000000,0.215909,1.363636,4.238636,8.465909,14.704545,6.568182,0.022727,0.000000,0.272727,4.420455,12.000000,15.193182,14.102273,4.352273,0.000000,0.000000,0.443182,1.965909,7.602273,14.340909,5.352273,0.386364,0.000000,0.000000,0.000000,0.909091,11.647727,10.352273,0.897727,0.011364,0.000000,0.000000,0.000000,3.522727,13.568182,4.431818,0.079545,0.000000,0.000000,7
0.000000,0.027022,5.013326,13.270392,14.365159,9.945584,1.621330,0.067555,0.000000,1.027375,10.879298,12.162853,13.392361,13.973310,2.540083,0.013511,0.000000,0.486939,1.839134,0.622223,8.704017,13.054582,1.338329,0.000000,0.000000,0.027022,1.094753,3.812985,13.027562,11.271122,2.177802,0.000000,0.000000,1.553774,9.633756,14.769958,15.837865,14.391438,6.147897,0.000000,0.000000,1.742929,7.268961,13.498832,13.513952,7.026473,1.499730,0.000000,0.000000,0.054044,2.323906,14.783463,7.014582,0.216177,0.000000,0.000000,0.000000,0.000000,6.283541,13.783645,1.851558,0.000000,0.000000,0.000000,7
0.000000,0.144928,7.724638,14.347826,14.420290,14.086957,9.057971,0.840580,0.000000,0.246377,6.260870,8.739130,8.260870,14.260870,11.173913,0.362319,0.000000,0.028986,0.449275,0.086957,3.014493,14.797101,4.768116,0.000000,0.000000,0.173913,2.260870,4.695652,11.347826,12.956522,2.028986,0.000000,0.000000,2.405797,11.666667,15.202899,15.884058,14.173913,5.072464,0.000000,0.000000,1.362319,4.115942,13.086957,10.739130,3.057971,0.608696,0.000000,0.000000,0.043478,4.521739,14.927536,3.231884,0.000000,0.000000,0.000000,0.000000,0.144928,9.304348,11.217391,0.608696,0.000000,0.000000,0.000000,7
0.000000,0.183099,7.577465,13.830986,15.056338,13.746479,5.901408,0.281690,0.000000,0.690141,8.718310,9.873239,10.563380,14.957746,6.028169,0.112676,0.000000,0.338028,0.845070,1.169014,7.690141,14.042254,2.464789,0.000000,0.000000,0.619718,7.929577,13.352113,15.563380,14.633803,7.211268,0.000000,0.000000,0.676056,8.281690,13.690141,14.943662,9.943662,3.887324,0.000000,0.000000,0.000000,1.183099,13.394366,8.056338,0.732394,0.225352,0.000000,0.000000,0.000000,5.676056,14.957746,2.591549,0.000000,0.000000,0.000000,0.000000,0.098592,9.732394,10.633803,0.464789,0.000000,0.000000,0.000000,7
0.000000,1.400000,12.483333,15.133333,14.116667,7.883333,0.850000,0.000000,0.000000,1.200000,9.300000,8.850000,13.683333,10.516667,0.933333,0.000000,0.000000,0.283333,0.866667,2.000000,13.900000,7.383333,0.283333,0.000000,0.000000,1.366667,5.733333,10.200000,15.400000,8.333333,2.783333,0.000000,0.000000,3.650000,12.950000,15.833333,15.150000,13.816667,6.616667,0.000000,0.000000,0.850000,6.766667,14.750000,6.150000,3.900000,1.333333,0.000000,0.000000,0.516667,10.483333,11.450000,0.483333,0.066667,0.016667,0.000000,0.000000,1.650000,13.300000,6.200000,0.050000,0.000000,0.000000,0.000000,7
0.000000,0.055556,3.722222,11.744444,12.611111,5.688889,0.355556,0.000000,0.000000,2.533333,13.622222,10.133333,9.188889,12.122222,2.055556,0.000000,0.000000,5.666667,12.811111,2.888889,5.355556,12.744444,2.244444,0.000000,0.000000,2.200000,11.500000,11.844444,13.988889,9.000000,0.633333,0.000000,0.000000,0.022222,4.400000,14.722222,14.600000,7.011111,0.477778,0.000000,0.000000,0.122222,7.966667,11.677778,6.977778,11.844444,2.866667,0.000000,0.000000,0.255556,10.055556,10.155556,5.366667,13.177778,5.077778,0.000000,0.000000,0.011111,3.755556,12.733333,13.833333,9.533333,1.844444,0.055556,8
0.000000,0.059322,5.500000,12.762712,12.915254,7.305085,0.822034,0.000000,0.000000,2.016949,13.457627,10.313559,8.500000,13.067797,2.983051,0.000000,0.000000,2.754237,12.305085,7.110169,7.355932,11.923729,2.322034,0.000000,0.000000,0.703390,8.644068,14.237288,13.872881,6.737288,0.762712,0.000000,0.000000,0.449153,9.076271,14.983051,13.110169,2.618644,0.067797,0.000000,0.000000,2.000000,13.432203,5.847458,11.127119,8.754237,0.262712,0.000000,0.000000,1.974576,13.881356,5.661017,7.466102,13.127119,1.457627,0.000000,0.000000,0.118644,5.813559,13.305085,14.186441,8.567797,0.542373,0.000000,8
0.000000,0.351064,8.085106,13.670213,11.776596,5.585106,0.329787,0.000000,0.000000,2.968085,14.606383,10.191489,9.702128,11.648936,2.478723,0.000000,0.000000,2.829787,12.670213,6.446809,10.042553,11.255319,2.340426,0.000000,0.000000,1.074468,9.617021,13.287234,12.361702,4.787234,0.489362,0.000000,0.000000,0.148936,7.510638,15.085106,8.627660,0.702128,0.106383,0.000000,0.000000,0.500000,12.021277,12.702128,10.563830,0.734043,0.000000,0.000000,0.000000,1.457447,13.617021,10.159574,12.382979,1.989362,0.000000,0.000000,0.000000,0.244681,8.776596,14.531915,9.329787,1.031915,0.000000,0.000000,8
0.000000,0.278782,6.350526,13.722773,11.048578,2.768734,0.001514,0.000000,0.000000,3.744385,14.860598,10.859063,12.785866,11.440470,0.886847,0.000000,0.000000,5.069107,14.161573,9.580395,12.486923,14.953001,3.233295,0.000000,0.000000,1.649462,9.948366,11.996880,11.248940,14.506559,4.885345,0.000000,0.000000,0.000000,0.743419,1.602998,3.136310,13.368230,5.117684,0.000000,0.000000,0.116159,0.255550,0.766651,5.343387,14.091434,3.445485,0.000000,0.000000,0.255550,3.393880,8.598361,13.576682,9.911743,0.676312,0.000000,0.000000,0.209087,7.626280,13.441942,7.749658,1.142591,0.023232,0.000000,9
0.000000,0.160000,7.264000,14.016000,11.720000,3.432000,0.064000,0.000000,0.000000,3.136000,14.800000,8.712000,11.248000,11.896000,1.176000,0.000000,0.000000,6.152000,13.264000,1.576000,6.776000,14.928000,2.800000,0.000000,0.000000,3.024000,13.792000,10.512000,12.288000,15.592000,4.352000,0.000000,0.000000,0.120000,4.152000,8.352000,7.968000,13.888000,6.000000,0.000000,0.000000,0.072000,0.272000,0.144000,0.488000,11.640000,7.680000,0.000000,0.000000,0.632000,6.568000,5.728000,5.232000,13.440000,6.480000,0.000000,0.000000,0.120000,7.376000,14.224000,14.320000,10.248000,1.584000,0.000000,9
*****************************
0 => 100.00
0 => 100.00
1 => 97.06
1 => 100.00
2 => 98.77
2 => 98.75
2 => 100.00
2 => 100.00
3 => 96.26
3 => 95.74
3 => 100.00
3 => 98.33
3 => 98.89
4 => 100.00
4 => 100.00
4 => 100.00
4 => 98.82
4 => 97.67
5 => 98.94
5 => 98.04
5 => 100.00
6 => 98.45
6 => 98.81
7 => 95.45
7 => 98.65
7 => 100.00
7 => 100.00
7 => 98.33
8 => 96.67
8 => 100.00
8 => 97.87
9 => 95.35
9 => 99.20
*****************************