0.000000,0.011765,4.976471,13.917647,11.482353,2.576471,0.047059,0.000000,0.000000,1.576471,14.070588,10.823529,10.717647,10.647059,0.764706,0.000000,0.000000,5.400000,14.235294,2.211765,1.764706,12.376471,3.670588,0.000000,0.000000,6.270588,12.000000,0.705882,0.294118,7.823529,7.858824,0.000000,0.000000,6.623529,10.882353,0.247059,0.047059,5.705882,9.141176,0.000000,0.000000,4.152941,13.070588,0.588235,0.000000,7.070588,9.470588,0.011765,0.000000,0.952941,13.823529,7.658824,5.611765,13.952941,5.376471,0.000000,0.000000,0.000000,5.047059,14.235294,15.305882,9.552941,0.435294,0.000000,0
0.000000,0.038095,4.028571,13.161905,8.714286,0.761905,0.000000,0.000000,0.000000,1.104762,11.752381,14.647619,14.219048,7.714286,0.047619,0.000000,0.000000,3.314286,14.133333,8.419048,6.038095,13.761905,1.590476,0.000000,0.000000,4.542857,13.923810,3.942857,0.933333,11.228571,5.542857,0.000000,0.000000,4.485714,13.600000,2.371429,0.333333,9.276190,7.514286,0.000000,0.000000,2.638095,14.523810,3.219048,0.904762,11.266667,8.085714,0.000000,0.000000,0.676190,12.257143,12.209524,11.123810,15.190476,4.371429,0.000000,0.000000,0.047619,3.914286,13.152381,14.285714,7.371429,0.438095,0.000000,0
0.000000,0.029412,5.852941,12.882353,11.352941,3.852941,0.117647,0.000000,0.000000,1.029412,13.588235,13.588235,12.872549,12.225490,1.254902,0.000000,0.000000,3.254902,14.735294,4.333333,2.578431,12.950980,4.166667,0.000000,0.000000,4.872549,13.460784,1.225490,0.235294,10.284314,6.480392,0.000000,0.000000,5.058824,12.490196,0.705882,0.215686,11.578431,5.931373,0.000000,0.000000,3.607843,13.764706,1.950980,3.931373,14.872549,3.235294,0.000000,0.000000,1.049020,13.911765,12.166667,14.666667,10.833333,0.225490,0.000000,0.000000,0.029412,5.803922,13.862745,10.784314,1.617647,0.000000,0.000000,0
0.000000,0.058140,3.418605,12.895349,12.476744,3.441860,0.069767,0.000000,0.000000,1.093023,12.779070,12.779070,10.406977,12.348837,0.930233,0.000000,0.000000,3.872093,14.325581,3.139535,1.081395,11.186047,4.000000,0.000000,0.000000,5.476744,11.267442,0.709302,0.011628,6.895349,6.872093,0.000000,0.000000,5.755814,10.209302,0.209302,0.000000,7.337209,7.325581,0.000000,0.000000,2.965116,12.511628,0.930233,0.406977,11.453488,5.500000,0.000000,0.000000,0.418605,12.627907,9.523256,10.127907,14.162791,1.244186,0.000000,0.000000,0.000000,3.500000,13.058140,13.186047,4.209302,0.000000,0.000000,0
0.000000,0.000000,1.756522,12.530435,12.043478,2.417391,0.017391,0.000000,0.000000,0.286957,5.521739,15.130435,15.521739,4.443478,0.017391,0.000000,0.121739,1.973913,9.400000,15.356522,14.391304,2.304348,0.000000,0.000000,0.034783,2.791304,10.130435,15.391304,13.382609,1.539130,0.026087,0.000000,0.000000,1.121739,7.434783,14.965217,12.721739,1.078261,0.034783,0.000000,0.000000,0.165217,5.504348,14.434783,12.434783,1.321739,0.043478,0.000000,0.000000,0.026087,4.547826,14.434783,13.139130,3.443478,0.113043,0.000000,0.000000,0.008696,1.800000,11.556522,13.365217,5.139130,0.634783,0.000000,1
0.000000,0.367647,7.102941,13.529412,14.220588,5.823529,0.338235,0.000000,0.000000,3.411765,13.779412,10.852941,12.308824,11.661765,1.235294,0.000000,0.000000,2.250000,5.000000,1.205882,10.308824,10.647059,0.941176,0.000000,0.000000,0.205882,0.500000,4.264706,13.794118,5.455882,0.117647,0.000000,0.000000,0.000000,1.617647,12.235294,10.514706,0.764706,0.000000,0.000000,0.000000,0.632353,8.911765,13.514706,2.544118,0.558824,0.176471,0.000000,0.073529,2.250000,13.500000,12.044118,6.926471,6.852941,4.000000,0.132353,0.014706,0.455882,7.823529,13.823529,14.264706,12.044118,5.205882,0.294118,2
0.000000,0.421569,8.892157,14.686275,9.166667,1.078431,0.000000,0.000000,0.000000,3.784314,14.411765,12.019608,13.921569,6.421569,0.019608,0.000000,0.000000,3.941176,9.960784,2.705882,8.823529,10.303922,0.401961,0.000000,0.000000,1.313725,3.529412,0.754902,8.833333,10.392157,0.323529,0.000000,0.000000,0.058824,0.147059,0.921569,12.656863,7.401961,0.127451,0.000000,0.000000,0.000000,0.352941,6.852941,14.068627,3.774510,0.333333,0.000000,0.000000,0.245098,8.205882,15.323529,14.294118,10.715686,8.245098,0.862745,0.000000,0.352941,9.362745,14.009804,12.519608,12.078431,11.921569,2.843137,2
0.000000,1.680556,12.555556,12.611111,3.638889,0.027778,0.000000,0.000000,0.000000,6.625000,14.694444,14.666667,8.291667,0.402778,0.000000,0.000000,0.000000,5.916667,6.638889,10.527778,9.513889,0.263889,0.000000,0.000000,0.000000,1.416667,2.666667,12.500000,7.388889,0.013889,0.000000,0.000000,0.000000,0.055556,4.208333,14.555556,3.041667,0.041667,0.013889,0.000000,0.000000,0.680556,10.166667,11.333333,1.138889,0.611111,0.486111,0.000000,0.000000,3.375000,14.833333,13.958333,12.555556,12.638889,7.069444,0.083333,0.000000,1.722222,12.486111,14.722222,13.861111,12.000000,6.972222,0.458333,2
0.000000,1.198582,11.851064,14.148936,5.042553,0.049645,0.000000,0.000000,0.000000,5.560284,14.921986,12.957447,12.375887,0.950355,0.000000,0.000000,0.000000,5.070922,9.035461,4.035461,13.936170,1.943262,0.000000,0.000000,0.000000,1.326241,2.432624,3.865248,14.156028,1.638298,0.000000,0.000000,0.000000,0.127660,0.304965,8.482270,11.843972,0.312057,0.000000,0.000000,0.000000,0.035461,2.914894,13.687943,7.446809,0.645390,0.347518,0.000000,0.000000,1.191489,12.404255,15.602837,12.638298,11.496454,7.354610,0.290780,0.000000,1.248227,11.758865,13.787234,12.865248,12.560284,9.829787,1.021277,2
0.000000,0.809524,9.047619,14.325397,13.238095,4.976190,0.238095,0.000000,0.000000,4.317460,13.250000,8.829365,11.801587,11.047619,1.007937,0.000000,0.000000,1.555556,2.964286,2.507937,11.595238,9.507937,0.555556,0.000000,0.000000,0.083333,1.865079,10.694444,15.083333,6.587302,0.190476,0.000000,0.000000,0.035714,1.662698,7.380952,12.210317,13.440476,2.960317,0.000000,0.000000,0.055556,0.496032,0.317460,1.916667,12.928571,7.738095,0.003968,0.000000,1.095238,8.361111,6.218254,7.404762,14.234127,6.396825,0.019841,0.000000,0.678571,10.047619,14.678571,13.456349,8.067460,1.087302,0.000000,3
0.000000,0.000000,1.372881,11.296610,8.457627,0.593220,0.576271,0.338983,0.000000,0.093220,6.440678,14.500000,4.389831,2.703390,3.322034,0.694915,0.000000,1.627119,13.372881,9.059322,2.042373,8.805085,5.338983,0.372881,0.000000,6.279661,15.271186,6.322034,7.991525,13.779661,6.262712,0.016949,0.016949,6.915254,14.559322,13.415254,15.152542,14.423729,4.813559,0.000000,0.067797,2.542373,6.372881,10.559322,15.262712,7.440678,0.711864,0.000000,0.000000,0.161017,0.805085,9.855932,12.432203,1.177966,0.000000,0.000000,0.000000,0.000000,1.457627,12.533898,7.745763,0.093220,0.000000,0.000000,4
0.000000,0.000000,0.000000,3.658654,13.014423,3.471154,0.081731,0.014423,0.000000,0.000000,0.543269,10.543269,11.865385,1.649038,0.740385,0.201923,0.000000,0.043269,4.995192,13.740385,5.177885,3.423077,3.716346,0.278846,0.000000,1.836538,12.028846,9.312500,2.509615,10.197115,6.014423,0.033654,0.014423,7.177885,15.067308,8.033654,9.370192,14.711538,4.822115,0.000000,0.466346,9.336538,13.947115,13.004808,15.033654,14.206731,2.475962,0.000000,0.302885,3.346154,5.254808,6.985577,15.009615,8.322115,0.447115,0.000000,0.000000,0.072115,0.149038,4.346154,13.865385,3.822115,0.004808,0.000000,4
0.000000,0.398844,7.815029,12.601156,13.890173,11.791908,3.497110,0.000000,0.005780,2.468208,14.086705,12.578035,8.976879,7.618497,2.121387,0.000000,0.000000,3.612717,14.265896,5.994220,1.184971,0.115607,0.023121,0.000000,0.000000,4.508671,14.549133,13.630058,10.907514,3.132948,0.075145,0.000000,0.000000,1.630058,7.317919,7.739884,12.092486,10.543353,1.115607,0.000000,0.000000,0.132948,0.543353,0.398844,5.595376,13.242775,1.971098,0.000000,0.000000,0.635838,5.699422,6.606936,11.838150,11.670520,1.063584,0.000000,0.000000,0.329480,8.653179,14.549133,11.693642,3.352601,0.098266,0.000000,5
0.000000,0.771930,8.684211,13.464912,14.315789,11.263158,2.552632,0.017544,0.017544,5.008772,14.885965,14.201754,11.333333,9.622807,2.438596,0.008772,0.043860,6.710526,13.403509,5.675439,0.798246,0.421053,0.149123,0.000000,0.000000,5.096491,13.087719,9.587719,2.491228,0.078947,0.043860,0.000000,0.000000,1.271930,8.157895,12.342105,8.657895,0.771930,0.070175,0.000000,0.000000,0.114035,1.807018,7.745614,12.210526,3.043860,0.008772,0.000000,0.000000,0.535088,6.447368,11.710526,12.350877,3.026316,0.052632,0.000000,0.000000,0.561404,10.149123,14.315789,7.210526,1.070175,0.008772,0.000000,5
0.000000,0.000000,0.369458,9.640394,11.000000,1.561576,0.000000,0.000000,0.000000,0.004926,5.147783,15.413793,8.729064,1.221675,0.000000,0.000000,0.000000,0.192118,10.965517,12.152709,0.980296,0.000000,0.000000,0.000000,0.000000,1.044335,13.403941,8.955665,2.093596,0.758621,0.049261,0.000000,0.000000,1.709360,14.527094,11.935961,10.369458,8.128079,1.862069,0.000000,0.000000,0.935961,14.142857,12.591133,8.852217,11.251232,9.147783,0.290640,0.000000,0.088670,8.477833,14.019704,6.428571,10.162562,12.699507,1.330049,0.000000,0.000000,0.571429,8.630542,14.403941,14.029557,7.576355,0.467980,6
0.000000,0.017442,4.279070,12.232558,4.215116,0.476744,0.000000,0.000000,0.000000,0.377907,11.540698,11.529070,1.709302,0.232558,0.000000,0.000000,0.000000,1.918605,14.616279,4.761628,0.034884,0.034884,0.005814,0.000000,0.000000,3.587209,14.412791,4.389535,3.209302,1.406977,0.087209,0.000000,0.000000,5.244186,14.633721,11.889535,12.976744,10.947674,2.319767,0.000000,0.000000,3.552326,15.633721,10.593023,6.186047,11.075581,9.209302,0.046512,0.000000,0.941860,13.389535,11.587209,6.145349,12.209302,9.895349,0.232558,0.000000,0.046512,4.058140,12.796512,14.784884,11.418605,3.116279,0.029070,6
0.000000,0.605911,9.226601,14.546798,14.729064,10.960591,3.408867,0.113300,0.000000,1.014778,9.448276,9.822660,11.990148,13.379310,3.901478,0.039409,0.000000,0.349754,0.916256,0.940887,9.901478,11.847291,1.300493,0.000000,0.000000,0.532020,4.556650,8.719212,14.857143,11.000000,3.561576,0.000000,0.000000,2.068966,11.133005,15.261084,15.344828,12.798030,5.591133,0.000000,0.000000,0.827586,4.881773,14.246305,8.679803,3.467980,0.940887,0.000000,0.000000,0.197044,6.802956,13.945813,2.477833,0.029557,0.004926,0.000000,0.000000,0.645320,10.724138,9.896552,0.497537,0.000000,0.000000,0.000000,7
0.000000,0.029762,4.029762,12.214286,14.208333,14.255952,10.351190,2.142857,0.000000,0.345238,7.505952,10.619048,9.119048,13.148810,12.607143,1.809524,0.000000,0.184524,1.505952,0.595238,1.720238,12.851190,8.363095,0.279762,0.000000,0.273810,2.107143,4.672619,9.672619,14.392857,4.732143,0.011905,0.000000,0.863095,6.053571,12.386905,15.398810,13.059524,4.166667,0.000000,0.000000,0.863095,3.035714,9.755952,13.214286,4.226190,0.488095,0.000000,0.000000,0.041667,1.958333,13.101190,7.910714,0.464286,0.005952,0.000000,0.000000,0.011905,5.029762,13.160714,2.994048,0.101190,0.000000,0.000000,7
0.000000,0.102564,5.529915,12.538462,12.700855,6.735043,0.606838,0.000000,0.000000,1.478632,12.435897,11.222222,9.205128,12.700855,2.196581,0.000000,0.000000,1.700855,10.948718,8.752137,9.196581,10.914530,1.923077,0.000000,0.000000,0.547009,7.102564,14.350427,13.367521,5.683761,0.666667,0.000000,0.000000,0.564103,8.803419,14.811966,11.863248,1.649573,0.059829,0.000000,0.000000,1.726496,12.905983,7.017094,12.076923,6.461538,0.102564,0.000000,0.000000,1.658120,13.282051,6.068376,9.538462,11.136752,0.675214,0.000000,0.000000,0.153846,5.675214,13.333333,13.846154,6.829060,0.316239,0.000000,8
0.000000,0.060000,4.520000,12.200000,12.920000,6.366667,0.540000,0.000000,0.000000,2.826667,14.013333,9.340000,8.640000,12.806667,2.660000,0.000000,0.000000,5.526667,13.220000,3.740000,6.293333,12.693333,2.253333,0.000000,0.000000,2.100000,12.006667,13.460000,14.406667,8.233333,0.526667,0.000000,0.000000,0.273333,7.773333,14.313333,13.320000,8.040000,0.913333,0.000000,0.000000,0.740000,11.040000,7.800000,5.306667,11.726667,3.880000,0.000000,0.000000,0.726667,11.886667,8.133333,4.880000,13.486667,5.206667,0.000000,0.000000,0.040000,4.700000,13.153333,13.940000,9.500000,1.546667,0.026667,8
0.000000,0.170940,7.196581,13.905983,11.222222,2.991453,0.059829,0.000000,0.000000,3.188034,14.777778,8.982906,11.495726,11.102564,0.940171,0.000000,0.000000,6.213675,13.145299,1.461538,6.623932,14.316239,2.538462,0.000000,0.000000,3.282051,14.042735,10.017094,11.974359,15.316239,4.076923,0.000000,0.000000,0.188034,4.863248,9.299145,8.829060,13.940171,5.974359,0.000000,0.000000,0.068376,0.264957,0.153846,0.478632,11.324786,7.897436,0.000000,0.000000,0.564103,6.145299,5.529915,5.162393,13.307692,6.829060,0.000000,0.000000,0.111111,7.153846,14.170940,14.316239,10.444444,1.752137,0.000000,9
*****************************
0 => 98.82
0 => 98.10
0 => 100.00
0 => 100.00
1 => 95.65
2 => 95.59
2 => 100.00
2 => 95.83
2 => 99.29
3 => 99.21
4 => 99.15
4 => 99.52
5 => 98.27
5 => 97.37
6 => 99.01
6 => 99.42
7 => 99.51
7 => 95.24
8 => 96.58
8 => 99.33
9 => 97.44
*****************************