0.000000,0.031646,3.696203,13.417722,12.170886,2.575949,0.025316,0.000000,0.000000,1.379747,12.816456,12.037975,10.981013,11.259494,0.620253,0.000000,0.000000,4.696203,14.139241,3.613924,1.354430,12.284810,3.348101,0.000000,0.000000,5.721519,12.183544,1.398734,0.037975,7.563291,7.297468,0.000000,0.000000,5.740506,11.411392,0.721519,0.063291,6.278481,8.487342,0.000000,0.000000,3.012658,13.468354,1.417722,0.145570,8.563291,8.474684,0.000000,0.000000,0.582278,12.512658,9.234177,7.348101,14.405063,4.310127,0.000000,0.000000,0.000000,3.670886,13.341772,14.892405,8.329114,0.373418,0.000000,0
0.000000,0.057143,6.485714,13.557143,5.942857,0.142857,0.000000,0.000000,0.000000,1.600000,13.800000,13.871429,14.514286,5.914286,0.028571,0.000000,0.000000,3.885714,14.614286,5.900000,8.514286,14.285714,1.442857,0.000000,0.000000,5.328571,13.228571,1.342857,1.200000,12.328571,5.514286,0.000000,0.000000,5.928571,12.114286,0.428571,0.157143,9.757143,7.285714,0.000000,0.000000,4.328571,13.742857,1.114286,1.085714,11.571429,7.342857,0.000000,0.000000,1.257143,14.528571,10.514286,10.971429,14.728571,3.471429,0.000000,0.000000,0.100000,6.385714,14.500000,13.357143,5.857143,0.142857,0.000000,0
0.000000,0.013888,4.652604,12.805612,12.020880,3.951249,0.124994,0.000000,0.000000,0.756908,12.895791,13.833436,12.548775,12.534697,1.236052,0.000000,0.000000,3.034625,14.645660,5.069869,2.014316,12.486278,4.250036,0.000000,0.000000,4.687420,13.208086,1.889560,0.062592,9.437432,6.486278,0.000000,0.000000,4.909489,12.374649,1.292271,0.124994,10.701260,6.236147,0.000000,0.000000,3.242901,13.534411,2.347681,2.992913,14.409750,3.812461,0.000000,0.000000,0.743020,13.277479,11.972319,14.020690,11.868014,0.493032,0.000000,0.000000,0.000000,4.763757,13.409845,11.569512,2.333317,0.000000,0.000000,0
0.000000,0.000000,0.967541,11.588212,12.538531,3.078558,0.063477,0.000000,0.000000,0.364993,4.586462,14.619449,15.510251,4.729895,0.015865,0.000000,0.206300,2.808608,9.234887,15.492222,15.016827,2.761200,0.000000,0.000000,0.063477,4.075903,8.472870,15.031979,14.746324,2.047115,0.000000,0.000000,0.000000,1.015590,3.508451,14.016350,14.808095,1.491695,0.000000,0.000000,0.000000,0.000000,1.287109,13.207053,14.490462,1.555172,0.000000,0.000000,0.000000,0.000000,1.540796,13.191421,14.473584,3.378639,0.094971,0.000000,0.000000,0.000000,0.713144,10.428069,13.902063,5.327995,0.490919,0.000000,1
0.000000,0.024985,5.923258,14.399724,11.421658,2.047908,0.024971,0.000000,0.000000,1.331359,13.405096,13.648505,12.904400,9.415617,0.199768,0.000000,0.000000,2.453950,10.130416,4.068467,6.079970,12.992720,0.796399,0.000000,0.000000,1.149335,3.501601,0.800727,6.959788,12.544710,0.745877,0.000000,0.000000,0.049972,0.124930,1.149956,11.860904,8.942114,0.321777,0.000000,0.000000,0.000000,0.624724,7.258317,14.154182,5.362818,0.674043,0.000000,0.000000,0.000015,7.498025,15.450334,15.472968,13.673564,10.706362,1.349201,0.000000,0.000000,6.524043,13.075960,10.601264,9.475290,10.345703,3.424070,2
0.000000,1.500000,11.321429,15.142857,10.857143,1.535714,0.000000,0.000000,0.000000,5.321429,14.214286,12.107143,15.107143,4.178571,0.000000,0.000000,0.000000,3.357143,4.035714,4.285714,15.214286,3.035714,0.000000,0.000000,0.000000,0.285714,0.821429,11.142857,11.857143,0.392857,0.000000,0.000000,0.000000,0.000000,4.607143,15.392857,4.642857,0.000000,0.000000,0.000000,0.000000,0.500000,12.642857,11.178571,0.321429,0.071429,0.035714,0.000000,0.000000,3.892857,14.821429,12.000000,9.107143,9.642857,5.642857,0.107143,0.000000,1.500000,11.214286,15.571429,15.250000,13.250000,6.107143,0.321429,2
0.000000,2.052064,13.516960,15.157688,6.434322,0.155266,0.000000,0.000000,0.000000,7.068705,14.775721,11.619850,13.863505,1.863207,0.000000,0.000000,0.000000,4.998184,7.498444,3.258140,14.706406,3.277867,0.000000,0.000000,0.000000,0.689165,1.344128,3.722728,14.915244,2.674064,0.000000,0.000000,0.000000,0.017252,0.138015,9.705476,12.091124,0.310549,0.000000,0.000000,0.000000,0.017252,3.465793,14.535401,6.658320,0.138020,0.207022,0.000000,0.000000,1.603819,13.223679,15.483354,10.707314,8.965507,5.897434,0.207027,0.000000,2.345647,13.776656,14.949179,14.725819,14.690057,12.138879,1.345615,2
0.000000,0.626730,10.893527,13.319077,3.492707,0.026660,0.000000,0.000000,0.000000,4.520779,15.080160,13.893349,11.546213,0.533222,0.000000,0.000000,0.000000,4.934040,10.412921,3.972661,13.200494,1.639692,0.000000,0.000000,0.000000,1.799865,3.519389,2.386965,13.879850,1.972973,0.000000,0.000000,0.000000,0.226628,0.373269,5.240670,13.185582,0.973158,0.000000,0.000000,0.000000,0.000000,1.306603,11.760215,10.585331,1.093133,0.426589,0.000000,0.000000,0.680052,11.373947,15.933172,14.546054,13.452725,9.759494,0.466585,0.000000,0.479916,10.400105,12.786539,11.040164,11.093502,9.733568,1.173144,2
0.000000,0.812845,11.378605,15.167180,8.584520,0.813368,0.000000,0.000000,0.000000,5.934825,15.080331,9.999610,14.414195,5.630129,0.020851,0.000000,0.000000,5.060746,9.454232,1.774651,9.706385,10.066477,0.314847,0.000000,0.000000,1.292216,3.269620,0.811977,9.098055,10.544545,0.106868,0.000000,0.000000,0.000000,0.041684,0.645674,12.659076,7.421698,0.002206,0.000000,0.000000,0.000000,0.083369,6.222701,13.851049,3.112121,0.021276,0.000000,0.000000,0.416844,8.522791,15.041250,13.000461,7.290046,5.034731,0.396010,0.000000,0.708634,11.794599,15.000009,14.479822,14.460282,13.358684,2.521117,2
0.000000,1.323529,9.441176,14.485294,12.661765,4.470588,0.044118,0.000000,0.000000,3.588235,13.014706,9.191176,14.000000,9.985294,0.308824,0.000000,0.000000,0.573529,1.602941,4.117647,13.632353,7.029412,0.147059,0.000000,0.000000,0.132353,4.455882,13.455882,14.441176,5.544118,0.161765,0.000000,0.000000,0.073529,3.426471,9.632353,12.926471,14.294118,3.220588,0.000000,0.000000,0.044118,0.279412,0.264706,2.514706,14.397059,6.838235,0.000000,0.000000,1.029412,7.735294,8.720588,12.088235,14.514706,3.014706,0.000000,0.000000,1.161765,11.352941,13.867647,10.000000,2.941176,0.058824,0.000000,3
0.000000,1.046150,9.538453,14.107695,14.553851,9.953867,2.338499,0.153846,0.000000,2.584613,10.538481,7.292314,7.461540,14.492306,5.815420,0.107692,0.000000,0.461540,1.430771,1.507687,9.246136,13.753854,2.476942,0.000000,0.000000,0.092307,1.292303,10.338426,13.938448,4.984650,0.200006,0.000000,0.000000,0.046154,1.692302,9.384583,13.938437,6.953878,0.492334,0.000000,0.000000,0.000000,0.584613,1.399995,8.261520,13.246163,2.523096,0.000000,0.000000,0.815382,6.076902,4.923077,9.200020,13.738459,2.723071,0.000000,0.000000,1.138458,10.876917,14.615389,12.415380,5.892294,0.492306,0.000000,3
0.000000,0.000000,0.019108,4.993631,12.853503,2.267516,0.121019,0.019108,0.000000,0.000000,1.235669,13.070064,9.821656,1.210191,1.681529,0.318471,0.000000,0.127389,8.248408,13.573248,2.426752,5.178344,5.573248,0.356688,0.000000,3.420382,14.630573,6.331210,2.675159,12.191083,6.936306,0.050955,0.031847,9.203822,15.165605,9.216561,11.866242,15.375796,5.331210,0.000000,0.216561,7.222930,12.280255,12.528662,15.140127,13.229299,2.031847,0.000000,0.050955,1.025478,2.076433,4.923567,14.917197,5.401274,0.076433,0.000000,0.000000,0.006369,0.057325,5.821656,13.229299,2.127389,0.000000,0.000000,4
0.000000,0.000000,0.000000,2.559524,13.095238,4.869048,0.035714,0.000000,0.000000,0.000000,0.047619,7.369048,14.059524,2.488095,0.011905,0.023810,0.000000,0.000000,1.261905,13.238095,8.940476,2.083333,1.476190,0.119048,0.000000,0.154762,8.440476,13.107143,3.071429,7.904762,4.333333,0.011905,0.000000,4.214286,14.750000,7.095238,6.630952,13.869048,4.202381,0.000000,0.833333,11.678571,15.452381,13.130952,14.833333,14.785714,2.654762,0.000000,0.654762,6.547619,9.345238,10.202381,15.107143,11.559524,0.964286,0.000000,0.000000,0.166667,0.297619,3.261905,13.904762,5.630952,0.011905,0.000000,4
0.000000,0.000000,1.414414,11.090090,8.675676,0.837838,1.306306,0.486486,0.000000,0.099099,6.666667,14.468468,4.450450,3.477477,4.513513,0.774775,0.000000,1.828829,13.738739,8.927928,2.099099,9.513513,6.018018,0.396396,0.000000,6.549550,15.423423,8.135135,9.738739,14.261261,7.090090,0.009009,0.000000,5.693694,14.333333,14.414414,15.540541,14.252252,4.792793,0.000000,0.009009,1.081081,4.117117,8.585586,15.036036,6.486487,0.531532,0.000000,0.000000,0.009009,0.558559,9.675676,12.297297,1.126126,0.000000,0.000000,0.000000,0.000000,1.486486,12.279279,7.882883,0.234234,0.000000,0.000000,4
0.000000,0.647188,9.060008,13.254254,14.314313,12.470887,3.235840,0.000000,0.000000,4.033714,15.352033,13.194666,9.646771,8.609138,2.313993,0.000000,0.000000,6.136105,14.408513,5.119449,0.708035,0.000000,0.019624,0.000000,0.000000,5.921561,14.722488,14.646531,8.145875,0.412497,0.000000,0.000000,0.000000,1.529880,5.528674,8.168946,14.100929,2.964784,0.000000,0.000000,0.000000,0.078479,0.156966,1.386504,13.192602,5.966705,0.000000,0.000000,0.000000,0.587846,5.976683,9.288384,14.844188,3.435650,0.000000,0.000000,0.000000,0.490590,10.961912,14.196222,7.728802,0.255102,0.000000,0.000000,5
0.000000,0.724138,10.724138,13.241379,13.793103,12.379310,4.551724,0.000000,0.000000,2.551724,13.689655,9.137931,5.862069,5.344828,1.689655,0.000000,0.000000,2.931034,12.862069,4.896552,1.482759,0.034483,0.000000,0.000000,0.000000,3.689655,14.000000,13.689655,12.896552,4.517242,0.000000,0.000000,0.000000,0.517241,4.448276,3.793103,7.448275,13.413793,1.655172,0.000000,0.000000,0.103448,0.103448,0.000000,0.896551,12.931035,4.000000,0.000000,0.000000,1.551724,6.172414,2.551724,4.827586,13.965517,3.137931,0.000000,0.000000,0.896552,11.241379,15.275862,14.551724,7.241379,0.620690,0.000000,5
0.000000,0.604438,9.644480,12.749953,13.333954,12.312764,3.625753,0.000000,0.000000,3.272198,15.042121,12.957001,9.476286,8.310033,2.312238,0.000000,0.000000,4.439454,14.710401,8.892801,2.623997,0.187587,0.041686,0.000000,0.000000,4.001788,13.755545,15.127212,13.729061,3.959591,0.020833,0.000000,0.000000,0.708633,3.084692,3.292177,10.789416,11.190640,0.562703,0.000000,0.000000,0.083372,0.646134,0.333488,6.143330,13.564907,1.083788,0.000000,0.000000,1.146366,8.168652,7.792477,13.937054,10.377352,0.250116,0.000000,0.000000,0.499797,10.727331,14.603539,10.498080,1.917084,0.000000,0.000000,5
0.000000,0.235299,6.191191,12.294116,14.014703,10.823531,2.808827,0.102941,0.014706,3.397096,13.764720,13.441174,10.794112,8.823539,2.147058,0.058823,0.014706,4.647089,14.147064,4.191156,0.308822,0.117646,0.014706,0.000000,0.000000,5.044106,14.867642,9.014736,3.382363,0.147058,0.000000,0.000000,0.000000,2.382338,11.073475,14.014688,13.779419,5.132340,0.102941,0.000000,0.000000,0.147058,0.867648,2.397056,10.691170,11.411765,1.044111,0.000000,0.000000,0.132352,4.514721,7.161764,12.323537,11.426468,1.029406,0.000000,0.000000,0.029412,6.235327,14.500009,12.455880,4.294107,0.044117,0.000000,5
0.000000,0.000000,0.555608,10.611753,9.122475,0.899902,0.000000,0.000000,0.000000,0.000001,5.722996,14.933109,6.355166,0.633267,0.000000,0.000000,0.000000,0.366865,11.423517,10.387501,0.433279,0.000000,0.000000,0.000000,0.000000,1.111349,13.700646,7.932968,3.345381,1.067272,0.022221,0.000000,0.000000,1.822608,15.055794,14.856422,14.322908,12.767678,3.245272,0.000000,0.000000,0.844704,14.433647,10.787690,3.198631,6.910276,12.311197,0.366621,0.000000,0.033329,8.655603,12.733125,3.199998,6.801154,14.410802,1.399822,0.000000,0.000000,0.722496,9.189590,14.811254,14.655218,8.198853,0.377729,6
0.000000,0.025424,5.262710,12.161017,2.949151,0.322034,0.000000,0.000000,0.000000,0.491525,12.144067,10.966101,1.135593,0.135593,0.000000,0.000000,0.000000,2.186439,14.542373,4.661018,0.016949,0.050847,0.008475,0.000000,0.000000,3.898303,14.084747,3.474575,1.991524,0.966101,0.067797,0.000000,0.000000,5.661015,14.406781,11.737290,13.398307,10.423727,1.915253,0.000000,0.000000,4.203388,15.703390,12.516949,8.271184,12.627118,8.627119,0.059322,0.000000,1.220338,14.076271,12.033898,7.101691,13.237281,9.101699,0.203391,0.000000,0.059322,4.949151,13.389831,14.686441,10.771190,2.389837,0.016950,6
0.000000,0.000000,0.330556,9.487571,11.412930,1.661048,0.000000,0.000000,0.000000,0.008264,5.231322,15.256249,9.206332,1.198270,0.000000,0.000000,0.000000,0.173543,11.107230,12.330622,1.256115,0.000000,0.000000,0.000000,0.000000,1.165215,13.280975,7.876045,0.256184,0.008264,0.000000,0.000000,0.000000,2.165283,14.115764,9.817993,8.041324,4.702636,0.545484,0.000000,0.000000,1.371877,14.264511,14.355134,13.065766,13.933620,6.901230,0.214861,0.000000,0.140486,8.909228,14.726951,8.305495,11.545019,11.983662,1.239719,0.000000,0.000000,0.561946,8.471111,14.280840,14.156942,7.669503,0.462778,6
0.000000,1.096579,11.316283,14.745830,14.929825,12.034862,4.368371,0.140362,0.000000,1.236939,8.903570,8.947511,11.623392,13.719365,4.122582,0.035091,0.000000,0.228088,0.561445,1.096575,10.632247,11.157525,1.026316,0.000000,0.000000,0.921125,6.009083,10.482961,15.263411,10.324585,3.973987,0.000000,0.000000,2.482108,11.052238,15.236935,14.675334,11.429773,4.912498,0.000000,0.000000,0.499885,4.649482,14.693268,5.842011,2.096652,0.684263,0.000000,0.000000,0.403541,9.456644,12.649016,0.771912,0.035091,0.008773,0.000000,0.000000,1.210623,12.921435,7.350899,0.070181,0.000000,0.000000,0.000000,7
0.000000,0.063844,5.850923,13.797607,14.265900,9.041636,1.296450,0.000000,0.000000,1.042783,10.957332,12.053189,13.627343,13.041857,2.019220,0.000000,0.000000,0.606526,2.074951,1.138560,9.979424,12.446091,1.255146,0.000000,0.000000,0.095772,2.106647,6.074260,14.106528,11.360965,3.190719,0.000000,0.000000,1.542798,10.159973,15.127459,15.861672,13.925399,6.116483,0.000000,0.000000,1.276886,6.011557,13.436047,12.776530,5.894494,1.457665,0.000000,0.000000,0.021281,3.021066,15.031807,6.095745,0.127688,0.000000,0.000000,0.000000,0.031922,7.021064,13.457318,1.457548,0.000000,0.000000,0.000000,7
0.000000,0.047899,4.634875,12.461238,14.311414,14.401121,10.574438,2.185397,0.000000,0.239498,7.179976,10.191634,8.868523,13.131934,12.939774,1.832142,0.000000,0.035925,1.059772,0.568805,1.772832,13.018244,8.334627,0.281407,0.000000,0.215546,2.281340,5.131830,9.988344,14.460925,4.892158,0.011975,0.000000,0.826540,6.407671,12.766738,15.461134,12.994080,4.197828,0.000000,0.000000,0.814355,2.724403,10.084139,12.838128,3.784172,0.365266,0.000000,0.000000,0.035924,2.395345,13.461239,7.215264,0.335294,0.000000,0.000000,0.000000,0.023950,5.802628,12.820236,2.544712,0.023950,0.000000,0.000000,7
0.000000,0.066651,5.433584,12.655875,12.833254,6.966554,0.699834,0.000000,0.000000,1.200434,12.022934,11.676661,9.076800,12.776996,2.477194,0.000000,0.000000,1.290022,10.278681,10.142365,9.276509,11.199238,2.233640,0.000000,0.000000,0.433835,6.168678,14.566529,13.578355,5.979460,0.678691,0.000000,0.000000,0.588750,8.945195,14.800289,11.810794,1.810678,0.077759,0.000000,0.000000,1.877932,13.400393,6.412089,12.167462,5.577520,0.055542,0.000000,0.000000,1.722291,13.522700,5.911134,10.322503,9.923088,0.311037,0.000000,0.000000,0.122193,5.622545,13.288817,13.578243,5.989981,0.088868,0.000000,8
0.000000,0.095240,5.079400,12.603188,12.444452,5.349212,0.238091,0.000000,0.000000,2.920655,14.031772,8.619025,8.492076,12.317482,2.079350,0.000000,0.000000,5.396853,13.444477,5.142902,8.444553,11.984122,1.730150,0.000000,0.000000,2.476195,12.365074,14.920672,15.015907,8.349208,0.317466,0.000000,0.000000,0.619058,9.952469,13.174564,10.952342,12.301584,2.333360,0.000000,0.000000,0.873031,11.888953,5.682472,0.698408,10.444451,7.460342,0.000000,0.000000,0.682551,12.380980,7.761917,5.158779,12.682605,6.365060,0.000000,0.000000,0.015873,5.127016,13.587328,13.444456,8.603143,1.460300,0.000000,8
0.000000,0.047174,4.414679,11.848861,12.962352,6.858298,0.679305,0.000000,0.000000,2.801594,14.084640,9.963147,8.849488,13.170629,2.839876,0.000000,0.000000,5.537150,13.329233,2.784335,5.085351,13.416285,2.641122,0.000000,0.000000,1.839336,12.017352,12.536637,14.339293,8.820464,0.791720,0.000000,0.000000,0.113217,6.413516,15.065332,14.642363,4.529803,0.141524,0.000000,0.000000,0.716596,10.310273,9.736171,9.488971,11.671388,1.264548,0.000000,0.000000,0.858208,11.697725,8.821167,6.008249,14.198205,3.557562,0.000000,0.000000,0.066044,4.659896,12.905646,14.046816,9.518921,1.292752,0.037739,8
0.000000,0.115979,6.799833,13.778675,12.652167,4.347929,0.157860,0.000000,0.000000,2.663771,14.484107,7.789730,9.452976,13.053153,1.746989,0.000000,0.000000,5.526204,13.000426,1.053158,4.442988,15.105455,3.757621,0.000000,0.000000,2.862759,13.231207,9.684931,11.274389,15.609966,4.884336,0.000000,0.000000,0.105240,4.231093,8.293803,7.546598,13.010096,6.315717,0.000000,0.000000,0.094722,0.252579,0.105240,0.463062,10.653259,7.546922,0.000000,0.000000,0.800048,6.284145,5.032862,4.253886,12.821420,6.147219,0.021048,0.000000,0.115980,7.052521,14.220144,14.578379,10.367353,1.578604,0.000000,9
*****************************
0 => 100.00
0 => 100.00
0 => 100.00
1 => 98.41
2 => 100.00
2 => 100.00
2 => 100.00
2 => 100.00
2 => 100.00
3 => 100.00
3 => 98.46
4 => 99.36
4 => 100.00
4 => 98.20
5 => 100.00
5 => 100.00
5 => 100.00
5 => 100.00
6 => 100.00
6 => 99.15
6 => 98.35
7 => 99.12
7 => 100.00
7 => 98.20
8 => 98.89
8 => 98.41
8 => 100.00
9 => 100.00
*****************************