0.000000,0.016667,5.275000,12.850000,11.941667,4.116667,0.150000,0.000000,0.000000,0.841667,13.383333,13.483333,12.266667,12.758333,1.358333,0.000000,0.000000,3.241667,14.775000,3.958333,1.883333,12.350000,4.508333,0.000000,0.000000,5.075000,12.991667,0.941667,0.066667,9.416667,6.733333,0.000000,0.000000,5.416667,11.841667,0.433333,0.133333,10.858333,6.091667,0.000000,0.000000,3.783333,13.241667,1.441667,3.133333,14.450000,3.375000,0.000000,0.000000,0.900000,13.983333,11.575000,14.100000,11.141667,0.216667,0.000000,0.000000,0.000000,5.408333,13.666667,11.058333,1.741667,0.000000,0.000000,0
0.000000,0.042373,4.381356,13.745763,12.262712,2.983051,0.033898,0.000000,0.000000,1.550847,13.745763,11.279661,10.262712,11.661017,0.779661,0.000000,0.000000,5.127119,14.169492,2.406780,1.067797,12.016949,3.754237,0.000000,0.000000,6.152542,11.677966,0.627119,0.025424,7.177966,7.686441,0.000000,0.000000,6.338983,10.703390,0.186441,0.033898,5.940678,8.661017,0.000000,0.000000,3.610169,13.144068,0.584746,0.016949,8.076271,8.381356,0.000000,0.000000,0.737288,13.355932,8.194915,6.610169,14.110169,4.127119,0.000000,0.000000,0.000000,4.398305,13.872881,14.915254,8.186441,0.313559,0.000000,0
0.000000,0.000000,1.882353,12.588235,12.029412,1.941176,0.000000,0.000000,0.000000,0.573529,10.132353,14.661765,13.544118,10.485294,0.308824,0.000000,0.000000,2.691176,13.794118,8.397059,2.647059,13.235294,2.455882,0.000000,0.000000,3.794118,13.794118,4.955882,0.205882,9.250000,5.808824,0.000000,0.000000,3.573529,13.941176,3.588235,0.352941,8.514706,7.573529,0.000000,0.000000,1.205882,14.455882,4.897059,1.220588,11.926471,7.397059,0.000000,0.000000,0.176471,10.161765,13.088235,11.382353,15.102941,3.441176,0.000000,0.000000,0.000000,1.852941,12.102941,14.338235,7.029412,0.294118,0.000000,0
0.000000,0.057971,6.449275,13.449275,5.768116,0.130435,0.000000,0.000000,0.000000,1.681159,13.840580,14.014493,14.289855,5.782609,0.028986,0.000000,0.000000,3.985507,14.550725,6.173913,8.478261,14.072464,1.405797,0.000000,0.000000,5.304348,13.057971,1.449275,1.202899,12.188406,5.608696,0.000000,0.000000,5.753623,12.086957,0.478261,0.159420,9.695652,7.304348,0.000000,0.000000,4.188406,13.811594,1.188406,1.014493,11.333333,7.565217,0.000000,0.000000,1.275362,14.405797,10.391304,10.753623,14.927536,3.797101,0.000000,0.000000,0.115942,6.217391,14.362319,13.463768,6.231884,0.275362,0.000000,0
0.000000,0.000000,1.507038,14.197186,11.605641,1.478872,0.000000,0.000000,0.000000,0.309860,5.338029,15.830985,15.535210,3.169004,0.000000,0.000000,0.183099,2.225358,8.633799,15.873239,13.943656,1.690145,0.000000,0.000000,0.056338,2.225356,8.070403,15.422534,12.478869,1.070423,0.000000,0.000000,0.000000,0.760549,6.436593,15.295773,11.647881,0.788735,0.000000,0.000000,0.000000,0.126761,5.690123,15.197181,10.971834,0.619720,0.000000,0.000000,0.000000,0.000000,4.746473,15.366195,12.098586,1.253524,0.000000,0.000000,0.000000,0.000000,1.492954,12.591543,12.971823,2.957721,0.112676,0.000000,1
0.000000,0.000000,0.022222,2.424068,12.043746,11.144059,1.432357,0.000000,0.000000,0.136361,1.361567,8.811451,15.408040,14.370811,2.456597,0.000000,0.000000,3.020085,10.676078,15.022199,15.818186,13.528310,1.591895,0.000000,0.000000,5.387397,11.913292,10.842063,14.972250,13.251971,1.431787,0.000000,0.000000,0.661793,2.231060,2.885465,14.654579,13.272594,1.339828,0.000000,0.000000,0.000000,0.000000,2.386344,14.156694,13.386281,1.677617,0.000000,0.000000,0.000000,0.044444,3.200396,14.362104,14.272669,3.063963,0.000000,0.000000,0.000000,0.022222,2.221534,12.358399,13.659078,3.317092,0.000000,1
0.000000,1.565598,12.464393,13.374002,4.395010,0.030402,0.000000,0.000000,0.000000,6.575597,14.828400,14.292797,9.616806,0.505403,0.000000,0.000000,0.000000,5.878696,7.010297,8.878197,10.950005,0.444602,0.000000,0.000000,0.000000,1.484699,2.434098,10.818103,9.111201,0.060600,0.000000,0.000000,0.000000,0.090900,3.121103,14.091002,4.495098,0.000000,0.000000,0.000000,0.000000,0.525199,9.020200,12.585800,1.393899,0.515099,0.373700,0.000000,0.000000,2.908797,14.514896,14.212101,12.252296,12.352692,6.746796,0.080800,0.000000,1.575598,12.494791,14.596099,13.747702,12.020602,6.827797,0.282800,2
0.000000,0.418919,8.418919,14.783784,10.635135,1.689189,0.013514,0.000000,0.000000,3.689189,14.216216,11.891892,13.486486,8.594594,0.162162,0.000000,0.000000,3.918919,9.689189,2.918919,7.040541,12.445946,0.662162,0.000000,0.000000,1.162162,3.418919,0.905405,7.256757,12.405406,0.472973,0.000000,0.000000,0.027027,0.094595,0.945946,11.905405,8.756757,0.175676,0.000000,0.000000,0.000000,0.391892,6.878378,13.810811,4.621622,0.378378,0.000000,0.000000,0.243243,8.202703,15.202703,14.324325,10.891892,8.054054,0.918919,0.000000,0.364865,8.756757,13.837838,12.418919,11.702703,11.418919,2.945946,2
0.000000,1.022222,11.259259,14.185185,5.111111,0.037037,0.000000,0.000000,0.000000,5.170370,14.985185,12.629630,13.244444,1.118519,0.000000,0.000000,0.000000,4.777778,9.340741,3.007407,13.933333,2.933333,0.000000,0.000000,0.000000,1.281481,2.400000,2.074074,14.281481,2.881481,0.000000,0.000000,0.000000,0.125926,0.200000,5.762963,13.303704,1.177778,0.000000,0.000000,0.000000,0.014815,1.666667,12.022222,9.903704,0.814815,0.311111,0.000000,0.000000,0.866667,11.207407,15.777778,13.044444,11.140741,7.874074,0.377778,0.000000,1.037037,11.274074,13.674074,12.562963,12.570370,10.948148,1.377778,2
0.000000,1.116813,9.754731,14.616859,12.298009,3.319407,0.021279,0.000000,0.000000,4.616184,13.606450,9.574428,14.574308,8.489867,0.170232,0.000000,0.000000,1.361289,2.808713,4.244266,14.095531,6.011204,0.053197,0.000000,0.000000,0.095755,3.319530,13.223093,14.989245,5.670171,0.063837,0.000000,0.000000,0.053197,2.585402,8.478900,12.563781,14.659408,3.382792,0.000000,0.000000,0.106395,0.585172,0.308552,1.861817,14.414828,7.307863,0.000000,0.000000,1.127334,9.265760,8.340465,10.968426,14.861688,3.967064,0.000000,0.000000,0.861577,11.106060,14.276400,11.318615,4.467458,0.127561,0.000000,3
0.000000,1.028985,9.463768,14.057971,14.594203,9.855073,1.942029,0.115942,0.000000,2.898551,10.884058,7.376812,7.681160,14.594203,5.289855,0.086957,0.000000,0.608696,1.492754,1.579710,9.652174,13.521739,2.188406,0.000000,0.000000,0.086957,1.405797,10.536232,14.057971,4.594203,0.159420,0.000000,0.000000,0.057971,1.927536,9.623189,14.101449,7.144927,0.391304,0.000000,0.000000,0.000000,0.652174,1.376812,8.072464,13.304348,2.681159,0.000000,0.000000,0.826087,6.043479,4.942029,9.304348,13.811594,2.753623,0.000000,0.000000,1.101449,11.115942,14.652174,12.362319,5.695652,0.420290,0.000000,3
0.000000,0.411250,8.579747,14.261791,13.822501,5.009610,0.121506,0.000000,0.000000,4.084469,13.327217,8.709820,10.672430,12.327480,0.906622,0.000000,0.000000,1.775858,3.420857,1.738199,10.018164,11.327658,0.654263,0.000000,0.000000,0.037386,0.981389,8.935005,15.448550,8.757340,0.345825,0.000000,0.000000,0.000000,0.878582,5.925753,10.654262,14.411250,4.289920,0.000000,0.000000,0.084119,0.654263,0.224319,0.523149,10.120979,10.290094,0.028040,0.000000,1.280479,9.299791,5.299533,4.831760,13.196016,9.589274,0.074773,0.000000,0.401902,8.925485,14.785202,15.055992,11.214883,2.252272,0.018693,3
0.000000,0.000000,0.000000,2.588235,13.019608,4.470588,0.039216,0.000000,0.000000,0.000000,0.058824,7.274510,14.078431,2.117647,0.000000,0.000000,0.000000,0.000000,1.215686,13.019608,9.039216,1.411765,0.764706,0.039216,0.000000,0.098039,7.843137,13.333333,3.372549,6.529412,3.411765,0.000000,0.000000,3.254902,14.490196,6.745098,6.450980,12.960784,3.431373,0.000000,0.745098,12.019608,15.352941,11.764706,14.294118,14.607843,2.450980,0.000000,0.725490,8.921569,12.156863,12.901961,15.509804,12.215686,1.450980,0.000000,0.000000,0.274510,0.490196,3.529412,14.117647,4.980392,0.000000,0.000000,4
0.000000,0.000000,0.013333,4.666661,13.866664,2.506673,0.280001,0.173334,0.000000,0.000000,1.626654,13.346660,10.480001,1.000002,2.920007,0.733335,0.000000,0.359998,9.599985,13.480011,1.680004,5.386651,7.933333,0.493335,0.000000,4.586656,15.173336,6.346679,2.519994,12.679992,7.946669,0.013333,0.013333,9.053336,15.626668,13.640014,13.946671,15.800000,6.066660,0.000000,0.093334,3.520001,8.426651,9.799985,14.813330,12.453337,1.213334,0.000000,0.000000,0.000000,0.000000,2.719990,15.079998,5.746678,0.013333,0.000000,0.000000,0.000000,0.000000,5.559996,13.586668,1.720004,0.000000,0.000000,4
0.000000,0.000000,0.000000,2.000308,13.122235,5.648413,0.017549,0.000000,0.000000,0.000000,0.070197,8.247533,14.227542,2.699830,0.087747,0.000000,0.000000,0.000000,2.790337,14.177644,7.400869,3.455959,3.193945,0.052648,0.000000,1.052653,11.246912,11.612710,2.855926,11.191783,6.141644,0.000000,0.017549,7.349755,15.596370,10.103488,9.735880,15.613914,5.824837,0.000000,0.491382,9.053242,14.228746,14.141000,15.245993,15.122548,3.297734,0.000000,0.228142,1.333746,2.334043,3.878381,14.298636,10.402118,0.193043,0.000000,0.000000,0.000000,0.000000,2.315262,14.367910,6.946450,0.017549,0.000000,4
0.000000,0.000000,1.963636,13.381818,6.709091,0.527273,0.581818,0.236364,0.000000,0.127273,8.836364,14.090909,3.127273,3.109091,2.490909,0.600000,0.000000,2.345455,14.563636,7.454545,2.636364,8.181818,4.345455,0.363636,0.000000,7.272727,15.290909,7.454545,9.945455,14.345455,7.436364,0.000000,0.000000,5.563636,14.345455,14.472727,15.636364,13.690909,4.290909,0.000000,0.000000,0.563636,3.527273,9.800000,15.018182,4.763636,0.290909,0.000000,0.000000,0.000000,0.672727,12.018182,11.200000,0.581818,0.000000,0.000000,0.000000,0.000000,1.927273,14.472727,6.381818,0.072727,0.000000,0.000000,4
0.000000,0.000000,0.045454,6.090862,12.954535,1.204567,0.000000,0.000000,0.000000,0.000000,1.772708,13.999944,8.363667,0.136362,0.249997,0.227270,0.000000,0.136362,9.499917,12.954568,1.204598,1.795501,4.181848,0.659083,0.000000,3.818140,15.136340,4.931840,0.727264,10.636424,8.681756,0.181816,0.022727,9.863605,14.250008,2.340917,7.386304,15.022738,3.954524,0.000000,0.545448,11.318198,15.681822,14.840922,15.681822,12.840912,0.977274,0.000000,0.295451,3.136339,6.363608,8.795410,15.590914,4.363656,0.045454,0.000000,0.000000,0.022727,0.227270,6.931783,12.636401,1.204568,0.000000,0.000000,4
0.000000,0.386320,7.749574,12.704801,13.856302,11.492811,3.326169,0.015150,0.007575,2.476713,14.150207,12.886267,9.370952,8.106160,2.159526,0.000000,0.000000,3.794749,14.582709,5.197289,0.681689,0.121198,0.030300,0.000000,0.000000,5.022164,14.908654,12.878918,9.144551,1.583948,0.015150,0.000000,0.000000,2.098019,8.884681,9.461106,13.764106,8.608194,0.417018,0.000000,0.000000,0.106104,0.538041,0.636123,7.687452,12.713170,1.182422,0.000000,0.000000,0.598641,5.825323,6.810289,12.643074,10.637481,0.848565,0.000000,0.000000,0.302941,8.741210,14.530359,11.386836,2.985819,0.060603,0.000000,5
0.000000,0.811802,8.811705,13.484718,14.286622,11.464153,2.563826,0.000000,0.019800,5.366296,15.049786,14.395809,11.494231,9.810937,2.514129,0.009900,0.049500,7.029790,13.367359,5.613320,0.752114,0.435601,0.168300,0.000000,0.000000,5.040367,12.882932,9.574977,2.317576,0.000000,0.000000,0.000000,0.000000,1.030187,7.536340,12.306711,8.159561,0.485296,0.000000,0.000000,0.000000,0.029702,1.573914,8.166948,12.198001,2.475880,0.000000,0.000000,0.000000,0.445117,6.316609,12.029030,12.109287,2.634275,0.039600,0.000000,0.000000,0.574298,10.099097,14.257590,6.832273,0.999903,0.009900,0.000000,5
0.000000,0.008264,1.049587,11.008264,9.148760,1.181818,0.000000,0.000000,0.000000,0.140496,7.504132,14.545455,6.033058,0.834711,0.000000,0.000000,0.000000,0.809917,12.752066,8.727273,0.330578,0.024793,0.000000,0.000000,0.000000,1.917355,14.438017,8.735537,5.859504,2.355372,0.123967,0.000000,0.000000,2.446281,15.272727,13.859504,12.909091,12.975207,3.917355,0.000000,0.000000,1.090909,14.553719,8.115702,1.661157,6.859504,11.942149,0.272727,0.000000,0.140496,9.512397,11.876033,3.727273,8.809917,13.173554,0.917355,0.000000,0.008264,1.165289,9.975207,14.909091,13.619835,6.231405,0.256198,6
0.000000,0.066116,5.388430,11.983471,2.942149,0.388430,0.000000,0.000000,0.000000,0.553719,12.206612,10.851240,1.132231,0.190083,0.000000,0.000000,0.000000,2.314050,14.619835,4.628099,0.041322,0.049587,0.008264,0.000000,0.000000,3.950413,14.173554,3.710744,2.214876,1.074380,0.066116,0.000000,0.000000,5.735537,14.330579,11.586777,13.322314,10.396694,1.859504,0.000000,0.000000,4.157025,15.702479,11.991736,7.966942,12.636364,8.471074,0.041322,0.000000,1.264463,14.123967,11.991736,7.206612,13.363636,8.834711,0.190083,0.000000,0.107438,5.057851,13.471074,14.619835,10.586777,2.314050,0.024793,6
0.000000,0.109164,6.763814,14.199461,14.053234,6.124662,0.127359,0.000000,0.000000,1.273248,11.619609,11.400607,14.546159,10.541778,0.581536,0.000000,0.000000,0.600404,1.946091,1.744272,12.729111,9.724056,0.473046,0.000000,0.000000,0.163747,2.815701,6.743261,15.218329,9.651954,2.489218,0.000000,0.000000,2.437668,11.874663,15.563679,15.818059,13.652965,6.397911,0.000000,0.000000,1.618598,6.564016,14.292453,11.417116,5.566712,1.364555,0.000000,0.000000,0.000000,3.983828,15.327156,4.216644,0.218329,0.000000,0.000000,0.000000,0.036388,8.201145,12.434637,0.745620,0.000000,0.000000,0.000000,7
0.000000,0.763927,11.035463,14.793956,15.365224,13.112061,3.315201,0.031738,0.000000,0.937015,8.747302,8.716068,11.159185,15.095211,3.126767,0.000000,0.000000,0.174565,0.476080,0.571532,10.222685,12.014156,0.904544,0.000000,0.000000,0.921673,7.206109,11.141098,15.507570,11.854205,4.475553,0.000000,0.000000,2.334494,11.065259,15.254167,14.952640,12.017586,5.175779,0.000000,0.000000,0.317628,3.448047,14.935554,5.854960,1.920680,0.555422,0.000000,0.000000,0.064217,8.686837,13.550495,0.870822,0.000000,0.000000,0.000000,0.000000,0.796154,12.684383,7.772180,0.078850,0.000000,0.000000,0.000000,7
0.000000,0.009898,5.267629,13.356994,14.445985,13.415343,5.504704,0.188065,0.000000,0.633577,8.563915,10.929957,10.713334,15.336822,7.384697,0.089084,0.000000,0.336538,1.554202,0.297701,4.536395,15.118207,3.543548,0.000000,0.000000,0.188160,2.248681,5.090607,11.892069,13.544497,2.802702,0.000000,0.000000,1.257822,9.723027,14.663648,15.841439,14.395831,5.713423,0.000000,0.000000,1.158275,4.386117,12.336917,12.821354,4.612738,0.960124,0.000000,0.000000,0.069287,2.593893,14.871514,6.128955,0.000000,0.000000,0.000000,0.000000,0.000000,6.544401,13.436081,1.564196,0.000000,0.000000,0.000000,7
0.000000,0.076941,5.954531,12.831197,12.615304,5.398958,0.276990,0.000000,0.000000,3.000000,14.661443,9.723712,7.923980,11.460959,2.600148,0.000000,0.000000,4.906951,13.800191,2.985067,4.924024,12.968991,3.938903,0.000000,0.000000,2.075765,12.446041,11.630229,13.046885,10.614773,1.692696,0.000000,0.000000,0.076944,6.278202,15.569591,13.568605,2.692689,0.307763,0.000000,0.000000,0.492438,9.615300,13.400568,13.477696,5.337367,0.169270,0.000000,0.000000,1.123342,11.954068,10.678059,12.432990,8.922099,0.815572,0.000000,0.000000,0.092329,6.446937,13.800180,13.045462,5.260641,0.446256,0.000000,8
0.000000,0.000000,5.118820,13.065372,11.357976,4.709514,0.355550,0.000000,0.000000,1.087842,12.138157,13.198794,11.116896,11.742569,1.862414,0.000000,0.000000,1.476205,10.902196,11.706159,7.950879,11.198076,2.201006,0.000000,0.000000,0.440209,6.191609,14.779917,14.218776,8.416529,0.981965,0.000000,0.000000,0.627235,9.088566,13.761376,14.202623,5.004457,0.084923,0.000000,0.000000,2.456600,13.932000,6.098611,8.433236,11.713266,1.648966,0.000000,0.000000,2.575136,14.337822,6.253365,5.932163,13.624324,3.954528,0.000000,0.000000,0.118517,5.627507,12.965329,14.117436,9.695297,1.966165,0.016931,8
0.000000,0.066044,4.471559,12.085534,13.028665,6.493556,0.567069,0.000000,0.000000,2.886692,14.094079,8.753892,8.329671,12.294447,2.794220,0.000000,0.000000,5.632931,13.461144,3.233909,6.140360,12.332809,2.274232,0.000000,0.000000,2.048068,12.264891,13.876808,14.584875,8.397865,0.415131,0.000000,0.000000,0.358256,7.583272,14.019583,12.934315,9.856689,1.377391,0.000000,0.000000,0.707525,10.848329,7.415749,3.247539,11.829639,4.988954,0.000000,0.000000,0.612818,11.603736,8.320779,4.603028,13.047983,5.734213,0.000000,0.000000,0.018870,4.537698,13.114021,13.821631,9.358432,1.471377,0.037739,8
0.000000,0.161600,6.636503,13.747500,11.948797,3.555198,0.080800,0.000000,0.000000,2.748002,14.484699,8.625900,10.586203,12.049797,1.191801,0.000000,0.000000,5.969901,12.989901,1.131401,5.545394,14.787800,2.878800,0.000000,0.000000,3.454600,14.000198,9.131793,11.444799,15.575800,4.313498,0.000000,0.000000,0.202000,5.363304,9.858107,9.040209,13.737001,6.020298,0.000000,0.000000,0.070700,0.222200,0.181800,0.515399,11.182195,7.686403,0.000000,0.000000,0.535301,5.514605,5.353401,4.829191,12.989602,6.423606,0.010100,0.000000,0.111100,6.919497,14.131198,14.241605,10.100010,1.616002,0.000000,9
*****************************
0 => 100.00
0 => 100.00
0 => 100.00
0 => 98.55
1 => 98.59
1 => 100.00
2 => 100.00
2 => 100.00
2 => 100.00
3 => 100.00
3 => 98.55
3 => 99.07
4 => 100.00
4 => 100.00
4 => 98.25
4 => 98.18
4 => 100.00
5 => 100.00
5 => 100.00
6 => 98.35
6 => 98.35
7 => 100.00
7 => 100.00
7 => 99.01
8 => 100.00
8 => 100.00
8 => 98.11
9 => 98.99
*****************************