0.000000,0.042467,5.382560,12.658998,12.618224,6.018381,0.106168,0.000000,0.000000,1.001564,13.107354,12.229995,7.766416,13.573670,2.761170,0.000000,0.000000,3.278816,14.038908,3.994331,0.467953,8.746812,5.634955,0.000000,0.000000,5.148592,12.499185,1.316481,0.042460,7.122597,6.852973,0.000000,0.000000,6.065279,10.160226,0.212336,0.000000,9.159782,5.685542,0.000000,0.000000,4.170646,11.908677,0.297677,1.656231,12.582844,2.819798,0.000000,0.000000,1.232761,13.870161,7.040480,10.732679,10.771320,0.431926,0.000000,0.000000,0.021234,5.530416,14.298070,11.411515,2.224488,0.000800,0.000000,0
0.000000,0.000000,3.259333,13.001719,10.480244,2.120164,0.000000,0.000000,0.000000,0.673858,12.318235,12.826044,10.708827,10.716458,0.376280,0.000000,0.000000,3.786279,14.011227,3.904265,1.684473,12.170498,2.745379,0.000000,0.000000,4.980916,11.380743,1.445689,0.135961,7.200592,6.668029,0.000000,0.000000,5.882018,9.999484,0.244247,0.000024,5.499575,8.214471,0.000000,0.000000,3.229664,12.800775,0.406688,0.000798,7.150311,8.182487,0.000000,0.000000,0.214567,12.857392,8.734249,5.794387,14.249542,4.428860,0.000000,0.000000,0.000000,3.151507,13.264075,14.947270,9.050667,0.590921,0.000000,0
0.000000,0.499947,0.749813,10.500160,9.500640,0.250507,0.000000,0.000000,0.000000,3.249653,7.998720,13.250133,9.249760,7.250720,0.000000,0.000000,0.000000,5.249600,9.748853,3.500747,0.500320,11.250187,0.249973,0.000000,0.000000,4.000000,9.999573,2.501067,0.000853,5.500480,5.749653,0.000000,0.000000,3.250080,11.749440,0.000427,0.000160,2.750827,9.749547,0.000000,0.000000,0.500053,13.500000,1.249867,0.000000,2.000480,12.499520,0.000000,0.000000,0.000000,6.250400,11.249760,4.250027,9.250240,11.749707,0.000000,0.000000,0.000000,0.499893,10.000000,15.000053,14.250133,4.000107,0.000000,0
0.000000,0.000000,2.833262,13.237687,10.846827,1.788389,0.021307,0.000000,0.000000,0.402944,10.896227,15.488701,14.049406,10.318745,0.383530,0.000000,0.000000,2.596596,15.020809,10.415629,3.748061,13.662576,2.447471,0.000000,0.000000,4.424711,15.256610,5.084568,0.617736,12.257098,5.214989,0.000000,0.000000,4.896273,14.894428,2.956404,0.190333,11.915682,6.639693,0.000000,0.000000,2.682259,14.979188,4.706072,3.379799,14.086161,5.449387,0.000000,0.000000,0.490044,12.278829,13.006305,13.407768,14.065856,1.659132,0.000000,0.000000,0.000000,2.853676,12.913312,13.870771,5.128843,0.063923,0.000000,0
0.000000,0.000000,5.498263,13.770918,10.956959,1.684458,0.000000,0.000000,0.000000,1.226689,14.499280,12.841517,13.362050,10.822792,0.228192,0.000000,0.000000,5.222747,14.408847,2.589636,2.633592,14.066688,3.276610,0.000000,0.000000,6.769415,11.676999,0.158521,0.113591,9.772282,7.182243,0.000000,0.000000,6.979280,10.884974,0.181729,0.000000,8.452864,8.047385,0.000000,0.000000,4.208912,13.410349,0.884941,0.817763,11.429601,6.933309,0.000000,0.000000,1.249362,13.866659,10.682545,11.041990,14.545149,2.753620,0.000000,0.000000,0.000000,5.249858,14.070073,13.275071,5.322014,0.184197,0.000000,0
0.000000,0.000000,6.851852,12.629630,1.851852,0.000000,0.000000,0.000000,0.000000,0.074074,6.481481,15.481481,4.518519,0.037037,0.000000,0.000000,0.000000,0.629630,6.740741,15.703704,6.888889,0.111111,0.000000,0.000000,0.000000,0.703704,7.444444,15.592593,10.333333,0.666667,0.000000,0.000000,0.000000,0.407407,3.888889,11.444444,13.111111,2.481482,0.000000,0.000000,0.000000,0.000000,0.703704,4.777778,13.222222,6.111111,0.185185,0.000000,0.000000,0.000000,6.222222,11.037037,14.222222,13.407407,9.222222,4.333333,0.000000,0.000000,5.629630,14.666667,15.481481,15.703704,14.888889,10.074074,1
0.000000,0.000000,0.000000,0.625000,8.750000,15.125000,4.000000,0.000000,0.000000,0.125000,2.750000,8.937500,15.562500,15.875000,3.437500,0.000000,0.000000,5.062500,13.437500,14.625000,13.625000,15.562500,3.250000,0.000000,0.000000,4.562500,9.500000,4.812501,9.625000,15.437500,2.312500,0.000000,0.000000,0.187500,0.687501,0.000000,9.625000,15.250000,2.312500,0.000000,0.000000,0.000000,0.000000,0.000000,10.000000,14.687500,2.187500,0.000000,0.000000,0.000000,0.000000,0.187500,10.625000,15.312500,5.000000,0.000000,0.000000,0.000000,0.000000,0.437500,10.187500,14.687500,4.375000,0.000000,1
0.000000,1.511424,12.069487,14.988500,8.755826,1.255644,0.000000,0.000000,0.023253,7.383274,14.686224,12.058669,12.884121,3.453022,0.000000,0.000000,0.000000,5.697200,6.477488,4.256453,13.651336,3.220495,0.000000,0.000000,0.000000,0.639468,0.953388,6.593611,13.395027,1.395162,0.000000,0.000000,0.000000,0.000000,1.348787,12.326061,8.743959,0.162769,0.000000,0.000000,0.000000,0.395295,6.802607,13.837495,4.116002,1.836964,1.337030,0.011626,0.000000,1.825335,13.744350,13.593345,10.906588,11.603772,7.208363,0.127894,0.000000,1.534677,12.976467,14.732719,13.244548,11.035549,6.115747,0.186035,2
0.000000,0.166390,7.367652,15.078211,14.377341,5.932414,0.046390,0.000000,0.000000,2.665438,12.921481,11.340981,10.459448,13.711694,0.963131,0.000000,0.000000,2.134485,7.178095,1.958360,5.174749,14.460436,1.499105,0.000000,0.000000,0.257747,0.632433,0.295997,7.971368,12.236520,1.123131,0.000000,0.000000,0.000008,0.041620,2.555211,11.459500,8.278000,0.457572,0.000000,0.000000,0.000000,1.793488,8.220931,12.321826,4.620917,0.878359,0.041598,0.000000,0.166390,7.284762,14.793680,13.580784,11.048222,6.998968,1.164979,0.000000,0.041597,7.986932,14.999997,13.045638,11.202510,8.943730,3.411210,2
0.000000,0.238102,8.095311,14.595322,8.904839,0.357153,0.000000,0.000000,0.000000,3.928572,14.761939,11.690411,13.952401,3.595215,0.000000,0.000000,0.023810,4.642819,11.261870,3.142860,12.928574,5.571461,0.000000,0.000000,0.000000,1.690421,3.547480,1.404744,13.333335,5.714322,0.000000,0.000000,0.000000,0.119050,0.261911,2.999980,14.166627,3.500073,0.000000,0.000000,0.000000,0.000000,0.666657,8.428482,12.880965,1.952327,0.309519,0.000000,0.000000,0.285722,7.499975,15.190452,13.428558,9.380822,9.333159,1.904758,0.000000,0.142861,7.761968,13.642900,12.547834,13.166862,13.357385,5.595339,2
0.000000,0.718211,9.359510,14.625415,14.921121,9.265232,0.531396,0.000000,0.015629,5.181618,12.761866,8.563130,10.671591,14.861309,1.877969,0.000000,0.015629,2.276631,2.854181,2.388752,12.639554,11.630085,0.594650,0.000000,0.000000,0.015629,0.280831,7.948411,15.063014,6.204193,0.062515,0.000000,0.000000,0.000000,0.078143,3.732154,12.365163,11.744794,2.292999,0.000000,0.000000,0.000000,0.203172,0.109408,3.756670,13.302116,6.352556,0.000000,0.000000,0.343841,5.188589,5.360774,8.456517,14.673022,5.743530,0.000000,0.000000,0.422010,10.313324,15.344067,14.670057,8.933282,0.733570,0.000000,3
0.000000,1.307356,10.234687,14.485552,14.703182,11.930907,2.522943,0.000000,0.000000,2.404282,10.621196,8.249323,9.180324,14.790344,7.386045,0.100911,0.000000,0.353193,0.959975,0.399838,8.421332,14.495802,3.415822,0.000000,0.000000,0.050456,0.302543,2.892250,14.892785,9.515323,0.100916,0.000000,0.000000,0.000000,0.000000,3.095466,14.437755,9.509392,0.400808,0.000000,0.000000,0.000000,0.000387,0.394741,10.091282,13.587182,2.081715,0.000000,0.000000,0.454019,5.408377,7.042348,13.310544,12.681913,0.837325,0.000000,0.000000,1.609691,11.481839,14.447409,11.400102,3.387518,0.000387,0.000000,3
0.000000,0.923076,9.307691,14.692305,15.846151,12.384614,3.615383,0.076923,0.000000,2.461538,10.923075,9.307694,11.615384,15.538460,5.615382,0.076923,0.000000,0.384616,0.846156,3.846157,12.384616,12.153844,1.538460,0.000000,0.000000,0.000000,2.000001,12.846154,12.153846,2.076924,0.000000,0.000000,0.000000,0.000000,4.384615,14.615384,10.769230,1.000001,0.000000,0.000000,0.000000,0.000001,1.923078,9.538461,14.923077,5.923074,0.000000,0.000000,0.000000,0.307693,2.153850,6.461538,14.076923,7.846150,0.461538,0.000000,0.000000,0.461538,11.307689,14.846153,10.153848,2.769231,0.000000,0.000000,3
0.000000,0.527752,8.929252,14.745880,12.638058,2.568230,0.000000,0.000000,0.018176,4.894205,13.617694,8.763708,14.036660,6.329693,0.000000,0.000000,0.000000,1.783491,3.779879,5.108731,13.764641,3.911023,0.000000,0.000000,0.000000,0.218104,2.653373,13.074000,13.672151,3.980787,0.018170,0.000000,0.000000,0.018170,1.599500,7.948701,12.092221,14.017827,2.892809,0.000000,0.000000,0.908757,2.232342,0.436232,1.802319,13.090575,7.893797,0.000000,0.000000,1.944778,9.829933,6.020050,7.275849,14.455023,6.456927,0.036353,0.000000,0.399874,9.856250,15.055830,14.563443,8.835102,0.817918,0.000000,3
0.000000,0.000000,0.167014,8.276152,12.183314,1.372769,0.395669,0.020825,0.000000,0.000000,3.439002,15.395676,6.624289,0.855858,0.770511,0.187422,0.000000,0.271145,12.272894,10.956652,1.769186,4.418928,2.999694,0.083299,0.000000,5.081682,15.354444,3.084967,5.496755,10.938541,5.605004,0.000000,0.000000,10.515133,14.125816,5.876782,12.536010,13.938010,4.666421,0.000000,0.145773,9.096554,14.811194,14.934092,15.645989,11.331478,1.374377,0.000000,0.041649,1.770128,4.812633,9.254110,14.500241,2.748488,0.000000,0.000000,0.000000,0.062474,0.270721,9.298227,12.102480,0.706389,0.000000,0.000000,4
0.000000,0.000000,0.000000,1.717104,13.710166,4.991563,0.000000,0.000000,0.000000,0.000000,0.141358,10.344281,13.046092,1.180548,0.142559,0.000000,0.000000,0.000000,4.979722,14.144689,4.824964,2.278915,3.837183,0.142559,0.000000,1.741962,12.445162,9.128357,1.048749,8.648594,8.539668,0.035640,0.000000,8.223353,14.393102,4.835737,6.560573,14.466092,6.692453,0.000000,0.320624,11.740993,14.895133,12.329202,14.005557,15.465459,2.694497,0.000000,0.285119,3.469506,7.440047,7.375823,14.184013,11.154899,0.073600,0.000000,0.000000,0.035640,0.178199,1.824076,14.783656,5.977659,0.000002,0.000000,4
0.000000,0.000000,0.000000,3.279213,13.746730,3.002338,0.000000,0.000000,0.000000,0.000000,0.328500,11.614233,13.995045,2.952816,0.325735,0.000000,0.000000,0.023278,6.618495,14.953423,9.890304,5.610300,1.821582,0.116333,0.000000,2.751136,14.081199,9.174019,9.866465,8.505333,3.430318,0.000000,0.000000,7.828680,15.675749,12.140767,14.601442,14.202364,6.309603,0.000000,0.000033,5.024301,11.230385,12.603068,15.185056,12.112834,2.968079,0.000000,0.000000,0.273291,0.710598,3.499983,14.673088,4.982979,0.045455,0.000000,0.000000,0.000000,0.000000,3.627158,14.001125,2.775086,0.000000,0.000000,4
0.000000,0.000000,0.924507,12.055932,8.547314,0.245352,0.396370,0.264247,0.000000,0.094374,7.339389,14.886388,3.414861,2.019603,1.830854,0.226497,0.000000,1.924857,14.754272,7.810895,3.246462,8.304542,5.452981,0.490744,0.018875,7.377126,15.112899,4.414915,9.361521,13.038106,7.185848,0.018875,0.000000,8.282409,14.886387,13.226844,15.435545,14.206896,4.641017,0.000000,0.000000,2.924517,8.054494,11.017115,14.546642,6.150245,0.301997,0.000000,0.000000,0.056626,0.830493,10.358285,12.130671,1.018847,0.000000,0.000000,0.000000,0.000000,1.056987,13.151004,8.809451,0.169873,0.000000,0.000000,4
0.000000,0.484361,8.260448,12.997891,14.320825,11.931072,2.547837,0.000000,0.000000,2.873867,13.967779,11.769592,6.548738,4.772762,0.806223,0.000000,0.000000,5.228020,13.741704,2.997816,0.064581,0.000002,0.000000,0.000000,0.000000,6.963581,15.226032,10.615668,8.714824,3.681429,0.226070,0.000000,0.000000,2.388499,9.741609,10.223814,12.092372,13.134327,3.197001,0.000000,0.000000,0.129161,1.356199,0.581230,2.029102,12.738484,6.329184,0.000000,0.000000,0.548940,4.649848,3.675922,7.671890,14.161491,4.230128,0.000000,0.000000,0.516651,8.165761,14.934349,14.451904,6.777963,0.322905,0.000000,5
0.000000,0.409600,9.796447,12.276782,13.637357,13.224826,4.409224,0.045455,0.000000,2.072246,14.865585,9.120810,6.210157,5.275857,1.615232,0.022728,0.000000,4.298488,14.227782,5.731360,3.906519,1.203985,0.113638,0.000000,0.000000,5.277702,14.842895,13.320139,14.182302,9.673142,1.042870,0.000000,0.000000,1.505104,6.304634,2.918312,4.624901,12.594017,3.152406,0.000000,0.000000,0.272237,0.455138,0.068194,3.600071,12.730830,2.314095,0.000000,0.000000,0.948998,6.557140,5.779434,11.443080,10.040272,0.475739,0.000000,0.000000,0.567683,10.684841,14.523203,10.083226,1.632293,0.000000,0.000000,5
0.000000,1.677228,11.677326,14.893852,15.396832,13.614055,4.867932,0.100501,0.000000,4.952723,15.497424,13.550557,8.648664,7.150569,2.407160,0.000000,0.000000,8.611605,15.045133,4.137551,0.050258,0.000000,0.000000,0.000000,0.000000,5.922857,15.555298,13.238414,3.497103,0.100515,0.000000,0.000000,0.000000,1.407241,8.213287,14.190706,11.137070,0.550223,0.000000,0.000000,0.000000,0.000000,0.050258,8.313033,14.340412,1.772369,0.000000,0.000000,0.000000,0.450355,4.796622,12.698942,12.882804,1.343749,0.000000,0.000000,0.000000,1.643060,12.537441,15.045112,5.288282,0.050251,0.000000,0.000000,5
0.000000,0.000000,1.962013,12.240513,6.341781,0.569633,0.000000,0.000000,0.000000,0.037975,9.405062,13.367091,2.392416,0.126591,0.000000,0.000000,0.000000,0.962033,14.455701,5.063271,0.037975,0.000000,0.000000,0.000000,0.000000,3.139245,14.189868,3.405033,1.759479,0.759487,0.000000,0.000000,0.000000,4.367095,14.848107,11.620250,13.164555,11.569589,2.556957,0.000000,0.000000,2.481018,15.341773,9.367049,4.696210,9.164563,10.367071,0.088608,0.000000,0.316450,12.037963,10.772135,3.202530,9.734177,11.518972,0.392406,0.000000,0.000000,2.278472,11.873411,15.405060,12.974682,4.025312,0.075949,6
0.000000,0.000000,0.372616,10.333440,11.686140,1.352924,0.019608,0.000000,0.000000,0.000000,4.451128,15.333407,9.293955,1.313723,0.098041,0.000000,0.000000,0.274514,10.000194,13.274421,1.960662,0.196066,0.000000,0.000000,0.000000,1.196150,12.647224,13.313714,9.686355,5.588245,0.392155,0.000000,0.000000,2.568706,14.137402,14.372517,11.784272,13.745169,5.666639,0.000000,0.000000,0.960815,13.666741,10.960704,1.823419,8.549090,11.313632,0.627460,0.000000,0.039216,8.313878,14.058861,6.529330,12.431486,10.803798,0.764702,0.000000,0.000000,0.607906,9.784495,14.843188,12.921498,4.058666,0.039216,6
0.000000,0.000000,0.510200,10.224448,12.693886,2.775406,0.000000,0.000000,0.000000,0.061224,6.142758,15.489752,9.183668,1.346871,0.000000,0.000000,0.000000,0.795888,11.918262,12.755167,1.265303,0.000000,0.000000,0.000000,0.000000,2.020343,13.897878,10.102072,1.081625,0.122449,0.000000,0.000000,0.000000,3.183615,15.142743,13.408167,10.755258,4.918629,0.285794,0.000000,0.000000,1.938727,14.632598,12.877683,10.857045,13.265269,5.469661,0.061224,0.000000,0.122464,9.693821,14.306145,7.979533,12.632493,10.000265,0.510217,0.000000,0.000000,0.897952,9.673384,14.938768,13.755137,5.836888,0.183672,6
0.000000,0.616500,9.608841,15.064600,12.815923,4.705874,0.886933,0.168792,0.000000,2.932808,12.374142,10.592241,13.464232,8.491134,0.506408,0.020833,0.000000,1.443866,3.353294,3.464259,13.764833,8.108459,1.021675,0.021258,0.000000,0.704075,5.747443,11.487667,15.513600,10.878008,6.130124,0.000000,0.000000,2.490625,11.340599,15.105016,13.659434,7.955332,3.468949,0.000000,0.000000,1.700666,7.099874,14.659025,5.914109,0.996167,0.212158,0.000000,0.000000,0.276358,8.203241,12.452392,0.853742,0.000000,0.000000,0.000000,0.000000,0.467683,12.287432,7.390751,0.085883,0.000000,0.000000,0.000000,7
0.000000,0.000000,2.212002,11.519468,15.211592,14.170758,7.341239,0.961492,0.000000,0.480187,9.671474,12.654519,9.427164,14.096623,8.915761,0.365513,0.000000,0.691030,5.910966,2.151207,1.930636,14.058530,5.072787,0.019238,0.000000,0.538666,2.460603,3.770325,9.312441,14.114686,4.538623,0.000000,0.000000,1.156963,8.122778,13.844734,15.807632,14.022158,5.825252,0.000000,0.000000,1.065556,5.587508,9.372638,14.962250,6.924580,0.962674,0.000000,0.000000,0.001482,0.464775,10.082617,11.077243,0.364788,0.000000,0.000000,0.000000,0.056604,2.345591,14.078425,4.962620,0.019238,0.000000,0.000000,7
0.000000,0.015162,5.077266,13.819675,14.938853,12.138707,3.988498,0.409487,0.000000,0.530827,10.458111,10.499719,10.240401,14.017555,3.322185,0.060665,0.000000,0.667828,3.794711,0.560430,8.266421,12.275870,1.015676,0.000000,0.000000,0.620372,3.270812,5.632626,14.027655,11.515399,4.712349,0.000000,0.000000,1.253941,9.647720,14.546670,15.516380,11.290348,4.532063,0.000000,0.000000,0.963873,5.131791,12.922369,10.561409,3.075550,0.712068,0.000000,0.000000,0.074868,2.513408,14.620810,4.149767,0.090997,0.000000,0.000000,0.000000,0.000000,6.653301,12.771075,0.664664,0.000000,0.000000,0.000000,7
0.000000,0.413996,9.348690,12.165749,9.853527,5.279703,0.293624,0.003223,0.000000,1.416172,13.074250,11.074264,8.794765,10.867164,2.699875,0.001074,0.000000,0.279555,9.618093,10.896941,10.219702,11.922296,1.651495,0.000000,0.000000,0.000033,3.340102,14.823700,13.378283,5.028865,0.447298,0.000000,0.000000,0.177672,7.039265,14.379492,11.932997,1.505502,0.002148,0.000000,0.000000,0.731421,12.245468,7.180272,12.091267,3.711784,0.006478,0.000000,0.000000,1.549481,13.245340,4.865436,13.013891,4.350615,0.000098,0.000000,0.000000,0.379590,9.976526,14.749511,10.090391,0.999055,0.000000,0.000000,8
0.000000,0.238475,8.740617,13.282718,9.814408,2.199901,0.158284,0.000000,0.040003,3.044939,14.519965,9.976352,10.793585,7.585686,1.108913,0.000000,0.000000,2.866466,11.774126,8.109136,11.720321,8.612894,1.312132,0.000000,0.000000,0.569413,7.727585,14.453317,13.801456,5.829341,0.717027,0.000000,0.000000,0.398477,7.686622,13.253805,13.781055,6.854254,0.123650,0.000000,0.000000,1.590833,12.675666,5.232116,6.418801,13.142803,2.053165,0.000000,0.000000,2.272788,13.261307,4.568443,4.733333,13.675533,3.574293,0.000000,0.000000,0.358418,8.090095,13.788697,13.613666,8.591978,0.847633,0.000000,8
0.000000,0.000000,3.374221,11.654126,13.692838,7.781481,0.740577,0.000000,0.000000,2.111986,14.275550,10.141405,8.767587,13.630635,3.529832,0.000000,0.000000,4.899112,13.691240,2.799386,3.111469,12.910266,3.532602,0.000000,0.000000,1.740577,10.881901,12.376937,13.838770,8.977844,0.579242,0.000000,0.000000,0.023282,4.380968,13.454153,14.791573,7.637982,0.324833,0.000000,0.000000,0.327608,8.158753,9.665158,5.281612,12.909074,2.875829,0.000000,0.000000,0.419637,9.458070,9.126767,4.039951,12.951824,4.278322,0.000000,0.000000,0.000000,2.985653,13.095328,14.835919,9.680844,1.287181,0.000000,8
0.000000,0.000000,5.113592,12.005260,13.660817,9.294589,1.186175,0.000000,0.000000,1.522888,14.298451,10.042171,10.081662,15.038225,3.629953,0.000000,0.000000,1.674667,14.406742,8.064083,10.771910,15.038133,4.406703,0.000000,0.000000,0.556099,6.974393,11.746300,11.264179,14.039110,4.816116,0.000000,0.000000,0.000000,0.258918,0.486072,0.893327,12.408234,5.558427,0.000000,0.000000,0.739809,1.073087,0.184942,0.777053,13.591901,4.670707,0.000000,0.000000,2.182354,9.965729,6.780584,7.005353,14.631262,2.043267,0.000000,0.000000,0.073977,5.335522,13.150624,14.628884,8.257767,0.184940,0.000000,9
0.000000,0.038510,6.923233,13.192298,8.846175,1.038517,0.000000,0.000000,0.000000,1.538492,12.653817,10.230447,10.423149,8.000112,0.000000,0.000000,0.000000,2.153748,10.000193,8.115214,8.500130,12.038403,0.653812,0.000000,0.000000,1.653759,7.422787,12.692061,14.807349,13.576980,2.499970,0.000000,0.000000,0.192298,2.422950,4.038251,4.653613,11.230815,6.076859,0.000000,0.000000,0.000000,0.000001,0.000000,0.038460,7.038297,10.923134,0.153838,0.000000,0.038460,3.461568,3.576795,2.192196,6.923129,13.692170,0.769190,0.000000,0.038460,6.115632,12.884772,14.230862,14.192298,8.461255,0.384595,9
*****************************
0 => 100.00
0 => 100.00
0 => 100.00
0 => 97.87
0 => 100.00
1 => 100.00
1 => 100.00
2 => 100.00
2 => 100.00
2 => 100.00
3 => 100.00
3 => 100.00
3 => 100.00
3 => 98.18
4 => 97.92
4 => 100.00
4 => 100.00
4 => 100.00
5 => 100.00
5 => 100.00
5 => 100.00
6 => 100.00
6 => 100.00
6 => 100.00
7 => 95.74
7 => 96.15
7 => 98.48
8 => 100.00
8 => 96.00
8 => 97.67
9 => 96.30
9 => 100.00
*****************************