0.000000,0.029570,4.594086,13.228495,10.948925,2.615591,0.059140,0.000000,0.000000,1.180108,13.037634,13.077957,12.252688,10.736559,0.731183,0.000000,0.000000,3.900538,14.411290,4.618280,2.975806,12.741935,3.322581,0.000000,0.000000,5.252688,12.766129,1.607527,0.271505,9.182796,6.650538,0.000000,0.000000,5.454301,11.908602,0.900538,0.104839,8.645161,7.387097,0.000000,0.000000,3.349462,13.540323,1.709677,1.381720,11.389785,6.454301,0.000000,0.000000,0.771505,13.201613,10.529570,10.599462,13.475806,2.669355,0.000000,0.000000,0.018817,4.610215,13.612903,13.325269,5.540323,0.185484,0.000000,0
0.000000,0.000000,2.319498,12.611644,11.469436,2.476102,0.013607,0.000000,0.000000,0.272109,6.217594,15.244574,14.884262,4.271652,0.013607,0.000000,0.095238,1.768706,9.612244,15.265306,13.659588,2.258137,0.040816,0.000000,0.027211,2.714284,10.503540,15.210930,13.169468,1.822852,0.142857,0.000000,0.000000,1.326530,8.102505,14.598547,12.965618,1.585172,0.190476,0.000000,0.000000,0.394791,6.265910,13.761721,13.013607,2.286221,0.068027,0.000000,0.000046,0.082234,5.415708,14.081680,13.605444,4.993521,0.462770,0.054422,0.000000,0.027395,2.245082,11.761629,13.421770,5.952103,1.217686,0.210884,1
0.000000,1.139526,11.370945,13.775855,5.489440,0.356677,0.000000,0.000000,0.000000,5.348891,14.558921,13.301144,11.471291,1.621781,0.003676,0.000000,0.000000,4.966394,8.250144,5.690621,12.444779,2.295188,0.000000,0.000000,0.000000,1.275631,2.665365,6.399622,12.272082,1.589377,0.000000,0.000000,0.000000,0.095583,1.374774,10.020519,9.747191,0.500621,0.000000,0.000000,0.000000,0.253628,5.146288,12.326389,5.982990,0.797974,0.308790,0.000000,0.000000,1.723960,12.650099,14.816340,12.298018,11.341489,7.191013,0.441118,0.000000,1.172582,11.334393,14.227911,13.477709,12.610369,9.066893,1.301579,2
0.000000,0.415380,8.058877,14.232366,10.989302,2.656985,0.054184,0.000006,0.000000,3.766158,14.304061,12.082099,13.427493,9.362918,0.487960,0.000003,0.000000,3.451073,8.977811,3.205579,7.904145,12.493706,0.866365,0.000000,0.000000,0.819418,2.592239,0.918924,8.611716,11.835127,0.577688,0.000000,0.000000,0.017941,0.062849,2.010402,12.284552,8.000838,0.317125,0.000000,0.000000,0.000001,0.865489,7.346117,12.638981,4.632886,0.582625,0.000000,0.000000,0.306495,8.322052,14.677358,13.473129,10.131963,6.810407,0.630667,0.000000,0.289133,8.507215,13.675056,12.046998,10.743629,9.267419,2.142494,2
0.000000,0.848516,9.628305,14.513751,12.146958,3.027603,0.013762,0.000000,0.000000,5.059383,13.541317,9.009070,13.215268,8.188030,0.261514,0.000000,0.000000,1.917283,3.454182,3.899147,12.724622,6.738310,0.206466,0.000000,0.000000,0.105507,2.421840,11.477100,14.312039,5.522521,0.119268,0.000000,0.000000,0.032111,1.655809,7.605644,12.068853,13.128381,2.848598,0.000000,0.000000,0.073417,0.591798,0.385391,1.866885,12.412771,8.091617,0.004587,0.000000,1.220210,8.876036,5.976707,6.439916,13.779919,7.834814,0.036698,0.000000,0.692570,10.352965,14.711046,14.055383,9.610227,1.821138,0.018349,3
0.000000,0.824455,7.873942,13.237449,14.600715,9.621081,1.851810,0.229815,0.000000,3.317745,12.316963,9.288963,9.932702,14.526840,3.885744,0.108147,0.000000,1.188347,2.572040,2.386065,10.393462,11.911393,1.486228,0.000000,0.000000,0.074305,1.488031,9.780808,14.310687,5.909463,0.229288,0.000000,0.000000,0.033943,1.569378,8.077199,13.743814,10.146617,1.506419,0.000000,0.000000,0.013471,0.418842,0.885818,6.616317,13.925688,4.107323,0.000000,0.000000,0.506951,4.966503,6.729244,10.872151,13.640741,2.539834,0.000000,0.000000,0.729919,9.172366,14.277519,11.430670,4.410640,0.297221,0.000000,3
0.000000,0.003571,0.146436,5.139583,12.385511,2.717754,0.132138,0.046427,0.000000,0.014285,1.485986,11.753782,10.331765,1.657231,1.200256,0.232147,0.000000,0.217950,6.882652,13.081912,4.167611,4.800247,4.128868,0.264313,0.000000,2.846737,12.943137,8.089080,3.482263,11.118155,5.943098,0.032142,0.017856,7.600066,15.146524,9.239516,10.818154,14.807289,4.914390,0.000000,0.374986,7.942519,12.603120,12.492713,15.160746,13.014134,2.085648,0.000000,0.224979,2.514027,4.063930,7.178502,14.778567,6.635387,0.314223,0.000000,0.000000,0.053519,0.253524,6.075350,12.849766,2.806974,0.000000,0.000000,4
0.000000,0.166667,5.347231,11.583330,14.041669,11.777809,3.722232,0.097222,0.000000,2.875005,13.458332,13.875002,10.680578,8.569467,2.555562,0.055556,0.027778,5.527777,13.805550,4.347226,0.430557,0.055556,0.000000,0.000000,0.000000,5.791663,14.624996,7.013892,2.083339,0.374975,0.097204,0.000000,0.000000,2.333337,11.430549,14.263884,11.763883,4.861082,0.361086,0.000000,0.000000,0.125000,1.194434,4.652750,10.833320,9.749997,1.041669,0.000000,0.000000,0.319445,3.694454,7.597213,12.083323,9.722248,1.069447,0.000000,0.000000,0.013889,5.444451,14.194440,11.444454,3.916677,0.069445,0.000000,5
0.000000,0.618119,9.572324,13.626872,14.199774,11.509752,2.800469,0.018185,0.009092,3.636135,15.127127,13.272438,10.235985,8.972732,2.236489,0.009092,0.000000,4.554563,14.172426,6.354686,0.800053,0.118202,0.045462,0.000000,0.000000,4.382392,13.463729,14.727894,8.856040,0.754675,0.000000,0.000000,0.000000,1.300219,5.782205,8.617104,13.374043,4.791722,0.036370,0.000000,0.000000,0.063647,0.263679,1.907390,11.345255,7.928611,0.181849,0.000000,0.000000,0.772855,6.963452,9.053543,14.472729,5.864624,0.072739,0.000000,0.000000,0.536287,11.045377,14.727144,9.137061,1.100184,0.000000,0.000000,5
0.000000,0.363637,7.664336,12.986013,13.881123,11.545462,3.818184,0.034965,0.000000,2.027973,13.902097,11.573424,7.965031,6.440559,1.895106,0.000000,0.000000,3.664334,14.405595,7.349646,4.062937,1.181819,0.048951,0.000000,0.000000,4.454545,14.510488,14.279719,14.013987,8.818186,0.657343,0.000000,0.000000,1.069930,4.559442,3.503495,6.146850,13.643357,3.643359,0.000000,0.000000,0.167832,0.489511,0.104895,1.678317,13.300699,4.384617,0.000000,0.000000,0.713287,6.272728,6.405593,9.685313,13.363638,2.062936,0.000000,0.000000,0.293706,8.286715,14.454544,12.307692,4.496502,0.188811,0.000000,5
0.000000,0.018470,2.287599,10.875989,7.791557,1.023747,0.000000,0.000000,0.000000,0.208443,8.203166,13.620053,5.485488,0.744063,0.000000,0.000000,0.000000,1.058047,12.675462,8.767810,0.612137,0.013193,0.002639,0.000000,0.000000,2.255937,13.883905,6.949868,2.686016,1.105541,0.084433,0.000000,0.000000,3.329815,14.551451,11.817942,11.517150,9.377309,2.108179,0.000000,0.000000,2.121372,14.783641,11.472296,7.496042,11.142480,9.226913,0.179420,0.000000,0.530343,10.715040,12.799472,6.248021,11.100264,11.530343,0.820580,0.000000,0.042216,2.266491,10.588391,14.554090,12.852243,5.585752,0.271768,6
0.000000,0.326645,7.014261,13.707665,14.661877,12.564523,6.426996,0.965608,0.000000,0.713437,8.535681,10.054424,10.716236,13.595975,7.630498,0.782229,0.000000,0.229200,1.051461,0.610286,6.332252,12.661853,4.223584,0.111747,0.000000,0.349576,3.269412,6.851036,12.739208,12.573086,3.982808,0.005731,0.000000,1.535804,8.968506,14.146082,15.489959,12.836694,4.962735,0.000000,0.000000,0.836678,4.051576,12.484106,10.750727,3.641845,0.739249,0.000000,0.000000,0.106016,4.636065,13.899624,4.699159,0.068784,0.002865,0.000000,0.000000,0.329510,8.409681,11.567290,1.300882,0.048710,0.000000,0.000000,7
0.000000,0.065169,4.744275,12.391133,12.684392,5.972731,0.456575,0.000000,0.000000,2.532736,13.739266,9.635590,8.929517,12.271516,2.375160,0.000000,0.000000,4.750562,12.854116,4.792346,6.830945,12.000032,2.032858,0.000000,0.000000,1.755695,10.990377,13.619799,14.108746,7.755784,0.587063,0.000000,0.000000,0.336866,7.826330,14.250047,13.440023,7.228609,0.750137,0.000000,0.000000,1.043243,11.179562,7.434527,5.841814,11.804101,3.321107,0.000000,0.000000,1.005010,12.157545,7.603313,4.771271,13.537901,4.973126,0.000000,0.000000,0.059672,4.869359,13.184603,13.978287,9.652477,1.657757,0.027179,8
0.000000,0.204678,7.222019,14.011628,11.590846,3.409830,0.134638,0.000000,0.000000,3.426833,14.853801,8.532368,11.099315,11.187235,1.210627,0.000000,0.000000,6.011628,13.415001,2.064022,7.449988,14.280701,2.801066,0.000000,0.000000,2.806984,13.344692,11.461953,12.637698,15.222256,4.350605,0.000000,0.000000,0.175439,3.666668,7.122911,6.749014,13.397729,6.193016,0.000000,0.000000,0.128655,0.508772,0.163743,0.754113,11.485480,7.509045,0.005848,0.000000,0.684211,6.344929,5.684209,5.999760,12.971237,6.169864,0.017544,0.000000,0.134503,7.409017,14.046988,13.602817,9.462432,1.596526,0.000000,9
*****************************
0 => 100.00
1 => 89.12
2 => 94.85
2 => 87.39
3 => 97.71
3 => 97.97
4 => 99.29
5 => 98.61
5 => 100.00
5 => 94.41
6 => 97.36
7 => 98.57
8 => 98.37
9 => 95.32
*****************************