\BOOKMARK [1][-]{section.1}{Acronyms}{}% 1
\BOOKMARK [1][-]{section.2}{Quality of Code}{}% 2
\BOOKMARK [2][-]{subsection.2.1}{Graphical User Interface\(GUI\)}{section.2}% 3
\BOOKMARK [2][-]{subsection.2.2}{Configuration File}{section.2}% 4
\BOOKMARK [3][-]{subsubsection.2.2.1}{Object-oriented programming \(OOP\) and Reusability}{subsection.2.2}% 5
\BOOKMARK [2][-]{subsection.2.3}{Utils Package}{section.2}% 6
\BOOKMARK [3][-]{subsubsection.2.3.1}{Centralised Error Handling}{subsection.2.3}% 7
\BOOKMARK [3][-]{subsubsection.2.3.2}{Results Class}{subsection.2.3}% 8
\BOOKMARK [3][-]{subsubsection.2.3.3}{Files Class}{subsection.2.3}% 9
\BOOKMARK [2][-]{subsection.2.4}{DataTypes Package}{section.2}% 10
\BOOKMARK [3][-]{subsubsection.2.4.1}{AlgorithmType Enum}{subsection.2.4}% 11
\BOOKMARK [3][-]{subsubsection.2.4.2}{Image Class}{subsection.2.4}% 12
\BOOKMARK [1][-]{section.3}{The Dataset}{}% 13
\BOOKMARK [1][-]{section.4}{Quality of Algorithm and Results}{}% 14
\BOOKMARK [2][-]{subsection.4.1}{Nearest Neighbour\(NN\)}{section.4}% 15
\BOOKMARK [3][-]{subsubsection.4.1.1}{Results}{subsection.4.1}% 16
\BOOKMARK [3][-]{subsubsection.4.1.2}{Evaluation}{subsection.4.1}% 17
\BOOKMARK [2][-]{subsection.4.2}{K-Nearest Neighbour\(K-NN\)}{section.4}% 18
\BOOKMARK [3][-]{subsubsection.4.2.1}{Results}{subsection.4.2}% 19
\BOOKMARK [3][-]{subsubsection.4.2.2}{Graph}{subsection.4.2}% 20
\BOOKMARK [3][-]{subsubsection.4.2.3}{Evaluation}{subsection.4.2}% 21
\BOOKMARK [2][-]{subsection.4.3}{K-NN Optimized}{section.4}% 22
\BOOKMARK [3][-]{subsubsection.4.3.1}{Training}{subsection.4.3}% 23
\BOOKMARK [3][-]{subsubsection.4.3.2}{Testing}{subsection.4.3}% 24
\BOOKMARK [3][-]{subsubsection.4.3.3}{Results}{subsection.4.3}% 25
\BOOKMARK [3][-]{subsubsection.4.3.4}{Graphs}{subsection.4.3}% 26
\BOOKMARK [3][-]{subsubsection.4.3.5}{Evaluation}{subsection.4.3}% 27
\BOOKMARK [2][-]{subsection.4.4}{Weighted K-NN}{section.4}% 28
\BOOKMARK [3][-]{subsubsection.4.4.1}{Results}{subsection.4.4}% 29
\BOOKMARK [3][-]{subsubsection.4.4.2}{Graphs}{subsection.4.4}% 30
\BOOKMARK [3][-]{subsubsection.4.4.3}{Evaluation}{subsection.4.4}% 31
\BOOKMARK [2][-]{subsection.4.5}{Optimized K-NN with Weighted Functions}{section.4}% 32
\BOOKMARK [3][-]{subsubsection.4.5.1}{Results}{subsection.4.5}% 33
\BOOKMARK [3][-]{subsubsection.4.5.2}{Graphs}{subsection.4.5}% 34
\BOOKMARK [3][-]{subsubsection.4.5.3}{Evaluation}{subsection.4.5}% 35
\BOOKMARK [2][-]{subsection.4.6}{Weighted Parzen Windows}{section.4}% 36
\BOOKMARK [3][-]{subsubsection.4.6.1}{Results}{subsection.4.6}% 37
\BOOKMARK [3][-]{subsubsection.4.6.2}{Graphs}{subsection.4.6}% 38
\BOOKMARK [3][-]{subsubsection.4.6.3}{Evaluation}{subsection.4.6}% 39
\BOOKMARK [2][-]{subsection.4.7}{K-Means}{section.4}% 40
\BOOKMARK [3][-]{subsubsection.4.7.1}{Testing}{subsection.4.7}% 41
\BOOKMARK [3][-]{subsubsection.4.7.2}{Training}{subsection.4.7}% 42
\BOOKMARK [3][-]{subsubsection.4.7.3}{Results}{subsection.4.7}% 43
\BOOKMARK [3][-]{subsubsection.4.7.4}{Graphs}{subsection.4.7}% 44
\BOOKMARK [3][-]{subsubsection.4.7.5}{Evaluation}{subsection.4.7}% 45
\BOOKMARK [2][-]{subsection.4.8}{Optimized K-Means}{section.4}% 46
\BOOKMARK [3][-]{subsubsection.4.8.1}{Results}{subsection.4.8}% 47
\BOOKMARK [3][-]{subsubsection.4.8.2}{Evaluation}{subsection.4.8}% 48
\BOOKMARK [1][-]{section.5}{Conclusion}{}% 49
\BOOKMARK [2][-]{subsection.5.1}{Repository}{section.5}% 50
\BOOKMARK [1][-]{section.6}{More Results}{}% 51
\BOOKMARK [1][-]{section.7}{References}{}% 52
\BOOKMARK [1][-]{section.8}{Bibliography}{}% 53
