% $ biblatex auxiliary file $
% $ biblatex version 2.4 $
% Do not modify this file!
%
% This is an auxiliary file used by the 'biblatex' package.
% This file may safely be deleted. It will be recreated as
% required.
%
\relax
\bibstyle{biblatex}
\bibdata{IPP-blx,References/Ref,Bibliography/Bib}
\citation{biblatex-control}
\citation{1_embarqindiahub.org_2015}
\citation{1_embarqindiahub.org_2015}
