\relax 
\providecommand\hyper@newdestlabel[2]{}
\bibstyle{biblatex}
\bibdata{AI_CW2-blx,References/Ref}
\citation{biblatex-control}
\providecommand\HyperFirstAtBeginDocument{\AtBeginDocument}
\HyperFirstAtBeginDocument{\ifx\hyper@anchor\@undefined
\global\let\oldcontentsline\contentsline
\gdef\contentsline#1#2#3#4{\oldcontentsline{#1}{#2}{#3}}
\global\let\oldnewlabel\newlabel
\gdef\newlabel#1#2{\newlabelxx{#1}#2}
\gdef\newlabelxx#1#2#3#4#5#6{\oldnewlabel{#1}{{#2}{#3}}}
\AtEndDocument{\ifx\hyper@anchor\@undefined
\let\contentsline\oldcontentsline
\let\newlabel\oldnewlabel
\fi}
\fi}
\global\let\hyper@last\relax 
\gdef\HyperFirstAtBeginDocument#1{#1}
\providecommand\HyField@AuxAddToFields[1]{}
\providecommand\HyField@AuxAddToCoFields[2]{}
\@writefile{toc}{\boolfalse {citerequest}\boolfalse {citetracker}\boolfalse {pagetracker}\boolfalse {backtracker}\relax }
\@writefile{lof}{\boolfalse {citerequest}\boolfalse {citetracker}\boolfalse {pagetracker}\boolfalse {backtracker}\relax }
\@writefile{lot}{\boolfalse {citerequest}\boolfalse {citetracker}\boolfalse {pagetracker}\boolfalse {backtracker}\relax }
\@writefile{toc}{\defcounter {refsection}{0}\relax }\@writefile{toc}{\contentsline {section}{\numberline {1}Acronyms}{2}{section.1}}
\@writefile{lot}{\defcounter {refsection}{0}\relax }\@writefile{lot}{\contentsline {table}{\numberline {1}{\ignorespaces Acronyms used in this document}}{2}{table.1}}
\newlabel{table:Acronyms}{{1}{2}{Acronyms used in this document}{table.1}{}}
\@writefile{toc}{\defcounter {refsection}{0}\relax }\@writefile{toc}{\contentsline {section}{\numberline {2}Quality of Code}{3}{section.2}}
\newlabel{sec:Quality_Code}{{2}{3}{Quality of Code}{section.2}{}}
\@writefile{toc}{\defcounter {refsection}{0}\relax }\@writefile{toc}{\contentsline {subsection}{\numberline {2.1}Graphical User Interface(GUI)}{3}{subsection.2.1}}
\newlabel{subsec:GUI}{{2.1}{3}{Graphical User Interface(GUI)}{subsection.2.1}{}}
\@writefile{lof}{\defcounter {refsection}{0}\relax }\@writefile{lof}{\contentsline {figure}{\numberline {1}{\ignorespaces Explains how the GUI works}}{3}{figure.1}}
\newlabel{figue:GUI}{{1}{3}{Explains how the GUI works}{figure.1}{}}
\@writefile{toc}{\defcounter {refsection}{0}\relax }\@writefile{toc}{\contentsline {subsection}{\numberline {2.2}Configuration File}{3}{subsection.2.2}}
\newlabel{subsec:Config}{{2.2}{3}{Configuration File}{subsection.2.2}{}}
\@writefile{toc}{\defcounter {refsection}{0}\relax }\@writefile{toc}{\contentsline {subsubsection}{\numberline {2.2.1}Object-oriented programming (OOP) and Reusability}{3}{subsubsection.2.2.1}}
\newlabel{subsubsec:OOP}{{2.2.1}{3}{Object-oriented programming (OOP) and Reusability}{subsubsection.2.2.1}{}}
\@writefile{toc}{\defcounter {refsection}{0}\relax }\@writefile{toc}{\contentsline {subsection}{\numberline {2.3}Utils Package}{3}{subsection.2.3}}
\newlabel{subsubsec:Utils}{{2.3}{3}{Utils Package}{subsection.2.3}{}}
\@writefile{toc}{\defcounter {refsection}{0}\relax }\@writefile{toc}{\contentsline {subsubsection}{\numberline {2.3.1}Centralised Error Handling}{3}{subsubsection.2.3.1}}
\newlabel{subsubsec:Error_Handling}{{2.3.1}{3}{Centralised Error Handling}{subsubsection.2.3.1}{}}
\@writefile{toc}{\defcounter {refsection}{0}\relax }\@writefile{toc}{\contentsline {subsubsection}{\numberline {2.3.2}Results Class}{3}{subsubsection.2.3.2}}
\newlabel{subsubsec:Results}{{2.3.2}{3}{Results Class}{subsubsection.2.3.2}{}}
\@writefile{toc}{\defcounter {refsection}{0}\relax }\@writefile{toc}{\contentsline {subsubsection}{\numberline {2.3.3}Files Class}{4}{subsubsection.2.3.3}}
\newlabel{subsubsec:Files}{{2.3.3}{4}{Files Class}{subsubsection.2.3.3}{}}
\@writefile{toc}{\defcounter {refsection}{0}\relax }\@writefile{toc}{\contentsline {subsection}{\numberline {2.4}DataTypes Package}{4}{subsection.2.4}}
\newlabel{subsubsec:DataTypes}{{2.4}{4}{DataTypes Package}{subsection.2.4}{}}
\@writefile{toc}{\defcounter {refsection}{0}\relax }\@writefile{toc}{\contentsline {subsubsection}{\numberline {2.4.1}AlgorithmType Enum}{4}{subsubsection.2.4.1}}
\newlabel{subsubsec:AlgorithmType}{{2.4.1}{4}{AlgorithmType Enum}{subsubsection.2.4.1}{}}
\@writefile{toc}{\defcounter {refsection}{0}\relax }\@writefile{toc}{\contentsline {subsubsection}{\numberline {2.4.2}Image Class}{4}{subsubsection.2.4.2}}
\newlabel{subsubsec:Image}{{2.4.2}{4}{Image Class}{subsubsection.2.4.2}{}}
\citation{9_archive.ics.uci.edu_2016}
\citation{Xie2009}
\citation{Moreno-Torres2012}
\citation{Moreno-Torres2012}
\citation{alpaydin1998cascaded}
\citation{alpaydin1998cascaded}
\@writefile{toc}{\defcounter {refsection}{0}\relax }\@writefile{toc}{\contentsline {section}{\numberline {3}The Dataset}{5}{section.3}}
\newlabel{sec:Dataset}{{3}{5}{The Dataset}{section.3}{}}
\abx@aux@page{1}{5}
\abx@aux@page{3}{5}
\abx@aux@page{4}{5}
\abx@aux@fnpage{2}{5}
\@writefile{toc}{\defcounter {refsection}{0}\relax }\@writefile{toc}{\contentsline {section}{\numberline {4}Quality of Algorithm and Results}{6}{section.4}}
\newlabel{sec:Quality_Algorithm}{{4}{6}{Quality of Algorithm and Results}{section.4}{}}
\@writefile{toc}{\defcounter {refsection}{0}\relax }\@writefile{toc}{\contentsline {subsection}{\numberline {4.1}Nearest Neighbour(NN)}{6}{subsection.4.1}}
\newlabel{subsubsec:NN}{{4.1}{6}{Nearest Neighbour(NN)}{subsection.4.1}{}}
\@writefile{toc}{\defcounter {refsection}{0}\relax }\@writefile{toc}{\contentsline {subsubsection}{\numberline {4.1.1}Results}{6}{subsubsection.4.1.1}}
\newlabel{subsubsec:NN_Results}{{4.1.1}{6}{Results}{subsubsection.4.1.1}{}}
\@writefile{lof}{\defcounter {refsection}{0}\relax }\@writefile{lof}{\contentsline {figure}{\numberline {2}{\ignorespaces The results obtained are exactly the same for K=1 in the provided documentation}}{6}{figure.2}}
\newlabel{figue:NN}{{2}{6}{The results obtained are exactly the same for K=1 in the provided documentation}{figure.2}{}}
\@writefile{toc}{\defcounter {refsection}{0}\relax }\@writefile{toc}{\contentsline {subsubsection}{\numberline {4.1.2}Evaluation}{6}{subsubsection.4.1.2}}
\newlabel{subsubsec:NN_Evaluation}{{4.1.2}{6}{Evaluation}{subsubsection.4.1.2}{}}
\@writefile{toc}{\defcounter {refsection}{0}\relax }\@writefile{toc}{\contentsline {subsection}{\numberline {4.2}K-Nearest Neighbour(K-NN)}{7}{subsection.4.2}}
\newlabel{subsubsec:KNN}{{4.2}{7}{K-Nearest Neighbour(K-NN)}{subsection.4.2}{}}
\@writefile{toc}{\defcounter {refsection}{0}\relax }\@writefile{toc}{\contentsline {subsubsection}{\numberline {4.2.1}Results}{7}{subsubsection.4.2.1}}
\newlabel{subsubsec:K-NN_Results}{{4.2.1}{7}{Results}{subsubsection.4.2.1}{}}
\@writefile{lot}{\defcounter {refsection}{0}\relax }\@writefile{lot}{\contentsline {table}{\numberline {2}{\ignorespaces Results for the K-NN algorithm}}{7}{table.2}}
\newlabel{table:K-NN_results}{{2}{7}{Results for the K-NN algorithm}{table.2}{}}
\@writefile{toc}{\defcounter {refsection}{0}\relax }\@writefile{toc}{\contentsline {subsubsection}{\numberline {4.2.2}Graph}{8}{subsubsection.4.2.2}}
\newlabel{subsubsec:K-NN_Graph}{{4.2.2}{8}{Graph}{subsubsection.4.2.2}{}}
\@writefile{lof}{\defcounter {refsection}{0}\relax }\@writefile{lof}{\contentsline {figure}{\numberline {3}{\ignorespaces Drop in accuracy with an increase in K-Value}}{8}{figure.3}}
\newlabel{figue:K-NN_Accuracy}{{3}{8}{Drop in accuracy with an increase in K-Value}{figure.3}{}}
\@writefile{toc}{\defcounter {refsection}{0}\relax }\@writefile{toc}{\contentsline {subsubsection}{\numberline {4.2.3}Evaluation}{8}{subsubsection.4.2.3}}
\newlabel{subsubsec:K-NN_Evaluation}{{4.2.3}{8}{Evaluation}{subsubsection.4.2.3}{}}
\@writefile{toc}{\defcounter {refsection}{0}\relax }\@writefile{toc}{\contentsline {subsection}{\numberline {4.3}K-NN Optimized}{9}{subsection.4.3}}
\newlabel{subsec:K-NN_Optimized}{{4.3}{9}{K-NN Optimized}{subsection.4.3}{}}
\@writefile{toc}{\defcounter {refsection}{0}\relax }\@writefile{toc}{\contentsline {subsubsection}{\numberline {4.3.1}Training}{9}{subsubsection.4.3.1}}
\newlabel{subsubsec:K-NN_Optimized_Training}{{4.3.1}{9}{Training}{subsubsection.4.3.1}{}}
\@writefile{toc}{\defcounter {refsection}{0}\relax }\@writefile{toc}{\contentsline {subsubsection}{\numberline {4.3.2}Testing}{9}{subsubsection.4.3.2}}
\newlabel{subsubsec:K-NN_Optimized_Testing}{{4.3.2}{9}{Testing}{subsubsection.4.3.2}{}}
\@writefile{toc}{\defcounter {refsection}{0}\relax }\@writefile{toc}{\contentsline {subsubsection}{\numberline {4.3.3}Results}{9}{subsubsection.4.3.3}}
\newlabel{subsubsec:K-NN_Optimized_Results}{{4.3.3}{9}{Results}{subsubsection.4.3.3}{}}
\@writefile{lot}{\defcounter {refsection}{0}\relax }\@writefile{lot}{\contentsline {table}{\numberline {3}{\ignorespaces Results for the Optimized K-NN algorithm}}{10}{table.3}}
\newlabel{tableK-NN_Optimized_results}{{3}{10}{Results for the Optimized K-NN algorithm}{table.3}{}}
\@writefile{toc}{\defcounter {refsection}{0}\relax }\@writefile{toc}{\contentsline {subsubsection}{\numberline {4.3.4}Graphs}{11}{subsubsection.4.3.4}}
\newlabel{subsubsec:K-NN_Optimized_Graphs}{{4.3.4}{11}{Graphs}{subsubsection.4.3.4}{}}
\@writefile{lof}{\defcounter {refsection}{0}\relax }\@writefile{lof}{\contentsline {figure}{\numberline {4}{\ignorespaces Optimised K-NN Accuracy Graph}}{11}{figure.4}}
\newlabel{figue:K-NN_Optimized_Graphs_Accuracy}{{4}{11}{Optimised K-NN Accuracy Graph}{figure.4}{}}
\@writefile{lof}{\defcounter {refsection}{0}\relax }\@writefile{lof}{\contentsline {figure}{\numberline {5}{\ignorespaces Optimised K-NN Training Time vs K-Value Graph}}{11}{figure.5}}
\newlabel{figue:K-NN_Optimized_Graphs_TrainingTime}{{5}{11}{Optimised K-NN Training Time vs K-Value Graph}{figure.5}{}}
\@writefile{lof}{\defcounter {refsection}{0}\relax }\@writefile{lof}{\contentsline {figure}{\numberline {6}{\ignorespaces Optimised K-NN Testing Time vs K-Value Graph}}{12}{figure.6}}
\newlabel{figue:K-NN_Optimized_Graphs_TestingTime}{{6}{12}{Optimised K-NN Testing Time vs K-Value Graph}{figure.6}{}}
\@writefile{toc}{\defcounter {refsection}{0}\relax }\@writefile{toc}{\contentsline {subsubsection}{\numberline {4.3.5}Evaluation}{12}{subsubsection.4.3.5}}
\newlabel{subsubsec:K-NN_Optimized_Evaluation}{{4.3.5}{12}{Evaluation}{subsubsection.4.3.5}{}}
\@writefile{toc}{\defcounter {refsection}{0}\relax }\@writefile{toc}{\contentsline {subsection}{\numberline {4.4}Weighted K-NN}{13}{subsection.4.4}}
\newlabel{subsec:Weighted_K-NN}{{4.4}{13}{Weighted K-NN}{subsection.4.4}{}}
\@writefile{lof}{\defcounter {refsection}{0}\relax }\@writefile{lof}{\contentsline {figure}{\numberline {7}{\ignorespaces Random testing point with some neighbour training points}}{13}{figure.7}}
\newlabel{figue:Weighted_K-NN_Random_testing_point}{{7}{13}{Random testing point with some neighbour training points}{figure.7}{}}
\@writefile{lof}{\defcounter {refsection}{0}\relax }\@writefile{lof}{\contentsline {figure}{\numberline {8}{\ignorespaces Single dimension representation for K=1}}{13}{figure.8}}
\newlabel{figue:Weighted_K-NN_Single_dimension_representation_k1}{{8}{13}{Single dimension representation for K=1}{figure.8}{}}
\@writefile{lof}{\defcounter {refsection}{0}\relax }\@writefile{lof}{\contentsline {figure}{\numberline {9}{\ignorespaces Single dimension representation for K=2}}{13}{figure.9}}
\newlabel{figue:Weighted_K-NN_Single_dimension_representation_k2}{{9}{13}{Single dimension representation for K=2}{figure.9}{}}
\@writefile{lof}{\defcounter {refsection}{0}\relax }\@writefile{lof}{\contentsline {figure}{\numberline {10}{\ignorespaces Single dimension representation for K=3}}{14}{figure.10}}
\newlabel{figue:Weighted_K-NN_Single_dimension_representation_k3}{{10}{14}{Single dimension representation for K=3}{figure.10}{}}
\@writefile{lof}{\defcounter {refsection}{0}\relax }\@writefile{lof}{\contentsline {figure}{\numberline {11}{\ignorespaces Introducing a weighing mechanism function}}{14}{figure.11}}
\newlabel{figue:Weighted_K-NN_weighing_mechanism}{{11}{14}{Introducing a weighing mechanism function}{figure.11}{}}
\@writefile{toc}{\defcounter {refsection}{0}\relax }\@writefile{toc}{\contentsline {subsubsection}{\numberline {4.4.1}Results}{14}{subsubsection.4.4.1}}
\newlabel{subsubsec:Weighted_K-NN_Results}{{4.4.1}{14}{Results}{subsubsection.4.4.1}{}}
\@writefile{lot}{\defcounter {refsection}{0}\relax }\@writefile{lot}{\contentsline {table}{\numberline {4}{\ignorespaces Results for the K-NN algorithm}}{15}{table.4}}
\newlabel{table:Weighted_K-NN_results}{{4}{15}{Results for the K-NN algorithm}{table.4}{}}
\@writefile{toc}{\defcounter {refsection}{0}\relax }\@writefile{toc}{\contentsline {subsubsection}{\numberline {4.4.2}Graphs}{16}{subsubsection.4.4.2}}
\newlabel{subsubsec:Weighted_K-NN_Graphs}{{4.4.2}{16}{Graphs}{subsubsection.4.4.2}{}}
\@writefile{lof}{\defcounter {refsection}{0}\relax }\@writefile{lof}{\contentsline {figure}{\numberline {12}{\ignorespaces Weighted K-NN Accuracy Graph}}{16}{figure.12}}
\newlabel{figue:Weighted_K-NN_Accuracy}{{12}{16}{Weighted K-NN Accuracy Graph}{figure.12}{}}
\@writefile{lof}{\defcounter {refsection}{0}\relax }\@writefile{lof}{\contentsline {figure}{\numberline {13}{\ignorespaces Weighted K-NN Time taken Graph}}{16}{figure.13}}
\newlabel{figue:Weighted_K-NN_timetaken}{{13}{16}{Weighted K-NN Time taken Graph}{figure.13}{}}
\@writefile{toc}{\defcounter {refsection}{0}\relax }\@writefile{toc}{\contentsline {subsubsection}{\numberline {4.4.3}Evaluation}{16}{subsubsection.4.4.3}}
\newlabel{subsubsec:Weighted_K-NN_Evaluation}{{4.4.3}{16}{Evaluation}{subsubsection.4.4.3}{}}
\@writefile{toc}{\defcounter {refsection}{0}\relax }\@writefile{toc}{\contentsline {subsection}{\numberline {4.5}Optimized K-NN with Weighted Functions}{18}{subsection.4.5}}
\newlabel{subsec:Optimized_Weighted_K-NN}{{4.5}{18}{Optimized K-NN with Weighted Functions}{subsection.4.5}{}}
\@writefile{toc}{\defcounter {refsection}{0}\relax }\@writefile{toc}{\contentsline {subsubsection}{\numberline {4.5.1}Results}{18}{subsubsection.4.5.1}}
\newlabel{subsubsec:Optimized_Weighted_K-NN_Results}{{4.5.1}{18}{Results}{subsubsection.4.5.1}{}}
\@writefile{lot}{\defcounter {refsection}{0}\relax }\@writefile{lot}{\contentsline {table}{\numberline {5}{\ignorespaces Results for the Optimized K-NN with Weighted Function algorithm}}{19}{table.5}}
\newlabel{table:Optimized_Weighted_K-NN_results}{{5}{19}{Results for the Optimized K-NN with Weighted Function algorithm}{table.5}{}}
\@writefile{toc}{\defcounter {refsection}{0}\relax }\@writefile{toc}{\contentsline {subsubsection}{\numberline {4.5.2}Graphs}{20}{subsubsection.4.5.2}}
\newlabel{subsubsec:Optimized_Weighted_K-NN_Graphs}{{4.5.2}{20}{Graphs}{subsubsection.4.5.2}{}}
\@writefile{lof}{\defcounter {refsection}{0}\relax }\@writefile{lof}{\contentsline {figure}{\numberline {14}{\ignorespaces Optimized K-NN with Weighted Functions Accuracy Graph}}{20}{figure.14}}
\newlabel{figue:Optimized_Weighted_K-NN_Accuracy}{{14}{20}{Optimized K-NN with Weighted Functions Accuracy Graph}{figure.14}{}}
\@writefile{lof}{\defcounter {refsection}{0}\relax }\@writefile{lof}{\contentsline {figure}{\numberline {15}{\ignorespaces Optimized K-NN with Weighted Functions Training Time taken Graph}}{20}{figure.15}}
\newlabel{figue:Optimized_Weighted_K-NN_Training_timetaken}{{15}{20}{Optimized K-NN with Weighted Functions Training Time taken Graph}{figure.15}{}}
\@writefile{lof}{\defcounter {refsection}{0}\relax }\@writefile{lof}{\contentsline {figure}{\numberline {16}{\ignorespaces Optimized K-NN with Weighted Functions Testing Time taken Graph}}{21}{figure.16}}
\newlabel{figue:Optimized_Weighted_K-NN_Testing_timetaken}{{16}{21}{Optimized K-NN with Weighted Functions Testing Time taken Graph}{figure.16}{}}
\@writefile{toc}{\defcounter {refsection}{0}\relax }\@writefile{toc}{\contentsline {subsubsection}{\numberline {4.5.3}Evaluation}{21}{subsubsection.4.5.3}}
\newlabel{subsubsec:Optimized_Weighted_K-NN_evaluation}{{4.5.3}{21}{Evaluation}{subsubsection.4.5.3}{}}
\@writefile{toc}{\defcounter {refsection}{0}\relax }\@writefile{toc}{\contentsline {subsection}{\numberline {4.6}Weighted Parzen Windows}{22}{subsection.4.6}}
\newlabel{subsec:Weighted_Parzen_Windows}{{4.6}{22}{Weighted Parzen Windows}{subsection.4.6}{}}
\@writefile{toc}{\defcounter {refsection}{0}\relax }\@writefile{toc}{\contentsline {subsubsection}{\numberline {4.6.1}Results}{22}{subsubsection.4.6.1}}
\newlabel{subsubsec:Weighted_Parzen_Windows_Results}{{4.6.1}{22}{Results}{subsubsection.4.6.1}{}}
\@writefile{lot}{\defcounter {refsection}{0}\relax }\@writefile{lot}{\contentsline {table}{\numberline {6}{\ignorespaces Results for the Weighted Parzen Windows algorithm}}{23}{table.6}}
\newlabel{table:Weighted_Parzen_Windows_Results}{{6}{23}{Results for the Weighted Parzen Windows algorithm}{table.6}{}}
\@writefile{toc}{\defcounter {refsection}{0}\relax }\@writefile{toc}{\contentsline {subsubsection}{\numberline {4.6.2}Graphs}{24}{subsubsection.4.6.2}}
\newlabel{subsubsec:Weighted_Parzen_Windows_Graphs}{{4.6.2}{24}{Graphs}{subsubsection.4.6.2}{}}
\@writefile{lof}{\defcounter {refsection}{0}\relax }\@writefile{lof}{\contentsline {figure}{\numberline {17}{\ignorespaces Parzen Windows Accuracy Graph}}{24}{figure.17}}
\newlabel{figue:Parzen_Windows_accuracy}{{17}{24}{Parzen Windows Accuracy Graph}{figure.17}{}}
\@writefile{lof}{\defcounter {refsection}{0}\relax }\@writefile{lof}{\contentsline {figure}{\numberline {18}{\ignorespaces Parzen Windows Time taken Graph}}{24}{figure.18}}
\newlabel{figue:Parzen_Windows_timetaken}{{18}{24}{Parzen Windows Time taken Graph}{figure.18}{}}
\@writefile{toc}{\defcounter {refsection}{0}\relax }\@writefile{toc}{\contentsline {subsubsection}{\numberline {4.6.3}Evaluation}{24}{subsubsection.4.6.3}}
\newlabel{subsubsec:Weighted_Parzen_Windows_Evaluation}{{4.6.3}{24}{Evaluation}{subsubsection.4.6.3}{}}
\@writefile{toc}{\defcounter {refsection}{0}\relax }\@writefile{toc}{\contentsline {subsection}{\numberline {4.7}K-Means}{26}{subsection.4.7}}
\newlabel{subsec:K-Means}{{4.7}{26}{K-Means}{subsection.4.7}{}}
\@writefile{toc}{\defcounter {refsection}{0}\relax }\@writefile{toc}{\contentsline {subsubsection}{\numberline {4.7.1}Testing}{26}{subsubsection.4.7.1}}
\newlabel{subsubsec:K-Means_Testing}{{4.7.1}{26}{Testing}{subsubsection.4.7.1}{}}
\@writefile{toc}{\defcounter {refsection}{0}\relax }\@writefile{toc}{\contentsline {subsubsection}{\numberline {4.7.2}Training}{26}{subsubsection.4.7.2}}
\newlabel{subsubsec:K-Means_Training}{{4.7.2}{26}{Training}{subsubsection.4.7.2}{}}
\@writefile{toc}{\defcounter {refsection}{0}\relax }\@writefile{toc}{\contentsline {subsubsection}{\numberline {4.7.3}Results}{26}{subsubsection.4.7.3}}
\newlabel{subsubsec:K-Means_Results}{{4.7.3}{26}{Results}{subsubsection.4.7.3}{}}
\@writefile{lot}{\defcounter {refsection}{0}\relax }\@writefile{lot}{\contentsline {table}{\numberline {7}{\ignorespaces Results for the K-Means algorithm}}{27}{table.7}}
\newlabel{table:K-Means_Results}{{7}{27}{Results for the K-Means algorithm}{table.7}{}}
\@writefile{toc}{\defcounter {refsection}{0}\relax }\@writefile{toc}{\contentsline {subsubsection}{\numberline {4.7.4}Graphs}{28}{subsubsection.4.7.4}}
\newlabel{subsubsec:K-Means_Graphs}{{4.7.4}{28}{Graphs}{subsubsection.4.7.4}{}}
\@writefile{lof}{\defcounter {refsection}{0}\relax }\@writefile{lof}{\contentsline {figure}{\numberline {19}{\ignorespaces K-Means Training K-Value vs Accuracy Graph}}{28}{figure.19}}
\newlabel{figue:Training_Training}{{19}{28}{K-Means Training K-Value vs Accuracy Graph}{figure.19}{}}
\@writefile{lof}{\defcounter {refsection}{0}\relax }\@writefile{lof}{\contentsline {figure}{\numberline {20}{\ignorespaces K-Means Training Accuracy vs Testing Accuracy Graph}}{28}{figure.20}}
\newlabel{figue:K-Means_Testing}{{20}{28}{K-Means Training Accuracy vs Testing Accuracy Graph}{figure.20}{}}
\@writefile{toc}{\defcounter {refsection}{0}\relax }\@writefile{toc}{\contentsline {subsubsection}{\numberline {4.7.5}Evaluation}{28}{subsubsection.4.7.5}}
\newlabel{subsubsec:K-Means_Evaluation}{{4.7.5}{28}{Evaluation}{subsubsection.4.7.5}{}}
\@writefile{toc}{\defcounter {refsection}{0}\relax }\@writefile{toc}{\contentsline {subsection}{\numberline {4.8}Optimized K-Means}{30}{subsection.4.8}}
\newlabel{subsec:Optimized_K-Means}{{4.8}{30}{Optimized K-Means}{subsection.4.8}{}}
\@writefile{toc}{\defcounter {refsection}{0}\relax }\@writefile{toc}{\contentsline {subsubsection}{\numberline {4.8.1}Results}{30}{subsubsection.4.8.1}}
\newlabel{subsubsec:Optimized_K-Means_Results}{{4.8.1}{30}{Results}{subsubsection.4.8.1}{}}
\@writefile{lof}{\defcounter {refsection}{0}\relax }\@writefile{lof}{\contentsline {figure}{\numberline {21}{\ignorespaces Optimized K-Means Result}}{30}{figure.21}}
\newlabel{figue:Optimized_K-Means_Result}{{21}{30}{Optimized K-Means Result}{figure.21}{}}
\@writefile{toc}{\defcounter {refsection}{0}\relax }\@writefile{toc}{\contentsline {subsubsection}{\numberline {4.8.2}Evaluation}{30}{subsubsection.4.8.2}}
\newlabel{subsubsec:Optimized_K-Means_Evaluation}{{4.8.2}{30}{Evaluation}{subsubsection.4.8.2}{}}
\citation{alpaydin1998cascaded}
\citation{alpaydin1998cascaded}
\@writefile{toc}{\defcounter {refsection}{0}\relax }\@writefile{toc}{\contentsline {section}{\numberline {5}Conclusion}{31}{section.5}}
\newlabel{sec:Conclusion}{{5}{31}{Conclusion}{section.5}{}}
\@writefile{lot}{\defcounter {refsection}{0}\relax }\@writefile{lot}{\contentsline {table}{\numberline {8}{\ignorespaces Algorithm Results}}{31}{table.8}}
\newlabel{table:Conc_Results}{{8}{31}{Algorithm Results}{table.8}{}}
\@writefile{toc}{\defcounter {refsection}{0}\relax }\@writefile{toc}{\contentsline {subsection}{\numberline {5.1}Repository}{31}{subsection.5.1}}
\newlabel{subsec:Repository}{{5.1}{31}{Repository}{subsection.5.1}{}}
\@writefile{lof}{\defcounter {refsection}{0}\relax }\@writefile{lof}{\contentsline {figure}{\numberline {22}{\ignorespaces Algorithms Accuracy Bar Chart}}{32}{figure.22}}
\newlabel{figue:Conc_accuracy}{{22}{32}{Algorithms Accuracy Bar Chart}{figure.22}{}}
\@writefile{lof}{\defcounter {refsection}{0}\relax }\@writefile{lof}{\contentsline {figure}{\numberline {23}{\ignorespaces Algorithms Time Taken Bar Chart}}{33}{figure.23}}
\newlabel{figue:Conc_timetaken}{{23}{33}{Algorithms Time Taken Bar Chart}{figure.23}{}}
\@writefile{toc}{\defcounter {refsection}{0}\relax }\@writefile{toc}{\contentsline {section}{\numberline {6}More Results}{34}{section.6}}
\newlabel{sec:more_results}{{6}{34}{More Results}{section.6}{}}
\@writefile{lof}{\defcounter {refsection}{0}\relax }\@writefile{lof}{\contentsline {figure}{\numberline {24}{\ignorespaces KNN for k=1 Result}}{34}{figure.24}}
\@writefile{lof}{\defcounter {refsection}{0}\relax }\@writefile{lof}{\contentsline {figure}{\numberline {25}{\ignorespaces KNN for k=2 Result}}{34}{figure.25}}
\@writefile{lof}{\defcounter {refsection}{0}\relax }\@writefile{lof}{\contentsline {figure}{\numberline {26}{\ignorespaces KNN for k=3 Result}}{35}{figure.26}}
\@writefile{lof}{\defcounter {refsection}{0}\relax }\@writefile{lof}{\contentsline {figure}{\numberline {27}{\ignorespaces Optimized KNN for k=5}}{35}{figure.27}}
\@writefile{lof}{\defcounter {refsection}{0}\relax }\@writefile{lof}{\contentsline {figure}{\numberline {28}{\ignorespaces Optimized KNN for k=100}}{35}{figure.28}}
\@writefile{lof}{\defcounter {refsection}{0}\relax }\@writefile{lof}{\contentsline {figure}{\numberline {29}{\ignorespaces Weighted Optimized KNN for k=100}}{36}{figure.29}}
\@writefile{lof}{\defcounter {refsection}{0}\relax }\@writefile{lof}{\contentsline {figure}{\numberline {30}{\ignorespaces Parzen Windows with binary function}}{36}{figure.30}}
\@writefile{lof}{\defcounter {refsection}{0}\relax }\@writefile{lof}{\contentsline {figure}{\numberline {31}{\ignorespaces Parzen Windows with weighing function}}{36}{figure.31}}
\@writefile{toc}{\defcounter {refsection}{0}\relax }\@writefile{toc}{\contentsline {section}{\numberline {7}References}{37}{section.7}}
\newlabel{sec:References}{{7}{37}{References}{section.7}{}}
\abx@aux@page{9}{37}
\abx@aux@page{10}{37}
\abx@aux@page{11}{37}
\abx@aux@page{12}{37}
\@writefile{toc}{\defcounter {refsection}{0}\relax }\@writefile{toc}{\contentsline {section}{\numberline {8}\ignorespaces Bibliography}{38}{section.8}}
\newlabel{Bibliography}{{8}{38}{\ignorespaces Bibliography}{section.8}{}}
