% $ biblatex auxiliary file $
% $ biblatex version 2.4 $
% Do not modify the above lines!
%
% This is an auxiliary file used by the 'biblatex' package.
% This file may safely be deleted. It will be recreated as
% required.
%
\begingroup
\makeatletter
\@ifundefined{ver@biblatex.sty}
  {\@latex@error
     {Missing 'biblatex' package}
     {The bibliography requires the 'biblatex' package.}
      \aftergroup\endinput}
  {}
\endgroup

\entry{13_biagioni_gerlich_merrifield_eriksson_2011}{article}{}
  \name{author}{4}{}{%
    {{}%
     {Biagioni}{B.}%
     {James}{J.}%
     {}{}%
     {}{}}%
    {{}%
     {Gerlich}{G.}%
     {Tomas}{T.}%
     {}{}%
     {}{}}%
    {{}%
     {Merrifield}{M.}%
     {Timothy}{T.}%
     {}{}%
     {}{}}%
    {{}%
     {Eriksson}{E.}%
     {Jakob}{J.}%
     {}{}%
     {}{}}%
  }
  \strng{namehash}{BJ+1}
  \strng{fullhash}{BJGTMTEJ1}
  \field{labelyear}{2011}
  \field{sortinit}{B}
  \verb{doi}
  \verb 10.1145/2070942.2070950
  \endverb
  \field{title}{EasyTracker}
  \field{journaltitle}{Proceedings of the 9th ACM Conference on Embedded
  Networked Sensor Systems - SenSys '11}
  \field{year}{2011}
  \field{urlday}{18}
  \field{urlmonth}{10}
  \field{urlyear}{2015}
\endentry

\entry{9_cao_krumm_2009}{article}{}
  \name{author}{2}{}{%
    {{}%
     {Cao}{C.}%
     {Lili}{L.}%
     {}{}%
     {}{}}%
    {{}%
     {Krumm}{K.}%
     {John}{J.}%
     {}{}%
     {}{}}%
  }
  \strng{namehash}{CLKJ1}
  \strng{fullhash}{CLKJ1}
  \field{labelyear}{2009}
  \field{sortinit}{C}
  \verb{doi}
  \verb 10.1145/1653771.1653776
  \endverb
  \field{title}{From GPS traces to a routable road map}
  \field{journaltitle}{Proceedings of the 17th ACM SIGSPATIAL International
  Conference on Advances in Geographic Information Systems - GIS '09}
  \field{year}{2009}
  \field{urlday}{18}
  \field{urlmonth}{10}
  \field{urlyear}{2015}
\endentry

\entry{14_duan_xiong_lee_guo_2006}{article}{}
  \name{author}{4}{}{%
    {{}%
     {Duan}{D.}%
     {Lian}{L.}%
     {}{}%
     {}{}}%
    {{}%
     {Xiong}{X.}%
     {Deyi}{D.}%
     {}{}%
     {}{}}%
    {{}%
     {Lee}{L.}%
     {Jun}{J.}%
     {}{}%
     {}{}}%
    {{}%
     {Guo}{G.}%
     {Feng}{F.}%
     {}{}%
     {}{}}%
  }
  \strng{namehash}{DL+1}
  \strng{fullhash}{DLXDLJGF1}
  \field{labelyear}{2006}
  \field{sortinit}{D}
  \verb{doi}
  \verb 10.1109/icsmc.2006.384769
  \endverb
  \field{title}{A Local Density Based Spatial Clustering Algorithm with Noise}
  \field{journaltitle}{2006 IEEE International Conference on Systems, Man and
  Cybernetics}
  \field{year}{2006}
  \field{urlday}{18}
  \field{urlmonth}{10}
  \field{urlyear}{2015}
\endentry

\entry{11_dublinked.com_2015}{misc}{}
  \name{author}{1}{}{%
    {{}%
     {Dublinked.com}{D.}%
     {}{}%
     {}{}%
     {}{}}%
  }
  \strng{namehash}{D1}
  \strng{fullhash}{D1}
  \field{labelyear}{2015}
  \field{sortinit}{D}
  \field{title}{Dublin Bus GPS sample data from Dublin City Council (Insight
  Project) - Dublinkedô . Sharing Data, Information and Ideas}
  \verb{url}
  \verb http://dublinked.com/datastore/datasets/dataset-304.php
  \endverb
  \field{year}{2015}
  \field{urlday}{18}
  \field{urlmonth}{10}
  \field{urlyear}{2015}
\endentry

\entry{12_dublinked.wordpress.com_2013}{misc}{}
  \name{author}{1}{}{%
    {{}%
     {Dublinked.wordpress.com}{D.}%
     {}{}%
     {}{}%
     {}{}}%
  }
  \strng{namehash}{D2}
  \strng{fullhash}{D2}
  \field{labelyear}{2013}
  \field{sortinit}{D}
  \field{title}{Visualise 50,000 Dublin Bus GPS Traces}
  \verb{url}
  \verb https://dublinked.wordpress.com/2013/12/10/visualise-50000-dublin-bus-g
  \verb ps-traces/
  \endverb
  \field{year}{2013}
  \field{urlday}{18}
  \field{urlmonth}{10}
  \field{urlyear}{2015}
\endentry

\entry{1_embarqindiahub.org_2015}{misc}{}
  \name{author}{1}{}{%
    {{}%
     {Embarqindiahub.org}{E.}%
     {}{}%
     {}{}%
     {}{}}%
  }
  \strng{namehash}{E1}
  \strng{fullhash}{E1}
  \field{labelyear}{2015}
  \field{sortinit}{E}
  \field{title}{2.3 Route and Service Optimisation for City Bus Services | The
  Hub}
  \verb{url}
  \verb http://embarqindiahub.org/online-publications/23-route-and-service-opti
  \verb misation-city-bus-services
  \endverb
  \field{year}{2015}
  \field{urlday}{15}
  \field{urlmonth}{10}
  \field{urlyear}{2015}
\endentry

\entry{7_gao_2012}{misc}{}
  \name{author}{1}{}{%
    {{}%
     {Gao}{G.}%
     {Jing}{J.}%
     {}{}%
     {}{}}%
  }
  \strng{namehash}{GJ1}
  \strng{fullhash}{GJ1}
  \field{labelyear}{2012}
  \field{sortinit}{G}
  \field{title}{Clustering Lecture 4: Density-based Methods}
  \verb{url}
  \verb http://www.cse.buffalo.edu/~jing/cse601/fa12/materials/clustering_densi
  \verb ty.pdf
  \endverb
  \field{journaltitle}{http://www.cse.buffalo.edu/}
  \field{year}{2012}
  \field{urlday}{17}
  \field{urlmonth}{10}
  \field{urlyear}{2015}
\endentry

\entry{3_gasparini_bouillet_calabrese_verscheure_o'brien_o'donnell_2011}{article}{}
  \name{author}{6}{}{%
    {{}%
     {Gasparini}{G.}%
     {L.}{L.}%
     {}{}%
     {}{}}%
    {{}%
     {Bouillet}{B.}%
     {E.}{E.}%
     {}{}%
     {}{}}%
    {{}%
     {Calabrese}{C.}%
     {F.}{F.}%
     {}{}%
     {}{}}%
    {{}%
     {Verscheure}{V.}%
     {O.}{O.}%
     {}{}%
     {}{}}%
    {{}%
     {O'Brien}{O.}%
     {Brendan}{B.}%
     {}{}%
     {}{}}%
    {{}%
     {O'Donnell}{O.}%
     {Maggie}{M.}%
     {}{}%
     {}{}}%
  }
  \strng{namehash}{GL+1}
  \strng{fullhash}{GLBECFVOOBOM1}
  \field{labelyear}{2011}
  \field{sortinit}{G}
  \verb{doi}
  \verb 10.1109/itsc.2011.6082982
  \endverb
  \field{title}{System and analytics for continuously assessing transport
  systems from sparse and noisy observations: Case study in Dublin}
  \field{journaltitle}{2011 14th International IEEE Conference on Intelligent
  Transportation Systems (ITSC)}
  \field{year}{2011}
  \field{urlday}{15}
  \field{urlmonth}{10}
  \field{urlyear}{2015}
\endentry

\entry{16_hodges_2008}{book}{}
  \name{author}{1}{}{%
    {{}%
     {Hodges}{H.}%
     {Nick}{N.}%
     {}{}%
     {}{}}%
  }
  \list{publisher}{1}{%
    {IET}%
  }
  \strng{namehash}{HN1}
  \strng{fullhash}{HN1}
  \field{labelyear}{2008}
  \field{sortinit}{H}
  \field{edition}{1}
  \field{title}{The Role of Intelligent Transport Systems In Network And
  Environmental Management And Policy Development In Leicester (UK)}
  \verb{url}
  \verb http://ieeexplore.ieee.org/xpl/articleDetails.jsp?arnumber=4562225&quer
  \verb yText=The%20role%20of%20Intelligent%20Transport%20Systems%20in%20Networ
  \verb k%20and%20Environmental%20Management%20and%20policy%20development%20in%
  \verb 20Leicester%20.LB.UK.RB.&newsearch=true
  \endverb
  \field{year}{2008}
  \field{urlday}{18}
  \field{urlmonth}{10}
  \field{urlyear}{2015}
\endentry

\entry{15_liu_wei_2013}{article}{}
  \name{author}{2}{}{%
    {{}%
     {Liu}{L.}%
     {Xia}{X.}%
     {}{}%
     {}{}}%
    {{}%
     {Wei}{W.}%
     {Zhiqiang}{Z.}%
     {}{}%
     {}{}}%
  }
  \strng{namehash}{LXWZ1}
  \strng{fullhash}{LXWZ1}
  \field{labelyear}{2013}
  \field{sortinit}{L}
  \verb{doi}
  \verb 10.1109/iscid.2013.118
  \endverb
  \field{title}{Research on Intelligent Transportation Scheduling Algorithm
  Optimization}
  \field{journaltitle}{2013 Sixth International Symposium on Computational
  Intelligence and Design}
  \field{year}{2013}
  \field{urlday}{18}
  \field{urlmonth}{10}
  \field{urlyear}{2015}
\endentry

\entry{6_pinelli_calabrese_bouillet_2014}{article}{}
  \name{author}{3}{}{%
    {{}%
     {Pinelli}{P.}%
     {Fabio}{F.}%
     {}{}%
     {}{}}%
    {{}%
     {Calabrese}{C.}%
     {Francesco}{F.}%
     {}{}%
     {}{}}%
    {{}%
     {Bouillet}{B.}%
     {Eric}{E.}%
     {}{}%
     {}{}}%
  }
  \strng{namehash}{PFCFBE1}
  \strng{fullhash}{PFCFBE1}
  \field{labelyear}{2014}
  \field{sortinit}{P}
  \verb{doi}
  \verb 10.1109/tits.2014.2344297
  \endverb
  \field{pages}{1\bibrangedash 6}
  \field{title}{A Methodology for Denoising and Generating Bus Infrastructure
  Data}
  \field{journaltitle}{IEEE Trans. Intell. Transport. Syst.}
  \field{year}{2014}
  \field{urlday}{17}
  \field{urlmonth}{10}
  \field{urlyear}{2015}
\endentry

\entry{8_pinelli_calabrese_bouillet_2013}{article}{}
  \name{author}{3}{}{%
    {{}%
     {Pinelli}{P.}%
     {Fabio}{F.}%
     {}{}%
     {}{}}%
    {{}%
     {Calabrese}{C.}%
     {Francesco}{F.}%
     {}{}%
     {}{}}%
    {{}%
     {Bouillet}{B.}%
     {Eric~P.}{E.~P.}%
     {}{}%
     {}{}}%
  }
  \strng{namehash}{PFCFBEP1}
  \strng{fullhash}{PFCFBEP1}
  \field{labelyear}{2013}
  \field{sortinit}{P}
  \verb{doi}
  \verb 10.1109/itsc.2013.6728570
  \endverb
  \field{title}{Robust bus-stop identification and denoising methodology}
  \field{journaltitle}{16th International IEEE Conference on Intelligent
  Transportation Systems (ITSC 2013)}
  \field{year}{2013}
  \field{urlday}{17}
  \field{urlmonth}{10}
  \field{urlyear}{2015}
\endentry

\entry{10_rehman_asghar_fong_sarasvady_2014}{article}{}
  \name{author}{4}{}{%
    {{}%
     {Rehman}{R.}%
     {Saif~Ur}{S.~U.}%
     {}{}%
     {}{}}%
    {{}%
     {Asghar}{A.}%
     {Sohail}{S.}%
     {}{}%
     {}{}}%
    {{}%
     {Fong}{F.}%
     {Simon}{S.}%
     {}{}%
     {}{}}%
    {{}%
     {Sarasvady}{S.}%
     {S.}{S.}%
     {}{}%
     {}{}}%
  }
  \strng{namehash}{RSU+1}
  \strng{fullhash}{RSUASFSSS1}
  \field{labelyear}{2014}
  \field{sortinit}{R}
  \verb{doi}
  \verb 10.1109/icadiwt.2014.6814687
  \endverb
  \field{title}{DBSCAN: Past, present and future}
  \field{journaltitle}{The Fifth International Conference on the Applications
  of Digital Information and Web Technologies (ICADIWT 2014)}
  \field{year}{2014}
  \field{urlday}{18}
  \field{urlmonth}{10}
  \field{urlyear}{2015}
\endentry

\entry{5_russell_norvig_davis_2010}{book}{}
  \name{author}{3}{}{%
    {{}%
     {Russell}{R.}%
     {Stuart~Jonathan}{S.~J.}%
     {}{}%
     {}{}}%
    {{}%
     {Norvig}{N.}%
     {Peter}{P.}%
     {}{}%
     {}{}}%
    {{}%
     {Davis}{D.}%
     {Ernest}{E.}%
     {}{}%
     {}{}}%
  }
  \list{publisher}{1}{%
    {Prentice Hall}%
  }
  \strng{namehash}{RSJNPDE1}
  \strng{fullhash}{RSJNPDE1}
  \field{labelyear}{2010}
  \field{sortinit}{R}
  \field{title}{Artificial intelligence}
  \field{year}{2010}
\endentry

\entry{4_sanders_2013}{article}{}
  \name{author}{1}{}{%
    {{}%
     {Sanders}{S.}%
     {David}{D.}%
     {}{}%
     {}{}}%
  }
  \strng{namehash}{SD1}
  \strng{fullhash}{SD1}
  \field{labelyear}{2013}
  \field{sortinit}{S}
  \field{pages}{44\bibrangedash 48}
  \field{title}{Artificial intelligence tools can aid sensor systems:original
  paper based journal publication in Control Engineering}
  \verb{url}
  \verb http://eprints.port.ac.uk/16003/
  \endverb
  \field{journaltitle}{Control Engineering}
  \field{year}{2013}
\endentry

\entry{2_transportnsw.info_2015}{misc}{}
  \name{author}{1}{}{%
    {{}%
     {Transportnsw.info}{T.}%
     {}{}%
     {}{}%
     {}{}}%
  }
  \strng{namehash}{T1}
  \strng{fullhash}{T1}
  \field{labelyear}{2015}
  \field{sortinit}{T}
  \field{title}{Sydney CBD bus network - news | transportnsw.info}
  \verb{url}
  \verb http://www.transportnsw.info/sites/en/transport-status/news/2015/sydney
  \verb -cbd-bus-network.page
  \endverb
  \field{year}{2015}
  \field{urlday}{15}
  \field{urlmonth}{10}
  \field{urlyear}{2015}
\endentry

\lossort
\endlossort

\endinput
